{
  "data": [
    {
      "id": "l389gr",
      "url": "https:\/\/wallhaven.cc\/w\/l389gr",
      "short_url": "https:\/\/whvn.cc\/l389gr",
      "views": 2,
      "favorites": 1,
      "source": "https:\/\/35photo.pro\/photo_5940456\/",
      "purity": "sfw",
      "category": "general",
      "dimension_x": 3200,
      "dimension_y": 1952,
      "resolution": "3200x1952",
      "ratio": "1.64",
      "file_size": 5620949,
      "file_type": "image\/jpeg",
      "created_at": "2021-03-08 00:22:15",
      "colors": [
        "#000000",
        "#424153",
        "#e7d8b1",
        "#cccccc",
        "#999999"
      ],
      "path": "https:\/\/w.wallhaven.cc\/full\/l3\/wallhaven-l389gr.jpg",
      "thumbs": {
        "large": "https:\/\/th.wallhaven.cc\/lg\/l3\/l389gr.jpg",
        "original": "https:\/\/th.wallhaven.cc\/orig\/l3\/l389gr.jpg",
        "small": "https:\/\/th.wallhaven.cc\/small\/l3\/l389gr.jpg"
      }
    },
    {
      "id": "y8x7kk",
      "url": "https:\/\/wallhaven.cc\/w\/y8x7kk",
      "short_url": "https:\/\/whvn.cc\/y8x7kk",
      "views": 16,
      "favorites": 1,
      "source": "https:\/\/35photo.pro\/photo_5940853\/",
      "purity": "sfw",
      "category": "general",
      "dimension_x": 2500,
      "dimension_y": 1666,
      "resolution": "2500x1666",
      "ratio": "1.5",
      "file_size": 1775543,
      "file_type": "image\/jpeg",
      "created_at": "2021-03-08 00:15:42",
      "colors": [
        "#424153",
        "#999999",
        "#000000",
        "#cccccc",
        "#abbcda"
      ],
      "path": "https:\/\/w.wallhaven.cc\/full\/y8\/wallhaven-y8x7kk.jpg",
      "thumbs": {
        "large": "https:\/\/th.wallhaven.cc\/lg\/y8\/y8x7kk.jpg",
        "original": "https:\/\/th.wallhaven.cc\/orig\/y8\/y8x7kk.jpg",
        "small": "https:\/\/th.wallhaven.cc\/small\/y8\/y8x7kk.jpg"
      }
    },
    {
      "id": "v9qx25",
      "url": "https:\/\/wallhaven.cc\/w\/v9qx25",
      "short_url": "https:\/\/whvn.cc\/v9qx25",
      "views": 25,
      "favorites": 1,
      "source": "",
      "purity": "sfw",
      "category": "anime",
      "dimension_x": 3840,
      "dimension_y": 2160,
      "resolution": "3840x2160",
      "ratio": "1.78",
      "file_size": 2082542,
      "file_type": "image\/jpeg",
      "created_at": "2021-03-08 00:02:58",
      "colors": [
        "#ffffff",
        "#abbcda",
        "#333399",
        "#cccccc",
        "#999999"
      ],
      "path": "https:\/\/w.wallhaven.cc\/full\/v9\/wallhaven-v9qx25.jpg",
      "thumbs": {
        "large": "https:\/\/th.wallhaven.cc\/lg\/v9\/v9qx25.jpg",
        "original": "https:\/\/th.wallhaven.cc\/orig\/v9\/v9qx25.jpg",
        "small": "https:\/\/th.wallhaven.cc\/small\/v9\/v9qx25.jpg"
      }
    },
    {
      "id": "28yg69",
      "url": "https:\/\/wallhaven.cc\/w\/28yg69",
      "short_url": "https:\/\/whvn.cc\/28yg69",
      "views": 32,
      "favorites": 3,
      "source": "",
      "purity": "sfw",
      "category": "general",
      "dimension_x": 3182,
      "dimension_y": 4501,
      "resolution": "3182x4501",
      "ratio": "0.71",
      "file_size": 1024959,
      "file_type": "image\/jpeg",
      "created_at": "2021-03-08 00:02:58",
      "colors": [
        "#424153",
        "#000000",
        "#663399",
        "#999999",
        "#996633"
      ],
      "path": "https:\/\/w.wallhaven.cc\/full\/28\/wallhaven-28yg69.jpg",
      "thumbs": {
        "large": "https:\/\/th.wallhaven.cc\/lg\/28\/28yg69.jpg",
        "original": "https:\/\/th.wallhaven.cc\/orig\/28\/28yg69.jpg",
        "small": "https:\/\/th.wallhaven.cc\/small\/28\/28yg69.jpg"
      }
    },
    {
      "id": "57glp3",
      "url": "https:\/\/wallhaven.cc\/w\/57glp3",
      "short_url": "https:\/\/whvn.cc\/57glp3",
      "views": 14,
      "favorites": 1,
      "source": "",
      "purity": "sfw",
      "category": "anime",
      "dimension_x": 2143,
      "dimension_y": 3000,
      "resolution": "2143x3000",
      "ratio": "0.71",
      "file_size": 8129169,
      "file_type": "image\/png",
      "created_at": "2021-03-08 00:02:58",
      "colors": [
        "#ffffff",
        "#424153",
        "#999999",
        "#000000",
        "#cccccc"
      ],
      "path": "https:\/\/w.wallhaven.cc\/full\/57\/wallhaven-57glp3.png",
      "thumbs": {
        "large": "https:\/\/th.wallhaven.cc\/lg\/57\/57glp3.jpg",
        "original": "https:\/\/th.wallhaven.cc\/orig\/57\/57glp3.jpg",
        "small": "https:\/\/th.wallhaven.cc\/small\/57\/57glp3.jpg"
      }
    },
    {
      "id": "wqeo36",
      "url": "https:\/\/wallhaven.cc\/w\/wqeo36",
      "short_url": "https:\/\/whvn.cc\/wqeo36",
      "views": 13,
      "favorites": 0,
      "source": "",
      "purity": "sfw",
      "category": "anime",
      "dimension_x": 1080,
      "dimension_y": 1920,
      "resolution": "1080x1920",
      "ratio": "0.56",
      "file_size": 290656,
      "file_type": "image\/jpeg",
      "created_at": "2021-03-08 00:02:58",
      "colors": [
        "#ffffff",
        "#424153",
        "#999999",
        "#000000",
        "#cccccc"
      ],
      "path": "https:\/\/w.wallhaven.cc\/full\/wq\/wallhaven-wqeo36.jpg",
      "thumbs": {
        "large": "https:\/\/th.wallhaven.cc\/lg\/wq\/wqeo36.jpg",
        "original": "https:\/\/th.wallhaven.cc\/orig\/wq\/wqeo36.jpg",
        "small": "https:\/\/th.wallhaven.cc\/small\/wq\/wqeo36.jpg"
      }
    },
    {
      "id": "3zlo76",
      "url": "https:\/\/wallhaven.cc\/w\/3zlo76",
      "short_url": "https:\/\/whvn.cc\/3zlo76",
      "views": 22,
      "favorites": 3,
      "source": "",
      "purity": "sfw",
      "category": "general",
      "dimension_x": 6000,
      "dimension_y": 8000,
      "resolution": "6000x8000",
      "ratio": "0.75",
      "file_size": 2403161,
      "file_type": "image\/jpeg",
      "created_at": "2021-03-08 00:02:58",
      "colors": [
        "#000000",
        "#663300",
        "#996633",
        "#e7d8b1",
        "#424153"
      ],
      "path": "https:\/\/w.wallhaven.cc\/full\/3z\/wallhaven-3zlo76.jpg",
      "thumbs": {
        "large": "https:\/\/th.wallhaven.cc\/lg\/3z\/3zlo76.jpg",
        "original": "https:\/\/th.wallhaven.cc\/orig\/3z\/3zlo76.jpg",
        "small": "https:\/\/th.wallhaven.cc\/small\/3z\/3zlo76.jpg"
      }
    },
    {
      "id": "1kp8o3",
      "url": "https:\/\/wallhaven.cc\/w\/1kp8o3",
      "short_url": "https:\/\/whvn.cc\/1kp8o3",
      "views": 24,
      "favorites": 0,
      "source": "",
      "purity": "sfw",
      "category": "anime",
      "dimension_x": 1920,
      "dimension_y": 1200,
      "resolution": "1920x1200",
      "ratio": "1.6",
      "file_size": 258792,
      "file_type": "image\/jpeg",
      "created_at": "2021-03-07 23:48:53",
      "colors": [
        "#424153",
        "#000000",
        "#999999",
        "#663399",
        "#abbcda"
      ],
      "path": "https:\/\/w.wallhaven.cc\/full\/1k\/wallhaven-1kp8o3.jpg",
      "thumbs": {
        "large": "https:\/\/th.wallhaven.cc\/lg\/1k\/1kp8o3.jpg",
        "original": "https:\/\/th.wallhaven.cc\/orig\/1k\/1kp8o3.jpg",
        "small": "https:\/\/th.wallhaven.cc\/small\/1k\/1kp8o3.jpg"
      }
    },
    {
      "id": "rdr3eq",
      "url": "https:\/\/wallhaven.cc\/w\/rdr3eq",
      "short_url": "https:\/\/whvn.cc\/rdr3eq",
      "views": 36,
      "favorites": 1,
      "source": "",
      "purity": "sfw",
      "category": "anime",
      "dimension_x": 3442,
      "dimension_y": 5617,
      "resolution": "3442x5617",
      "ratio": "0.61",
      "file_size": 2240943,
      "file_type": "image\/jpeg",
      "created_at": "2021-03-07 23:48:53",
      "colors": [
        "#ffffff",
        "#cccccc",
        "#abbcda",
        "#424153",
        "#999999"
      ],
      "path": "https:\/\/w.wallhaven.cc\/full\/rd\/wallhaven-rdr3eq.jpg",
      "thumbs": {
        "large": "https:\/\/th.wallhaven.cc\/lg\/rd\/rdr3eq.jpg",
        "original": "https:\/\/th.wallhaven.cc\/orig\/rd\/rdr3eq.jpg",
        "small": "https:\/\/th.wallhaven.cc\/small\/rd\/rdr3eq.jpg"
      }
    },
    {
      "id": "q2z9pd",
      "url": "https:\/\/wallhaven.cc\/w\/q2z9pd",
      "short_url": "https:\/\/whvn.cc\/q2z9pd",
      "views": 25,
      "favorites": 2,
      "source": "",
      "purity": "sfw",
      "category": "anime",
      "dimension_x": 2000,
      "dimension_y": 1413,
      "resolution": "2000x1413",
      "ratio": "1.42",
      "file_size": 285828,
      "file_type": "image\/jpeg",
      "created_at": "2021-03-07 23:48:53",
      "colors": [
        "#424153",
        "#000000",
        "#663399",
        "#999999",
        "#ffffff"
      ],
      "path": "https:\/\/w.wallhaven.cc\/full\/q2\/wallhaven-q2z9pd.jpg",
      "thumbs": {
        "large": "https:\/\/th.wallhaven.cc\/lg\/q2\/q2z9pd.jpg",
        "original": "https:\/\/th.wallhaven.cc\/orig\/q2\/q2z9pd.jpg",
        "small": "https:\/\/th.wallhaven.cc\/small\/q2\/q2z9pd.jpg"
      }
    },
    {
      "id": "9mdxkd",
      "url": "https:\/\/wallhaven.cc\/w\/9mdxkd",
      "short_url": "https:\/\/whvn.cc\/9mdxkd",
      "views": 21,
      "favorites": 1,
      "source": "",
      "purity": "sfw",
      "category": "anime",
      "dimension_x": 4534,
      "dimension_y": 2480,
      "resolution": "4534x2480",
      "ratio": "1.83",
      "file_size": 1138824,
      "file_type": "image\/jpeg",
      "created_at": "2021-03-07 23:48:53",
      "colors": [
        "#ffffff",
        "#999999",
        "#cccccc",
        "#abbcda",
        "#424153"
      ],
      "path": "https:\/\/w.wallhaven.cc\/full\/9m\/wallhaven-9mdxkd.jpg",
      "thumbs": {
        "large": "https:\/\/th.wallhaven.cc\/lg\/9m\/9mdxkd.jpg",
        "original": "https:\/\/th.wallhaven.cc\/orig\/9m\/9mdxkd.jpg",
        "small": "https:\/\/th.wallhaven.cc\/small\/9m\/9mdxkd.jpg"
      }
    },
    {
      "id": "k7x3j7",
      "url": "https:\/\/wallhaven.cc\/w\/k7x3j7",
      "short_url": "https:\/\/whvn.cc\/k7x3j7",
      "views": 14,
      "favorites": 0,
      "source": "",
      "purity": "sfw",
      "category": "anime",
      "dimension_x": 1920,
      "dimension_y": 1200,
      "resolution": "1920x1200",
      "ratio": "1.6",
      "file_size": 698392,
      "file_type": "image\/jpeg",
      "created_at": "2021-03-07 23:48:53",
      "colors": [
        "#ffffff",
        "#424153",
        "#663399",
        "#fdadc7",
        "#993399"
      ],
      "path": "https:\/\/w.wallhaven.cc\/full\/k7\/wallhaven-k7x3j7.jpg",
      "thumbs": {
        "large": "https:\/\/th.wallhaven.cc\/lg\/k7\/k7x3j7.jpg",
        "original": "https:\/\/th.wallhaven.cc\/orig\/k7\/k7x3j7.jpg",
        "small": "https:\/\/th.wallhaven.cc\/small\/k7\/k7x3j7.jpg"
      }
    },
    {
      "id": "dp6xv3",
      "url": "https:\/\/wallhaven.cc\/w\/dp6xv3",
      "short_url": "https:\/\/whvn.cc\/dp6xv3",
      "views": 18,
      "favorites": 0,
      "source": "",
      "purity": "sfw",
      "category": "anime",
      "dimension_x": 3840,
      "dimension_y": 2400,
      "resolution": "3840x2400",
      "ratio": "1.6",
      "file_size": 1970817,
      "file_type": "image\/jpeg",
      "created_at": "2021-03-07 23:48:53",
      "colors": [
        "#cccccc",
        "#abbcda",
        "#999999",
        "#424153",
        "#663399"
      ],
      "path": "https:\/\/w.wallhaven.cc\/full\/dp\/wallhaven-dp6xv3.jpg",
      "thumbs": {
        "large": "https:\/\/th.wallhaven.cc\/lg\/dp\/dp6xv3.jpg",
        "original": "https:\/\/th.wallhaven.cc\/orig\/dp\/dp6xv3.jpg",
        "small": "https:\/\/th.wallhaven.cc\/small\/dp\/dp6xv3.jpg"
      }
    },
    {
      "id": "m93qyk",
      "url": "https:\/\/wallhaven.cc\/w\/m93qyk",
      "short_url": "https:\/\/whvn.cc\/m93qyk",
      "views": 34,
      "favorites": 4,
      "source": "https:\/\/twitter.com\/i\/web\/status\/1359832279057453057",
      "purity": "sfw",
      "category": "anime",
      "dimension_x": 2233,
      "dimension_y": 1261,
      "resolution": "2233x1261",
      "ratio": "1.77",
      "file_size": 400189,
      "file_type": "image\/jpeg",
      "created_at": "2021-03-07 23:43:18",
      "colors": [
        "#000000",
        "#424153",
        "#999999",
        "#fdadc7",
        "#ffffff"
      ],
      "path": "https:\/\/w.wallhaven.cc\/full\/m9\/wallhaven-m93qyk.jpg",
      "thumbs": {
        "large": "https:\/\/th.wallhaven.cc\/lg\/m9\/m93qyk.jpg",
        "original": "https:\/\/th.wallhaven.cc\/orig\/m9\/m93qyk.jpg",
        "small": "https:\/\/th.wallhaven.cc\/small\/m9\/m93qyk.jpg"
      }
    },
    {
      "id": "x8659v",
      "url": "https:\/\/wallhaven.cc\/w\/x8659v",
      "short_url": "https:\/\/whvn.cc\/x8659v",
      "views": 29,
      "favorites": 1,
      "source": "https:\/\/www.pixiv.net\/en\/artworks\/87557715",
      "purity": "sfw",
      "category": "anime",
      "dimension_x": 3836,
      "dimension_y": 2160,
      "resolution": "3836x2160",
      "ratio": "1.78",
      "file_size": 15215531,
      "file_type": "image\/jpeg",
      "created_at": "2021-03-07 23:43:18",
      "colors": [
        "#0099cc",
        "#66cccc",
        "#0066cc",
        "#abbcda",
        "#ffffff"
      ],
      "path": "https:\/\/w.wallhaven.cc\/full\/x8\/wallhaven-x8659v.jpg",
      "thumbs": {
        "large": "https:\/\/th.wallhaven.cc\/lg\/x8\/x8659v.jpg",
        "original": "https:\/\/th.wallhaven.cc\/orig\/x8\/x8659v.jpg",
        "small": "https:\/\/th.wallhaven.cc\/small\/x8\/x8659v.jpg"
      }
    },
    {
      "id": "e7xz2k",
      "url": "https:\/\/wallhaven.cc\/w\/e7xz2k",
      "short_url": "https:\/\/whvn.cc\/e7xz2k",
      "views": 37,
      "favorites": 2,
      "source": "https:\/\/www.pixiv.net\/en\/artworks\/85830934",
      "purity": "sfw",
      "category": "anime",
      "dimension_x": 2500,
      "dimension_y": 1667,
      "resolution": "2500x1667",
      "ratio": "1.5",
      "file_size": 7020078,
      "file_type": "image\/png",
      "created_at": "2021-03-07 23:43:18",
      "colors": [
        "#000000",
        "#996633",
        "#424153",
        "#999999",
        "#ffffff"
      ],
      "path": "https:\/\/w.wallhaven.cc\/full\/e7\/wallhaven-e7xz2k.png",
      "thumbs": {
        "large": "https:\/\/th.wallhaven.cc\/lg\/e7\/e7xz2k.jpg",
        "original": "https:\/\/th.wallhaven.cc\/orig\/e7\/e7xz2k.jpg",
        "small": "https:\/\/th.wallhaven.cc\/small\/e7\/e7xz2k.jpg"
      }
    },
    {
      "id": "pk93ge",
      "url": "https:\/\/wallhaven.cc\/w\/pk93ge",
      "short_url": "https:\/\/whvn.cc\/pk93ge",
      "views": 22,
      "favorites": 1,
      "source": "https:\/\/www.pixiv.net\/en\/artworks\/88191316",
      "purity": "sfw",
      "category": "anime",
      "dimension_x": 2048,
      "dimension_y": 1272,
      "resolution": "2048x1272",
      "ratio": "1.61",
      "file_size": 2166899,
      "file_type": "image\/jpeg",
      "created_at": "2021-03-07 23:43:18",
      "colors": [
        "#999999",
        "#424153",
        "#e7d8b1",
        "#fdadc7",
        "#663399"
      ],
      "path": "https:\/\/w.wallhaven.cc\/full\/pk\/wallhaven-pk93ge.jpg",
      "thumbs": {
        "large": "https:\/\/th.wallhaven.cc\/lg\/pk\/pk93ge.jpg",
        "original": "https:\/\/th.wallhaven.cc\/orig\/pk\/pk93ge.jpg",
        "small": "https:\/\/th.wallhaven.cc\/small\/pk\/pk93ge.jpg"
      }
    },
    {
      "id": "z8ygvg",
      "url": "https:\/\/wallhaven.cc\/w\/z8ygvg",
      "short_url": "https:\/\/whvn.cc\/z8ygvg",
      "views": 17,
      "favorites": 0,
      "source": "",
      "purity": "sfw",
      "category": "anime",
      "dimension_x": 1920,
      "dimension_y": 1200,
      "resolution": "1920x1200",
      "ratio": "1.6",
      "file_size": 616656,
      "file_type": "image\/jpeg",
      "created_at": "2021-03-07 23:36:19",
      "colors": [
        "#000000",
        "#424153",
        "#fdadc7",
        "#ffffff",
        "#999999"
      ],
      "path": "https:\/\/w.wallhaven.cc\/full\/z8\/wallhaven-z8ygvg.jpg",
      "thumbs": {
        "large": "https:\/\/th.wallhaven.cc\/lg\/z8\/z8ygvg.jpg",
        "original": "https:\/\/th.wallhaven.cc\/orig\/z8\/z8ygvg.jpg",
        "small": "https:\/\/th.wallhaven.cc\/small\/z8\/z8ygvg.jpg"
      }
    },
    {
      "id": "8o57j2",
      "url": "https:\/\/wallhaven.cc\/w\/8o57j2",
      "short_url": "https:\/\/whvn.cc\/8o57j2",
      "views": 73,
      "favorites": 4,
      "source": "",
      "purity": "sfw",
      "category": "general",
      "dimension_x": 1368,
      "dimension_y": 1426,
      "resolution": "1368x1426",
      "ratio": "0.96",
      "file_size": 402025,
      "file_type": "image\/jpeg",
      "created_at": "2021-03-07 23:34:52",
      "colors": [
        "#424153",
        "#000000",
        "#333399",
        "#999999",
        "#cccccc"
      ],
      "path": "https:\/\/w.wallhaven.cc\/full\/8o\/wallhaven-8o57j2.jpg",
      "thumbs": {
        "large": "https:\/\/th.wallhaven.cc\/lg\/8o\/8o57j2.jpg",
        "original": "https:\/\/th.wallhaven.cc\/orig\/8o\/8o57j2.jpg",
        "small": "https:\/\/th.wallhaven.cc\/small\/8o\/8o57j2.jpg"
      }
    },
    {
      "id": "72pglv",
      "url": "https:\/\/wallhaven.cc\/w\/72pglv",
      "short_url": "https:\/\/whvn.cc\/72pglv",
      "views": 29,
      "favorites": 0,
      "source": "",
      "purity": "sfw",
      "category": "general",
      "dimension_x": 2500,
      "dimension_y": 1200,
      "resolution": "2500x1200",
      "ratio": "2.08",
      "file_size": 515083,
      "file_type": "image\/jpeg",
      "created_at": "2021-03-07 23:33:08",
      "colors": [
        "#999999",
        "#000000",
        "#424153",
        "#663300",
        "#996633"
      ],
      "path": "https:\/\/w.wallhaven.cc\/full\/72\/wallhaven-72pglv.jpg",
      "thumbs": {
        "large": "https:\/\/th.wallhaven.cc\/lg\/72\/72pglv.jpg",
        "original": "https:\/\/th.wallhaven.cc\/orig\/72\/72pglv.jpg",
        "small": "https:\/\/th.wallhaven.cc\/small\/72\/72pglv.jpg"
      }
    },
    {
      "id": "o359jm",
      "url": "https:\/\/wallhaven.cc\/w\/o359jm",
      "short_url": "https:\/\/whvn.cc\/o359jm",
      "views": 28,
      "favorites": 1,
      "source": "",
      "purity": "sfw",
      "category": "general",
      "dimension_x": 2500,
      "dimension_y": 1666,
      "resolution": "2500x1666",
      "ratio": "1.5",
      "file_size": 747383,
      "file_type": "image\/jpeg",
      "created_at": "2021-03-07 23:19:56",
      "colors": [
        "#e7d8b1",
        "#996633",
        "#cc6633",
        "#cccc33",
        "#666600"
      ],
      "path": "https:\/\/w.wallhaven.cc\/full\/o3\/wallhaven-o359jm.jpg",
      "thumbs": {
        "large": "https:\/\/th.wallhaven.cc\/lg\/o3\/o359jm.jpg",
        "original": "https:\/\/th.wallhaven.cc\/orig\/o3\/o359jm.jpg",
        "small": "https:\/\/th.wallhaven.cc\/small\/o3\/o359jm.jpg"
      }
    },
    {
      "id": "rdr367",
      "url": "https:\/\/wallhaven.cc\/w\/rdr367",
      "short_url": "https:\/\/whvn.cc\/rdr367",
      "views": 52,
      "favorites": 1,
      "source": "",
      "purity": "sfw",
      "category": "general",
      "dimension_x": 1920,
      "dimension_y": 1080,
      "resolution": "1920x1080",
      "ratio": "1.78",
      "file_size": 1796962,
      "file_type": "image\/png",
      "created_at": "2021-03-07 22:49:11",
      "colors": [
        "#000000",
        "#424153",
        "#336600",
        "#660000",
        "#ffcc33"
      ],
      "path": "https:\/\/w.wallhaven.cc\/full\/rd\/wallhaven-rdr367.png",
      "thumbs": {
        "large": "https:\/\/th.wallhaven.cc\/lg\/rd\/rdr367.jpg",
        "original": "https:\/\/th.wallhaven.cc\/orig\/rd\/rdr367.jpg",
        "small": "https:\/\/th.wallhaven.cc\/small\/rd\/rdr367.jpg"
      }
    },
    {
      "id": "3zlo63",
      "url": "https:\/\/wallhaven.cc\/w\/3zlo63",
      "short_url": "https:\/\/whvn.cc\/3zlo63",
      "views": 223,
      "favorites": 5,
      "source": "",
      "purity": "sfw",
      "category": "general",
      "dimension_x": 1920,
      "dimension_y": 1080,
      "resolution": "1920x1080",
      "ratio": "1.78",
      "file_size": 2454376,
      "file_type": "image\/jpeg",
      "created_at": "2021-03-07 20:45:36",
      "colors": [
        "#424153",
        "#000000",
        "#999999",
        "#663399",
        "#996633"
      ],
      "path": "https:\/\/w.wallhaven.cc\/full\/3z\/wallhaven-3zlo63.jpg",
      "thumbs": {
        "large": "https:\/\/th.wallhaven.cc\/lg\/3z\/3zlo63.jpg",
        "original": "https:\/\/th.wallhaven.cc\/orig\/3z\/3zlo63.jpg",
        "small": "https:\/\/th.wallhaven.cc\/small\/3z\/3zlo63.jpg"
      }
    },
    {
      "id": "j3x9vy",
      "url": "https:\/\/wallhaven.cc\/w\/j3x9vy",
      "short_url": "https:\/\/whvn.cc\/j3x9vy",
      "views": 68,
      "favorites": 1,
      "source": "",
      "purity": "sfw",
      "category": "general",
      "dimension_x": 1920,
      "dimension_y": 1080,
      "resolution": "1920x1080",
      "ratio": "1.78",
      "file_size": 2737002,
      "file_type": "image\/png",
      "created_at": "2021-03-07 19:54:55",
      "colors": [
        "#000000",
        "#663300",
        "#ff9900",
        "#f5dd01",
        "#ff6600"
      ],
      "path": "https:\/\/w.wallhaven.cc\/full\/j3\/wallhaven-j3x9vy.png",
      "thumbs": {
        "large": "https:\/\/th.wallhaven.cc\/lg\/j3\/j3x9vy.jpg",
        "original": "https:\/\/th.wallhaven.cc\/orig\/j3\/j3x9vy.jpg",
        "small": "https:\/\/th.wallhaven.cc\/small\/j3\/j3x9vy.jpg"
      }
    }
  ],
  "meta": {
    "current_page": 1,
    "last_page": 14297,
    "per_page": 24,
    "total": 343119,
    "query": null,
    "seed": null
  }
}
