{
  "data": [
    {
      "id": "5wzqd3",
      "url": "https:\/\/wallhaven.cc\/w\/5wzqd3",
      "short_url": "https:\/\/whvn.cc\/5wzqd3",
      "views": 2612,
      "favorites": 31,
      "source": "https:\/\/www.deviantart.com\/starkitecktdesigns\/art\/Undersea-Temple-Nebula-672425961",
      "purity": "sfw",
      "category": "general",
      "dimension_x": 2560,
      "dimension_y": 1440,
      "resolution": "2560x1440",
      "ratio": "1.78",
      "file_size": 2239558,
      "file_type": "image\/jpeg",
      "created_at": "2019-03-19 02:39:56",
      "colors": [
        "#000000",
        "#424153",
        "#333399",
        "#0066cc",
        "#0099cc"
      ],
      "path": "https:\/\/w.wallhaven.cc\/full\/5w\/wallhaven-5wzqd3.jpg",
      "thumbs": {
        "large": "https:\/\/th.wallhaven.cc\/lg\/5w\/5wzqd3.jpg",
        "original": "https:\/\/th.wallhaven.cc\/orig\/5w\/5wzqd3.jpg",
        "small": "https:\/\/th.wallhaven.cc\/small\/5w\/5wzqd3.jpg"
      }
    },
    {
      "id": "2ezoxy",
      "url": "https:\/\/wallhaven.cc\/w\/2ezoxy",
      "short_url": "https:\/\/whvn.cc\/2ezoxy",
      "views": 14446,
      "favorites": 119,
      "source": "https:\/\/www.deviantart.com\/starkitecktdesigns\/art\/Cold-Embrace-High-Resolution-670547482",
      "purity": "sfw",
      "category": "general",
      "dimension_x": 5120,
      "dimension_y": 2880,
      "resolution": "5120x2880",
      "ratio": "1.78",
      "file_size": 3588078,
      "file_type": "image\/jpeg",
      "created_at": "2019-03-10 04:19:39",
      "colors": [
        "#000000",
        "#424153",
        "#333399",
        "#66cccc",
        "#0066cc"
      ],
      "path": "https:\/\/w.wallhaven.cc\/full\/2e\/wallhaven-2ezoxy.jpg",
      "thumbs": {
        "large": "https:\/\/th.wallhaven.cc\/lg\/2e\/2ezoxy.jpg",
        "original": "https:\/\/th.wallhaven.cc\/orig\/2e\/2ezoxy.jpg",
        "small": "https:\/\/th.wallhaven.cc\/small\/2e\/2ezoxy.jpg"
      }
    },
    {
      "id": "mdzl6k",
      "url": "https:\/\/wallhaven.cc\/w\/mdzl6k",
      "short_url": "https:\/\/whvn.cc\/mdzl6k",
      "views": 6470,
      "favorites": 45,
      "source": "",
      "purity": "sfw",
      "category": "general",
      "dimension_x": 3840,
      "dimension_y": 2160,
      "resolution": "3840x2160",
      "ratio": "1.78",
      "file_size": 8536165,
      "file_type": "image\/jpeg",
      "created_at": "2019-02-28 19:29:59",
      "colors": [
        "#000000",
        "#424153",
        "#cc3333",
        "#e7d8b1",
        "#cc6633"
      ],
      "path": "https:\/\/w.wallhaven.cc\/full\/md\/wallhaven-mdzl6k.jpg",
      "thumbs": {
        "large": "https:\/\/th.wallhaven.cc\/lg\/md\/mdzl6k.jpg",
        "original": "https:\/\/th.wallhaven.cc\/orig\/md\/mdzl6k.jpg",
        "small": "https:\/\/th.wallhaven.cc\/small\/md\/mdzl6k.jpg"
      }
    },
    {
      "id": "p8lwvp",
      "url": "https:\/\/wallhaven.cc\/w\/p8lwvp",
      "short_url": "https:\/\/whvn.cc\/p8lwvp",
      "views": 2501,
      "favorites": 17,
      "source": "",
      "purity": "sfw",
      "category": "general",
      "dimension_x": 1920,
      "dimension_y": 1080,
      "resolution": "1920x1080",
      "ratio": "1.78",
      "file_size": 1391970,
      "file_type": "image\/jpeg",
      "created_at": "2019-03-03 23:24:32",
      "colors": [
        "#000000",
        "#424153",
        "#663399",
        "#993399",
        "#999999"
      ],
      "path": "https:\/\/w.wallhaven.cc\/full\/p8\/wallhaven-p8lwvp.jpg",
      "thumbs": {
        "large": "https:\/\/th.wallhaven.cc\/lg\/p8\/p8lwvp.jpg",
        "original": "https:\/\/th.wallhaven.cc\/orig\/p8\/p8lwvp.jpg",
        "small": "https:\/\/th.wallhaven.cc\/small\/p8\/p8lwvp.jpg"
      }
    },
    {
      "id": "j5e95w",
      "url": "https:\/\/wallhaven.cc\/w\/j5e95w",
      "short_url": "https:\/\/whvn.cc\/j5e95w",
      "views": 9078,
      "favorites": 64,
      "source": "https:\/\/www.deviantart.com\/starkitecktdesigns\/art\/Atlantis-Nebula-11-776231496",
      "purity": "sfw",
      "category": "general",
      "dimension_x": 3840,
      "dimension_y": 2160,
      "resolution": "3840x2160",
      "ratio": "1.78",
      "file_size": 2267667,
      "file_type": "image\/jpeg",
      "created_at": "2019-01-09 08:30:25",
      "colors": [
        "#424153",
        "#333399",
        "#000000",
        "#0066cc",
        "#0099cc"
      ],
      "path": "https:\/\/w.wallhaven.cc\/full\/j5\/wallhaven-j5e95w.jpg",
      "thumbs": {
        "large": "https:\/\/th.wallhaven.cc\/lg\/j5\/j5e95w.jpg",
        "original": "https:\/\/th.wallhaven.cc\/orig\/j5\/j5e95w.jpg",
        "small": "https:\/\/th.wallhaven.cc\/small\/j5\/j5e95w.jpg"
      }
    },
    {
      "id": "732329",
      "url": "https:\/\/wallhaven.cc\/w\/732329",
      "short_url": "https:\/\/whvn.cc\/732329",
      "views": 38716,
      "favorites": 383,
      "source": "https:\/\/www.deviantart.com\/starkiteckt\/art\/Hell-s-Kitchen-Nebula-652008697",
      "purity": "sfw",
      "category": "general",
      "dimension_x": 5120,
      "dimension_y": 2880,
      "resolution": "5120x2880",
      "ratio": "1.78",
      "file_size": 3198961,
      "file_type": "image\/jpeg",
      "created_at": "2018-10-21 02:22:17",
      "colors": [
        "#000000",
        "#424153",
        "#663300",
        "#660000",
        "#990000"
      ],
      "path": "https:\/\/w.wallhaven.cc\/full\/73\/wallhaven-732329.jpg",
      "thumbs": {
        "large": "https:\/\/th.wallhaven.cc\/lg\/73\/732329.jpg",
        "original": "https:\/\/th.wallhaven.cc\/orig\/73\/732329.jpg",
        "small": "https:\/\/th.wallhaven.cc\/small\/73\/732329.jpg"
      }
    },
    {
      "id": "966vqw",
      "url": "https:\/\/wallhaven.cc\/w\/966vqw",
      "short_url": "https:\/\/whvn.cc\/966vqw",
      "views": 19840,
      "favorites": 183,
      "source": "https:\/\/www.deviantart.com\/starkiteckt\/art\/Fishtank-Nebula-648905045",
      "purity": "sfw",
      "category": "general",
      "dimension_x": 5120,
      "dimension_y": 2880,
      "resolution": "5120x2880",
      "ratio": "1.78",
      "file_size": 3526092,
      "file_type": "image\/jpeg",
      "created_at": "2018-10-07 06:41:10",
      "colors": [
        "#000000",
        "#424153",
        "#333399",
        "#0066cc",
        "#0099cc"
      ],
      "path": "https:\/\/w.wallhaven.cc\/full\/96\/wallhaven-966vqw.jpg",
      "thumbs": {
        "large": "https:\/\/th.wallhaven.cc\/lg\/96\/966vqw.jpg",
        "original": "https:\/\/th.wallhaven.cc\/orig\/96\/966vqw.jpg",
        "small": "https:\/\/th.wallhaven.cc\/small\/96\/966vqw.jpg"
      }
    },
    {
      "id": "p88x6m",
      "url": "https:\/\/wallhaven.cc\/w\/p88x6m",
      "short_url": "https:\/\/whvn.cc\/p88x6m",
      "views": 20898,
      "favorites": 224,
      "source": "https:\/\/www.deviantart.com\/starkiteckt\/art\/The-Dark-Dimension-658282539",
      "purity": "sfw",
      "category": "general",
      "dimension_x": 1920,
      "dimension_y": 1200,
      "resolution": "1920x1200",
      "ratio": "1.6",
      "file_size": 980582,
      "file_type": "image\/jpeg",
      "created_at": "2018-10-01 09:39:31",
      "colors": [
        "#000000",
        "#424153",
        "#660000",
        "#663300",
        "#333399"
      ],
      "path": "https:\/\/w.wallhaven.cc\/full\/p8\/wallhaven-p88x6m.jpg",
      "thumbs": {
        "large": "https:\/\/th.wallhaven.cc\/lg\/p8\/p88x6m.jpg",
        "original": "https:\/\/th.wallhaven.cc\/orig\/p8\/p88x6m.jpg",
        "small": "https:\/\/th.wallhaven.cc\/small\/p8\/p88x6m.jpg"
      }
    },
    {
      "id": "q665rr",
      "url": "https:\/\/wallhaven.cc\/w\/q665rr",
      "short_url": "https:\/\/whvn.cc\/q665rr",
      "views": 13843,
      "favorites": 120,
      "source": "https:\/\/www.deviantart.com\/starkiteckt\/art\/Atlantis-Nebula-7-639175475",
      "purity": "sfw",
      "category": "general",
      "dimension_x": 5120,
      "dimension_y": 2880,
      "resolution": "5120x2880",
      "ratio": "1.78",
      "file_size": 4931497,
      "file_type": "image\/jpeg",
      "created_at": "2018-09-26 03:55:53",
      "colors": [
        "#000000",
        "#424153",
        "#333399",
        "#0066cc",
        "#0099cc"
      ],
      "path": "https:\/\/w.wallhaven.cc\/full\/q6\/wallhaven-q665rr.jpg",
      "thumbs": {
        "large": "https:\/\/th.wallhaven.cc\/lg\/q6\/q665rr.jpg",
        "original": "https:\/\/th.wallhaven.cc\/orig\/q6\/q665rr.jpg",
        "small": "https:\/\/th.wallhaven.cc\/small\/q6\/q665rr.jpg"
      }
    },
    {
      "id": "j55x6p",
      "url": "https:\/\/wallhaven.cc\/w\/j55x6p",
      "short_url": "https:\/\/whvn.cc\/j55x6p",
      "views": 4117,
      "favorites": 16,
      "source": "https:\/\/www.deviantart.com\/ladyrapid\/art\/OUTER-REGIONS-124829525",
      "purity": "sfw",
      "category": "general",
      "dimension_x": 1920,
      "dimension_y": 1200,
      "resolution": "1920x1200",
      "ratio": "1.6",
      "file_size": 2113154,
      "file_type": "image\/jpeg",
      "created_at": "2018-09-11 00:54:40",
      "colors": [
        "#333399",
        "#424153",
        "#663399",
        "#0099cc",
        "#66cccc"
      ],
      "path": "https:\/\/w.wallhaven.cc\/full\/j5\/wallhaven-j55x6p.jpg",
      "thumbs": {
        "large": "https:\/\/th.wallhaven.cc\/lg\/j5\/j55x6p.jpg",
        "original": "https:\/\/th.wallhaven.cc\/orig\/j5\/j55x6p.jpg",
        "small": "https:\/\/th.wallhaven.cc\/small\/j5\/j55x6p.jpg"
      }
    },
    {
      "id": "j58j75",
      "url": "https:\/\/wallhaven.cc\/w\/j58j75",
      "short_url": "https:\/\/whvn.cc\/j58j75",
      "views": 4869,
      "favorites": 41,
      "source": "https:\/\/www.deviantart.com\/tadp0l3\/art\/Nocturnal-skies-146160144",
      "purity": "sfw",
      "category": "general",
      "dimension_x": 1920,
      "dimension_y": 1080,
      "resolution": "1920x1080",
      "ratio": "1.78",
      "file_size": 1265828,
      "file_type": "image\/jpeg",
      "created_at": "2018-08-21 00:48:58",
      "colors": [
        "#000000",
        "#424153",
        "#333399",
        "#663399",
        "#abbcda"
      ],
      "path": "https:\/\/w.wallhaven.cc\/full\/j5\/wallhaven-j58j75.jpg",
      "thumbs": {
        "large": "https:\/\/th.wallhaven.cc\/lg\/j5\/j58j75.jpg",
        "original": "https:\/\/th.wallhaven.cc\/orig\/j5\/j58j75.jpg",
        "small": "https:\/\/th.wallhaven.cc\/small\/j5\/j58j75.jpg"
      }
    },
    {
      "id": "xl5k7l",
      "url": "https:\/\/wallhaven.cc\/w\/xl5k7l",
      "short_url": "https:\/\/whvn.cc\/xl5k7l",
      "views": 3470,
      "favorites": 26,
      "source": "",
      "purity": "sfw",
      "category": "general",
      "dimension_x": 1920,
      "dimension_y": 1080,
      "resolution": "1920x1080",
      "ratio": "1.78",
      "file_size": 1489826,
      "file_type": "image\/jpeg",
      "created_at": "2018-07-02 00:54:41",
      "colors": [
        "#000000",
        "#663300",
        "#660000",
        "#996633",
        "#cc6633"
      ],
      "path": "https:\/\/w.wallhaven.cc\/full\/xl\/wallhaven-xl5k7l.jpg",
      "thumbs": {
        "large": "https:\/\/th.wallhaven.cc\/lg\/xl\/xl5k7l.jpg",
        "original": "https:\/\/th.wallhaven.cc\/orig\/xl\/xl5k7l.jpg",
        "small": "https:\/\/th.wallhaven.cc\/small\/xl\/xl5k7l.jpg"
      }
    },
    {
      "id": "73gr3y",
      "url": "https:\/\/wallhaven.cc\/w\/73gr3y",
      "short_url": "https:\/\/whvn.cc\/73gr3y",
      "views": 3953,
      "favorites": 24,
      "source": "https:\/\/tobiasroetsch.deviantart.com\/art\/Loca-Infernorum-58780903",
      "purity": "sfw",
      "category": "general",
      "dimension_x": 1920,
      "dimension_y": 1200,
      "resolution": "1920x1200",
      "ratio": "1.6",
      "file_size": 2020961,
      "file_type": "image\/jpeg",
      "created_at": "2018-06-26 02:48:00",
      "colors": [
        "#000000",
        "#663300",
        "#660000",
        "#996633",
        "#cc6633"
      ],
      "path": "https:\/\/w.wallhaven.cc\/full\/73\/wallhaven-73gr3y.jpg",
      "thumbs": {
        "large": "https:\/\/th.wallhaven.cc\/lg\/73\/73gr3y.jpg",
        "original": "https:\/\/th.wallhaven.cc\/orig\/73\/73gr3y.jpg",
        "small": "https:\/\/th.wallhaven.cc\/small\/73\/73gr3y.jpg"
      }
    },
    {
      "id": "lqeer2",
      "url": "https:\/\/wallhaven.cc\/w\/lqeer2",
      "short_url": "https:\/\/whvn.cc\/lqeer2",
      "views": 7836,
      "favorites": 52,
      "source": "https:\/\/vadimsadovski.artstation.com\/projects\/OR3Yy",
      "purity": "sfw",
      "category": "general",
      "dimension_x": 1920,
      "dimension_y": 1199,
      "resolution": "1920x1199",
      "ratio": "1.6",
      "file_size": 254962,
      "file_type": "image\/jpeg",
      "created_at": "2018-06-08 16:43:49",
      "colors": [
        "#000000",
        "#424153",
        "#999999",
        "#66cccc",
        "#e7d8b1"
      ],
      "path": "https:\/\/w.wallhaven.cc\/full\/lq\/wallhaven-lqeer2.jpg",
      "thumbs": {
        "large": "https:\/\/th.wallhaven.cc\/lg\/lq\/lqeer2.jpg",
        "original": "https:\/\/th.wallhaven.cc\/orig\/lq\/lqeer2.jpg",
        "small": "https:\/\/th.wallhaven.cc\/small\/lq\/lqeer2.jpg"
      }
    },
    {
      "id": "6q91jw",
      "url": "https:\/\/wallhaven.cc\/w\/6q91jw",
      "short_url": "https:\/\/whvn.cc\/6q91jw",
      "views": 3945,
      "favorites": 23,
      "source": "",
      "purity": "sfw",
      "category": "general",
      "dimension_x": 1920,
      "dimension_y": 1080,
      "resolution": "1920x1080",
      "ratio": "1.78",
      "file_size": 1274867,
      "file_type": "image\/jpeg",
      "created_at": "2018-05-27 00:20:52",
      "colors": [
        "#000000",
        "#424153",
        "#ea4c88",
        "#cc3333",
        "#660000"
      ],
      "path": "https:\/\/w.wallhaven.cc\/full\/6q\/wallhaven-6q91jw.jpg",
      "thumbs": {
        "large": "https:\/\/th.wallhaven.cc\/lg\/6q\/6q91jw.jpg",
        "original": "https:\/\/th.wallhaven.cc\/orig\/6q\/6q91jw.jpg",
        "small": "https:\/\/th.wallhaven.cc\/small\/6q\/6q91jw.jpg"
      }
    },
    {
      "id": "p2rjo3",
      "url": "https:\/\/wallhaven.cc\/w\/p2rjo3",
      "short_url": "https:\/\/whvn.cc\/p2rjo3",
      "views": 3357,
      "favorites": 29,
      "source": "",
      "purity": "sfw",
      "category": "general",
      "dimension_x": 2048,
      "dimension_y": 1080,
      "resolution": "2048x1080",
      "ratio": "1.9",
      "file_size": 1454903,
      "file_type": "image\/jpeg",
      "created_at": "2018-05-14 18:21:45",
      "colors": [
        "#000000",
        "#424153",
        "#ea4c88",
        "#996633",
        "#cc6633"
      ],
      "path": "https:\/\/w.wallhaven.cc\/full\/p2\/wallhaven-p2rjo3.jpg",
      "thumbs": {
        "large": "https:\/\/th.wallhaven.cc\/lg\/p2\/p2rjo3.jpg",
        "original": "https:\/\/th.wallhaven.cc\/orig\/p2\/p2rjo3.jpg",
        "small": "https:\/\/th.wallhaven.cc\/small\/p2\/p2rjo3.jpg"
      }
    },
    {
      "id": "mpxmj1",
      "url": "https:\/\/wallhaven.cc\/w\/mpxmj1",
      "short_url": "https:\/\/whvn.cc\/mpxmj1",
      "views": 5489,
      "favorites": 27,
      "source": "",
      "purity": "sfw",
      "category": "general",
      "dimension_x": 1920,
      "dimension_y": 1200,
      "resolution": "1920x1200",
      "ratio": "1.6",
      "file_size": 1272187,
      "file_type": "image\/jpeg",
      "created_at": "2018-04-17 06:57:41",
      "colors": [
        "#000000",
        "#424153",
        "#333399",
        "#0066cc",
        "#663300"
      ],
      "path": "https:\/\/w.wallhaven.cc\/full\/mp\/wallhaven-mpxmj1.jpg",
      "thumbs": {
        "large": "https:\/\/th.wallhaven.cc\/lg\/mp\/mpxmj1.jpg",
        "original": "https:\/\/th.wallhaven.cc\/orig\/mp\/mpxmj1.jpg",
        "small": "https:\/\/th.wallhaven.cc\/small\/mp\/mpxmj1.jpg"
      }
    },
    {
      "id": "eojx5k",
      "url": "https:\/\/wallhaven.cc\/w\/eojx5k",
      "short_url": "https:\/\/whvn.cc\/eojx5k",
      "views": 5697,
      "favorites": 31,
      "source": "",
      "purity": "sfw",
      "category": "general",
      "dimension_x": 1920,
      "dimension_y": 1080,
      "resolution": "1920x1080",
      "ratio": "1.78",
      "file_size": 445521,
      "file_type": "image\/jpeg",
      "created_at": "2018-03-28 23:02:04",
      "colors": [
        "#000000",
        "#424153",
        "#999999",
        "#cccccc",
        "#996633"
      ],
      "path": "https:\/\/w.wallhaven.cc\/full\/eo\/wallhaven-eojx5k.jpg",
      "thumbs": {
        "large": "https:\/\/th.wallhaven.cc\/lg\/eo\/eojx5k.jpg",
        "original": "https:\/\/th.wallhaven.cc\/orig\/eo\/eojx5k.jpg",
        "small": "https:\/\/th.wallhaven.cc\/small\/eo\/eojx5k.jpg"
      }
    },
    {
      "id": "nrxoqq",
      "url": "https:\/\/wallhaven.cc\/w\/nrxoqq",
      "short_url": "https:\/\/whvn.cc\/nrxoqq",
      "views": 3194,
      "favorites": 12,
      "source": "",
      "purity": "sfw",
      "category": "general",
      "dimension_x": 1920,
      "dimension_y": 1080,
      "resolution": "1920x1080",
      "ratio": "1.78",
      "file_size": 477958,
      "file_type": "image\/jpeg",
      "created_at": "2015-06-27 12:37:10",
      "colors": [
        "#000000",
        "#424153",
        "#333399",
        "#0066cc",
        "#999999"
      ],
      "path": "https:\/\/w.wallhaven.cc\/full\/nr\/wallhaven-nrxoqq.jpg",
      "thumbs": {
        "large": "https:\/\/th.wallhaven.cc\/lg\/nr\/nrxoqq.jpg",
        "original": "https:\/\/th.wallhaven.cc\/orig\/nr\/nrxoqq.jpg",
        "small": "https:\/\/th.wallhaven.cc\/small\/nr\/nrxoqq.jpg"
      }
    },
    {
      "id": "j8m8w5",
      "url": "https:\/\/wallhaven.cc\/w\/j8m8w5",
      "short_url": "https:\/\/whvn.cc\/j8m8w5",
      "views": 17231,
      "favorites": 107,
      "source": "",
      "purity": "sfw",
      "category": "general",
      "dimension_x": 3840,
      "dimension_y": 2160,
      "resolution": "3840x2160",
      "ratio": "1.78",
      "file_size": 6792646,
      "file_type": "image\/jpeg",
      "created_at": "2018-03-23 06:13:17",
      "colors": [
        "#000000",
        "#424153",
        "#660000",
        "#663300",
        "#996633"
      ],
      "path": "https:\/\/w.wallhaven.cc\/full\/j8\/wallhaven-j8m8w5.jpg",
      "thumbs": {
        "large": "https:\/\/th.wallhaven.cc\/lg\/j8\/j8m8w5.jpg",
        "original": "https:\/\/th.wallhaven.cc\/orig\/j8\/j8m8w5.jpg",
        "small": "https:\/\/th.wallhaven.cc\/small\/j8\/j8m8w5.jpg"
      }
    },
    {
      "id": "k9p916",
      "url": "https:\/\/wallhaven.cc\/w\/k9p916",
      "short_url": "https:\/\/whvn.cc\/k9p916",
      "views": 16673,
      "favorites": 152,
      "source": "",
      "purity": "sfw",
      "category": "general",
      "dimension_x": 2048,
      "dimension_y": 1280,
      "resolution": "2048x1280",
      "ratio": "1.6",
      "file_size": 279255,
      "file_type": "image\/jpeg",
      "created_at": "2018-03-23 07:54:42",
      "colors": [
        "#000000",
        "#424153",
        "#996633",
        "#663399",
        "#333399"
      ],
      "path": "https:\/\/w.wallhaven.cc\/full\/k9\/wallhaven-k9p916.jpg",
      "thumbs": {
        "large": "https:\/\/th.wallhaven.cc\/lg\/k9\/k9p916.jpg",
        "original": "https:\/\/th.wallhaven.cc\/orig\/k9\/k9p916.jpg",
        "small": "https:\/\/th.wallhaven.cc\/small\/k9\/k9p916.jpg"
      }
    },
    {
      "id": "95j52w",
      "url": "https:\/\/wallhaven.cc\/w\/95j52w",
      "short_url": "https:\/\/whvn.cc\/95j52w",
      "views": 2362,
      "favorites": 19,
      "source": "",
      "purity": "sfw",
      "category": "general",
      "dimension_x": 2048,
      "dimension_y": 1280,
      "resolution": "2048x1280",
      "ratio": "1.6",
      "file_size": 309896,
      "file_type": "image\/jpeg",
      "created_at": "2018-03-23 07:55:59",
      "colors": [
        "#000000",
        "#424153",
        "#663300",
        "#996633",
        "#ffffff"
      ],
      "path": "https:\/\/w.wallhaven.cc\/full\/95\/wallhaven-95j52w.jpg",
      "thumbs": {
        "large": "https:\/\/th.wallhaven.cc\/lg\/95\/95j52w.jpg",
        "original": "https:\/\/th.wallhaven.cc\/orig\/95\/95j52w.jpg",
        "small": "https:\/\/th.wallhaven.cc\/small\/95\/95j52w.jpg"
      }
    },
    {
      "id": "2k7q7x",
      "url": "https:\/\/wallhaven.cc\/w\/2k7q7x",
      "short_url": "https:\/\/whvn.cc\/2k7q7x",
      "views": 1930,
      "favorites": 7,
      "source": "",
      "purity": "sfw",
      "category": "general",
      "dimension_x": 1920,
      "dimension_y": 1080,
      "resolution": "1920x1080",
      "ratio": "1.78",
      "file_size": 982442,
      "file_type": "image\/jpeg",
      "created_at": "2018-03-12 02:18:40",
      "colors": [
        "#000000",
        "#424153",
        "#663300",
        "#996633",
        "#999999"
      ],
      "path": "https:\/\/w.wallhaven.cc\/full\/2k\/wallhaven-2k7q7x.jpg",
      "thumbs": {
        "large": "https:\/\/th.wallhaven.cc\/lg\/2k\/2k7q7x.jpg",
        "original": "https:\/\/th.wallhaven.cc\/orig\/2k\/2k7q7x.jpg",
        "small": "https:\/\/th.wallhaven.cc\/small\/2k\/2k7q7x.jpg"
      }
    },
    {
      "id": "3km7z3",
      "url": "https:\/\/wallhaven.cc\/w\/3km7z3",
      "short_url": "https:\/\/whvn.cc\/3km7z3",
      "views": 11881,
      "favorites": 116,
      "source": "https:\/\/vivaldi.com\/press\/wallpapers\/vivaldi-stars.jpg",
      "purity": "sfw",
      "category": "general",
      "dimension_x": 2560,
      "dimension_y": 1440,
      "resolution": "2560x1440",
      "ratio": "1.78",
      "file_size": 2559496,
      "file_type": "image\/jpeg",
      "created_at": "2018-02-24 19:06:48",
      "colors": [
        "#424153",
        "#000000",
        "#0099cc",
        "#0066cc",
        "#ff6600"
      ],
      "path": "https:\/\/w.wallhaven.cc\/full\/3k\/wallhaven-3km7z3.jpg",
      "thumbs": {
        "large": "https:\/\/th.wallhaven.cc\/lg\/3k\/3km7z3.jpg",
        "original": "https:\/\/th.wallhaven.cc\/orig\/3k\/3km7z3.jpg",
        "small": "https:\/\/th.wallhaven.cc\/small\/3k\/3km7z3.jpg"
      }
    }
  ],
  "meta": {
    "current_page": 3,
    "last_page": 3,
    "per_page": 24,
    "total": 72
  }
}
