{
  "data": [
    {
      "id": "83616y",
      "url": "https:\/\/wallhaven.cc\/w\/83616y",
      "short_url": "https:\/\/whvn.cc\/83616y",
      "views": 1946,
      "favorites": 27,
      "source": "https:\/\/www.deviantart.com\/artbycatherineradley\/art\/Dreaming-803506686",
      "purity": "sfw",
      "category": "general",
      "dimension_x": 2560,
      "dimension_y": 1440,
      "resolution": "2560x1440",
      "ratio": "1.78",
      "file_size": 1220016,
      "file_type": "image\/jpeg",
      "created_at": "2020-01-10 02:46:35",
      "colors": [
        "#000000",
        "#424153",
        "#663399",
        "#993399",
        "#ea4c88"
      ],
      "path": "https:\/\/w.wallhaven.cc\/full\/83\/wallhaven-83616y.jpg",
      "thumbs": {
        "large": "https:\/\/th.wallhaven.cc\/lg\/83\/83616y.jpg",
        "original": "https:\/\/th.wallhaven.cc\/orig\/83\/83616y.jpg",
        "small": "https:\/\/th.wallhaven.cc\/small\/83\/83616y.jpg"
      }
    },
    {
      "id": "j5wljw",
      "url": "https:\/\/wallhaven.cc\/w\/j5wljw",
      "short_url": "https:\/\/whvn.cc\/j5wljw",
      "views": 7085,
      "favorites": 64,
      "source": "https:\/\/www.deviantart.com\/starkitecktdesigns\/art\/The-Torch-778669770",
      "purity": "sfw",
      "category": "general",
      "dimension_x": 3840,
      "dimension_y": 2160,
      "resolution": "3840x2160",
      "ratio": "1.78",
      "file_size": 5102799,
      "file_type": "image\/png",
      "created_at": "2019-03-13 13:36:35",
      "colors": [
        "#424153",
        "#663399",
        "#333399",
        "#993399",
        "#000000"
      ],
      "path": "https:\/\/w.wallhaven.cc\/full\/j5\/wallhaven-j5wljw.png",
      "thumbs": {
        "large": "https:\/\/th.wallhaven.cc\/lg\/j5\/j5wljw.jpg",
        "original": "https:\/\/th.wallhaven.cc\/orig\/j5\/j5wljw.jpg",
        "small": "https:\/\/th.wallhaven.cc\/small\/j5\/j5wljw.jpg"
      }
    },
    {
      "id": "6k5l1x",
      "url": "https:\/\/wallhaven.cc\/w\/6k5l1x",
      "short_url": "https:\/\/whvn.cc\/6k5l1x",
      "views": 10752,
      "favorites": 99,
      "source": "",
      "purity": "sfw",
      "category": "general",
      "dimension_x": 3840,
      "dimension_y": 2160,
      "resolution": "3840x2160",
      "ratio": "1.78",
      "file_size": 6040981,
      "file_type": "image\/png",
      "created_at": "2019-04-14 02:36:27",
      "colors": [
        "#000000",
        "#424153",
        "#333399",
        "#0066cc",
        "#0099cc"
      ],
      "path": "https:\/\/w.wallhaven.cc\/full\/6k\/wallhaven-6k5l1x.png",
      "thumbs": {
        "large": "https:\/\/th.wallhaven.cc\/lg\/6k\/6k5l1x.jpg",
        "original": "https:\/\/th.wallhaven.cc\/orig\/6k\/6k5l1x.jpg",
        "small": "https:\/\/th.wallhaven.cc\/small\/6k\/6k5l1x.jpg"
      }
    },
    {
      "id": "vgom55",
      "url": "https:\/\/wallhaven.cc\/w\/vgom55",
      "short_url": "https:\/\/whvn.cc\/vgom55",
      "views": 10973,
      "favorites": 84,
      "source": "",
      "purity": "sfw",
      "category": "general",
      "dimension_x": 3840,
      "dimension_y": 2160,
      "resolution": "3840x2160",
      "ratio": "1.78",
      "file_size": 3361165,
      "file_type": "image\/png",
      "created_at": "2019-04-06 07:20:46",
      "colors": [
        "#000000",
        "#424153",
        "#333399",
        "#663399",
        "#0099cc"
      ],
      "path": "https:\/\/w.wallhaven.cc\/full\/vg\/wallhaven-vgom55.png",
      "thumbs": {
        "large": "https:\/\/th.wallhaven.cc\/lg\/vg\/vgom55.jpg",
        "original": "https:\/\/th.wallhaven.cc\/orig\/vg\/vgom55.jpg",
        "small": "https:\/\/th.wallhaven.cc\/small\/vg\/vgom55.jpg"
      }
    },
    {
      "id": "lmzgoy",
      "url": "https:\/\/wallhaven.cc\/w\/lmzgoy",
      "short_url": "https:\/\/whvn.cc\/lmzgoy",
      "views": 6150,
      "favorites": 77,
      "source": "https:\/\/www.deviantart.com\/starkitecktdesigns\/art\/Arch-Nebula-21-9-Ultrawide-785918359",
      "purity": "sfw",
      "category": "general",
      "dimension_x": 5000,
      "dimension_y": 2093,
      "resolution": "5000x2093",
      "ratio": "2.39",
      "file_size": 7458490,
      "file_type": "image\/png",
      "created_at": "2019-03-13 13:34:13",
      "colors": [
        "#000000",
        "#424153",
        "#333399",
        "#0066cc",
        "#0099cc"
      ],
      "path": "https:\/\/w.wallhaven.cc\/full\/lm\/wallhaven-lmzgoy.png",
      "thumbs": {
        "large": "https:\/\/th.wallhaven.cc\/lg\/lm\/lmzgoy.jpg",
        "original": "https:\/\/th.wallhaven.cc\/orig\/lm\/lmzgoy.jpg",
        "small": "https:\/\/th.wallhaven.cc\/small\/lm\/lmzgoy.jpg"
      }
    },
    {
      "id": "5d59j1",
      "url": "https:\/\/wallhaven.cc\/w\/5d59j1",
      "short_url": "https:\/\/whvn.cc\/5d59j1",
      "views": 5707,
      "favorites": 35,
      "source": "",
      "purity": "sfw",
      "category": "general",
      "dimension_x": 3840,
      "dimension_y": 2400,
      "resolution": "3840x2400",
      "ratio": "1.6",
      "file_size": 5769492,
      "file_type": "image\/png",
      "created_at": "2016-10-02 01:56:24",
      "colors": [
        "#000000",
        "#424153",
        "#333399",
        "#0066cc",
        "#66cccc"
      ],
      "path": "https:\/\/w.wallhaven.cc\/full\/5d\/wallhaven-5d59j1.png",
      "thumbs": {
        "large": "https:\/\/th.wallhaven.cc\/lg\/5d\/5d59j1.jpg",
        "original": "https:\/\/th.wallhaven.cc\/orig\/5d\/5d59j1.jpg",
        "small": "https:\/\/th.wallhaven.cc\/small\/5d\/5d59j1.jpg"
      }
    },
    {
      "id": "oxy7m7",
      "url": "https:\/\/wallhaven.cc\/w\/oxy7m7",
      "short_url": "https:\/\/whvn.cc\/oxy7m7",
      "views": 2264,
      "favorites": 20,
      "source": "",
      "purity": "sfw",
      "category": "general",
      "dimension_x": 3840,
      "dimension_y": 2400,
      "resolution": "3840x2400",
      "ratio": "1.6",
      "file_size": 5067173,
      "file_type": "image\/png",
      "created_at": "2019-03-13 13:46:59",
      "colors": [
        "#000000",
        "#663300",
        "#996633",
        "#666600",
        "#336600"
      ],
      "path": "https:\/\/w.wallhaven.cc\/full\/ox\/wallhaven-oxy7m7.png",
      "thumbs": {
        "large": "https:\/\/th.wallhaven.cc\/lg\/ox\/oxy7m7.jpg",
        "original": "https:\/\/th.wallhaven.cc\/orig\/ox\/oxy7m7.jpg",
        "small": "https:\/\/th.wallhaven.cc\/small\/ox\/oxy7m7.jpg"
      }
    },
    {
      "id": "g851kd",
      "url": "https:\/\/wallhaven.cc\/w\/g851kd",
      "short_url": "https:\/\/whvn.cc\/g851kd",
      "views": 4568,
      "favorites": 53,
      "source": "https:\/\/wall.alphacoders.com\/big.php?i=1056813",
      "purity": "sfw",
      "category": "general",
      "dimension_x": 3840,
      "dimension_y": 2160,
      "resolution": "3840x2160",
      "ratio": "1.78",
      "file_size": 7287485,
      "file_type": "image\/png",
      "created_at": "2019-03-13 13:45:42",
      "colors": [
        "#000000",
        "#424153",
        "#333399",
        "#0066cc",
        "#0099cc"
      ],
      "path": "https:\/\/w.wallhaven.cc\/full\/g8\/wallhaven-g851kd.png",
      "thumbs": {
        "large": "https:\/\/th.wallhaven.cc\/lg\/g8\/g851kd.jpg",
        "original": "https:\/\/th.wallhaven.cc\/orig\/g8\/g851kd.jpg",
        "small": "https:\/\/th.wallhaven.cc\/small\/g8\/g851kd.jpg"
      }
    },
    {
      "id": "mdr86y",
      "url": "https:\/\/wallhaven.cc\/w\/mdr86y",
      "short_url": "https:\/\/whvn.cc\/mdr86y",
      "views": 6254,
      "favorites": 41,
      "source": "https:\/\/wall.alphacoders.com\/big.php?i=1057125",
      "purity": "sfw",
      "category": "general",
      "dimension_x": 6192,
      "dimension_y": 2880,
      "resolution": "6192x2880",
      "ratio": "2.15",
      "file_size": 13182096,
      "file_type": "image\/png",
      "created_at": "2019-12-17 08:18:50",
      "colors": [
        "#000000",
        "#424153",
        "#333399",
        "#0066cc",
        "#999999"
      ],
      "path": "https:\/\/w.wallhaven.cc\/full\/md\/wallhaven-mdr86y.png",
      "thumbs": {
        "large": "https:\/\/th.wallhaven.cc\/lg\/md\/mdr86y.jpg",
        "original": "https:\/\/th.wallhaven.cc\/orig\/md\/mdr86y.jpg",
        "small": "https:\/\/th.wallhaven.cc\/small\/md\/mdr86y.jpg"
      }
    },
    {
      "id": "eyp3ro",
      "url": "https:\/\/wallhaven.cc\/w\/eyp3ro",
      "short_url": "https:\/\/whvn.cc\/eyp3ro",
      "views": 103178,
      "favorites": 846,
      "source": "https:\/\/wall.alphacoders.com\/big.php?i=1058585",
      "purity": "sfw",
      "category": "general",
      "dimension_x": 3840,
      "dimension_y": 2400,
      "resolution": "3840x2400",
      "ratio": "1.6",
      "file_size": 5245437,
      "file_type": "image\/png",
      "created_at": "2019-12-27 20:25:06",
      "colors": [
        "#424153",
        "#663300",
        "#000000",
        "#660000",
        "#cc3333"
      ],
      "path": "https:\/\/w.wallhaven.cc\/full\/ey\/wallhaven-eyp3ro.png",
      "thumbs": {
        "large": "https:\/\/th.wallhaven.cc\/lg\/ey\/eyp3ro.jpg",
        "original": "https:\/\/th.wallhaven.cc\/orig\/ey\/eyp3ro.jpg",
        "small": "https:\/\/th.wallhaven.cc\/small\/ey\/eyp3ro.jpg"
      }
    },
    {
      "id": "73oj2o",
      "url": "https:\/\/wallhaven.cc\/w\/73oj2o",
      "short_url": "https:\/\/whvn.cc\/73oj2o",
      "views": 1582,
      "favorites": 9,
      "source": "https:\/\/whvn.cc\/73oj2o",
      "purity": "sfw",
      "category": "general",
      "dimension_x": 3840,
      "dimension_y": 2160,
      "resolution": "3840x2160",
      "ratio": "1.78",
      "file_size": 3021508,
      "file_type": "image\/jpeg",
      "created_at": "2019-12-25 16:04:44",
      "colors": [
        "#000000",
        "#424153",
        "#333399",
        "#663399",
        "#abbcda"
      ],
      "path": "https:\/\/w.wallhaven.cc\/full\/73\/wallhaven-73oj2o.jpg",
      "thumbs": {
        "large": "https:\/\/th.wallhaven.cc\/lg\/73\/73oj2o.jpg",
        "original": "https:\/\/th.wallhaven.cc\/orig\/73\/73oj2o.jpg",
        "small": "https:\/\/th.wallhaven.cc\/small\/73\/73oj2o.jpg"
      }
    },
    {
      "id": "j5r75m",
      "url": "https:\/\/wallhaven.cc\/w\/j5r75m",
      "short_url": "https:\/\/whvn.cc\/j5r75m",
      "views": 888,
      "favorites": 7,
      "source": "",
      "purity": "sfw",
      "category": "general",
      "dimension_x": 1920,
      "dimension_y": 1080,
      "resolution": "1920x1080",
      "ratio": "1.78",
      "file_size": 1104319,
      "file_type": "image\/jpeg",
      "created_at": "2019-12-06 06:15:44",
      "colors": [
        "#000000",
        "#663300",
        "#e7d8b1",
        "#996633",
        "#ffffff"
      ],
      "path": "https:\/\/w.wallhaven.cc\/full\/j5\/wallhaven-j5r75m.jpg",
      "thumbs": {
        "large": "https:\/\/th.wallhaven.cc\/lg\/j5\/j5r75m.jpg",
        "original": "https:\/\/th.wallhaven.cc\/orig\/j5\/j5r75m.jpg",
        "small": "https:\/\/th.wallhaven.cc\/small\/j5\/j5r75m.jpg"
      }
    },
    {
      "id": "p8m99p",
      "url": "https:\/\/wallhaven.cc\/w\/p8m99p",
      "short_url": "https:\/\/whvn.cc\/p8m99p",
      "views": 3365,
      "favorites": 28,
      "source": "https:\/\/www.artstation.com\/artwork\/8krxQ",
      "purity": "sfw",
      "category": "general",
      "dimension_x": 1920,
      "dimension_y": 1080,
      "resolution": "1920x1080",
      "ratio": "1.78",
      "file_size": 3444796,
      "file_type": "image\/png",
      "created_at": "2019-10-15 14:56:33",
      "colors": [
        "#000000",
        "#424153",
        "#333399",
        "#0066cc",
        "#663300"
      ],
      "path": "https:\/\/w.wallhaven.cc\/full\/p8\/wallhaven-p8m99p.png",
      "thumbs": {
        "large": "https:\/\/th.wallhaven.cc\/lg\/p8\/p8m99p.jpg",
        "original": "https:\/\/th.wallhaven.cc\/orig\/p8\/p8m99p.jpg",
        "small": "https:\/\/th.wallhaven.cc\/small\/p8\/p8m99p.jpg"
      }
    },
    {
      "id": "g8m1re",
      "url": "https:\/\/wallhaven.cc\/w\/g8m1re",
      "short_url": "https:\/\/whvn.cc\/g8m1re",
      "views": 557,
      "favorites": 4,
      "source": "https:\/\/www.deviantart.com\/redxen\/art\/Odyssey-Wallpaper-118061424",
      "purity": "sfw",
      "category": "general",
      "dimension_x": 1920,
      "dimension_y": 1080,
      "resolution": "1920x1080",
      "ratio": "1.78",
      "file_size": 681459,
      "file_type": "image\/jpeg",
      "created_at": "2019-08-21 03:22:59",
      "colors": [
        "#000000",
        "#660000",
        "#424153",
        "#990000",
        "#cc3333"
      ],
      "path": "https:\/\/w.wallhaven.cc\/full\/g8\/wallhaven-g8m1re.jpg",
      "thumbs": {
        "large": "https:\/\/th.wallhaven.cc\/lg\/g8\/g8m1re.jpg",
        "original": "https:\/\/th.wallhaven.cc\/orig\/g8\/g8m1re.jpg",
        "small": "https:\/\/th.wallhaven.cc\/small\/g8\/g8m1re.jpg"
      }
    },
    {
      "id": "ym2jld",
      "url": "https:\/\/wallhaven.cc\/w\/ym2jld",
      "short_url": "https:\/\/whvn.cc\/ym2jld",
      "views": 764,
      "favorites": 9,
      "source": "https:\/\/www.deviantart.com\/funerium\/art\/Moment-in-space-CII-114945874",
      "purity": "sfw",
      "category": "general",
      "dimension_x": 1920,
      "dimension_y": 1200,
      "resolution": "1920x1200",
      "ratio": "1.6",
      "file_size": 948191,
      "file_type": "image\/jpeg",
      "created_at": "2019-08-05 20:16:56",
      "colors": [
        "#000000",
        "#424153",
        "#333399",
        "#999999",
        "#663399"
      ],
      "path": "https:\/\/w.wallhaven.cc\/full\/ym\/wallhaven-ym2jld.jpg",
      "thumbs": {
        "large": "https:\/\/th.wallhaven.cc\/lg\/ym\/ym2jld.jpg",
        "original": "https:\/\/th.wallhaven.cc\/orig\/ym\/ym2jld.jpg",
        "small": "https:\/\/th.wallhaven.cc\/small\/ym\/ym2jld.jpg"
      }
    },
    {
      "id": "vg57q5",
      "url": "https:\/\/wallhaven.cc\/w\/vg57q5",
      "short_url": "https:\/\/whvn.cc\/vg57q5",
      "views": 2070,
      "favorites": 17,
      "source": "https:\/\/www.deviantart.com\/funerium\/art\/Moment-in-space-CXIII-146937769",
      "purity": "sfw",
      "category": "general",
      "dimension_x": 1920,
      "dimension_y": 1080,
      "resolution": "1920x1080",
      "ratio": "1.78",
      "file_size": 692154,
      "file_type": "image\/jpeg",
      "created_at": "2019-08-02 16:34:10",
      "colors": [
        "#424153",
        "#000000",
        "#333399",
        "#66cccc",
        "#0099cc"
      ],
      "path": "https:\/\/w.wallhaven.cc\/full\/vg\/wallhaven-vg57q5.jpg",
      "thumbs": {
        "large": "https:\/\/th.wallhaven.cc\/lg\/vg\/vg57q5.jpg",
        "original": "https:\/\/th.wallhaven.cc\/orig\/vg\/vg57q5.jpg",
        "small": "https:\/\/th.wallhaven.cc\/small\/vg\/vg57q5.jpg"
      }
    },
    {
      "id": "r2jm2q",
      "url": "https:\/\/wallhaven.cc\/w\/r2jm2q",
      "short_url": "https:\/\/whvn.cc\/r2jm2q",
      "views": 841,
      "favorites": 8,
      "source": "",
      "purity": "sfw",
      "category": "general",
      "dimension_x": 1920,
      "dimension_y": 1080,
      "resolution": "1920x1080",
      "ratio": "1.78",
      "file_size": 304243,
      "file_type": "image\/jpeg",
      "created_at": "2019-07-31 03:12:39",
      "colors": [
        "#000000",
        "#424153",
        "#663300",
        "#996633",
        "#999999"
      ],
      "path": "https:\/\/w.wallhaven.cc\/full\/r2\/wallhaven-r2jm2q.jpg",
      "thumbs": {
        "large": "https:\/\/th.wallhaven.cc\/lg\/r2\/r2jm2q.jpg",
        "original": "https:\/\/th.wallhaven.cc\/orig\/r2\/r2jm2q.jpg",
        "small": "https:\/\/th.wallhaven.cc\/small\/r2\/r2jm2q.jpg"
      }
    },
    {
      "id": "2e3ddg",
      "url": "https:\/\/wallhaven.cc\/w\/2e3ddg",
      "short_url": "https:\/\/whvn.cc\/2e3ddg",
      "views": 1005,
      "favorites": 11,
      "source": "",
      "purity": "sfw",
      "category": "general",
      "dimension_x": 1920,
      "dimension_y": 1080,
      "resolution": "1920x1080",
      "ratio": "1.78",
      "file_size": 428840,
      "file_type": "image\/jpeg",
      "created_at": "2019-07-10 09:01:50",
      "colors": [
        "#000000",
        "#660000",
        "#990000",
        "#cc3333",
        "#ff6600"
      ],
      "path": "https:\/\/w.wallhaven.cc\/full\/2e\/wallhaven-2e3ddg.jpg",
      "thumbs": {
        "large": "https:\/\/th.wallhaven.cc\/lg\/2e\/2e3ddg.jpg",
        "original": "https:\/\/th.wallhaven.cc\/orig\/2e\/2e3ddg.jpg",
        "small": "https:\/\/th.wallhaven.cc\/small\/2e\/2e3ddg.jpg"
      }
    },
    {
      "id": "ymveex",
      "url": "https:\/\/wallhaven.cc\/w\/ymveex",
      "short_url": "https:\/\/whvn.cc\/ymveex",
      "views": 1234,
      "favorites": 22,
      "source": "",
      "purity": "sfw",
      "category": "general",
      "dimension_x": 1920,
      "dimension_y": 1075,
      "resolution": "1920x1075",
      "ratio": "1.79",
      "file_size": 425517,
      "file_type": "image\/jpeg",
      "created_at": "2019-07-10 09:07:05",
      "colors": [
        "#000000",
        "#660000",
        "#cc3333",
        "#663300",
        "#f5dd01"
      ],
      "path": "https:\/\/w.wallhaven.cc\/full\/ym\/wallhaven-ymveex.jpg",
      "thumbs": {
        "large": "https:\/\/th.wallhaven.cc\/lg\/ym\/ymveex.jpg",
        "original": "https:\/\/th.wallhaven.cc\/orig\/ym\/ymveex.jpg",
        "small": "https:\/\/th.wallhaven.cc\/small\/ym\/ymveex.jpg"
      }
    },
    {
      "id": "j5v1vy",
      "url": "https:\/\/wallhaven.cc\/w\/j5v1vy",
      "short_url": "https:\/\/whvn.cc\/j5v1vy",
      "views": 1884,
      "favorites": 12,
      "source": "https:\/\/www.artstation.com\/matti1516",
      "purity": "sfw",
      "category": "general",
      "dimension_x": 3840,
      "dimension_y": 2160,
      "resolution": "3840x2160",
      "ratio": "1.78",
      "file_size": 1225523,
      "file_type": "image\/jpeg",
      "created_at": "2019-07-10 13:58:08",
      "colors": [
        "#000000",
        "#660000",
        "#663300",
        "#996633",
        "#e7d8b1"
      ],
      "path": "https:\/\/w.wallhaven.cc\/full\/j5\/wallhaven-j5v1vy.jpg",
      "thumbs": {
        "large": "https:\/\/th.wallhaven.cc\/lg\/j5\/j5v1vy.jpg",
        "original": "https:\/\/th.wallhaven.cc\/orig\/j5\/j5v1vy.jpg",
        "small": "https:\/\/th.wallhaven.cc\/small\/j5\/j5v1vy.jpg"
      }
    },
    {
      "id": "j83oo5",
      "url": "https:\/\/wallhaven.cc\/w\/j83oo5",
      "short_url": "https:\/\/whvn.cc\/j83oo5",
      "views": 2544,
      "favorites": 20,
      "source": "",
      "purity": "sfw",
      "category": "general",
      "dimension_x": 1920,
      "dimension_y": 1080,
      "resolution": "1920x1080",
      "ratio": "1.78",
      "file_size": 389010,
      "file_type": "image\/jpeg",
      "created_at": "2016-05-26 02:13:40",
      "colors": [
        "#424153",
        "#000000",
        "#333399",
        "#663399",
        "#abbcda"
      ],
      "path": "https:\/\/w.wallhaven.cc\/full\/j8\/wallhaven-j83oo5.jpg",
      "thumbs": {
        "large": "https:\/\/th.wallhaven.cc\/lg\/j8\/j83oo5.jpg",
        "original": "https:\/\/th.wallhaven.cc\/orig\/j8\/j83oo5.jpg",
        "small": "https:\/\/th.wallhaven.cc\/small\/j8\/j83oo5.jpg"
      }
    },
    {
      "id": "j51elq",
      "url": "https:\/\/wallhaven.cc\/w\/j51elq",
      "short_url": "https:\/\/whvn.cc\/j51elq",
      "views": 2489,
      "favorites": 27,
      "source": "https:\/\/www.artstation.com\/artwork\/V2Vyg",
      "purity": "sfw",
      "category": "general",
      "dimension_x": 2560,
      "dimension_y": 1440,
      "resolution": "2560x1440",
      "ratio": "1.78",
      "file_size": 573837,
      "file_type": "image\/jpeg",
      "created_at": "2019-04-13 17:10:01",
      "colors": [
        "#000000",
        "#424153",
        "#663300",
        "#996633",
        "#cc6633"
      ],
      "path": "https:\/\/w.wallhaven.cc\/full\/j5\/wallhaven-j51elq.jpg",
      "thumbs": {
        "large": "https:\/\/th.wallhaven.cc\/lg\/j5\/j51elq.jpg",
        "original": "https:\/\/th.wallhaven.cc\/orig\/j5\/j51elq.jpg",
        "small": "https:\/\/th.wallhaven.cc\/small\/j5\/j51elq.jpg"
      }
    },
    {
      "id": "g8q7xl",
      "url": "https:\/\/wallhaven.cc\/w\/g8q7xl",
      "short_url": "https:\/\/whvn.cc\/g8q7xl",
      "views": 7698,
      "favorites": 99,
      "source": "https:\/\/www.jpl.nasa.gov\/news\/news.php?feature=7372",
      "purity": "sfw",
      "category": "general",
      "dimension_x": 2800,
      "dimension_y": 1631,
      "resolution": "2800x1631",
      "ratio": "1.72",
      "file_size": 267641,
      "file_type": "image\/jpeg",
      "created_at": "2019-04-10 14:16:13",
      "colors": [
        "#000000",
        "#660000",
        "#990000",
        "#ff6600",
        "#ffcc33"
      ],
      "path": "https:\/\/w.wallhaven.cc\/full\/g8\/wallhaven-g8q7xl.jpg",
      "thumbs": {
        "large": "https:\/\/th.wallhaven.cc\/lg\/g8\/g8q7xl.jpg",
        "original": "https:\/\/th.wallhaven.cc\/orig\/g8\/g8q7xl.jpg",
        "small": "https:\/\/th.wallhaven.cc\/small\/g8\/g8q7xl.jpg"
      }
    },
    {
      "id": "5wzvw3",
      "url": "https:\/\/wallhaven.cc\/w\/5wzvw3",
      "short_url": "https:\/\/whvn.cc\/5wzvw3",
      "views": 2923,
      "favorites": 30,
      "source": "https:\/\/www.deviantart.com\/joeyjazz\/art\/Boring-Boomerang-Birthday-Barbeque-Binge-676073409",
      "purity": "sfw",
      "category": "general",
      "dimension_x": 2560,
      "dimension_y": 1600,
      "resolution": "2560x1600",
      "ratio": "1.6",
      "file_size": 1469148,
      "file_type": "image\/jpeg",
      "created_at": "2019-03-22 09:39:45",
      "colors": [
        "#000000",
        "#424153",
        "#663300",
        "#cc3333",
        "#996633"
      ],
      "path": "https:\/\/w.wallhaven.cc\/full\/5w\/wallhaven-5wzvw3.jpg",
      "thumbs": {
        "large": "https:\/\/th.wallhaven.cc\/lg\/5w\/5wzvw3.jpg",
        "original": "https:\/\/th.wallhaven.cc\/orig\/5w\/5wzvw3.jpg",
        "small": "https:\/\/th.wallhaven.cc\/small\/5w\/5wzvw3.jpg"
      }
    }
  ],
  "meta": {
    "current_page": 2,
    "last_page": 3,
    "per_page": 24,
    "total": 72
  }
}
