{
  "data": [
    {
      "id": "g7p2kq",
      "url": "https:\/\/wallhaven.cc\/w\/g7p2kq",
      "short_url": "https:\/\/whvn.cc\/g7p2kq",
      "views": 693,
      "favorites": 11,
      "source": "",
      "purity": "sfw",
      "category": "general",
      "dimension_x": 3000,
      "dimension_y": 2228,
      "resolution": "3000x2228",
      "ratio": "1.35",
      "file_size": 2310698,
      "file_type": "image\/jpeg",
      "created_at": "2021-03-20 03:17:58",
      "colors": [
        "#000000",
        "#424153",
        "#663300",
        "#996633",
        "#660000"
      ],
      "path": "https:\/\/w.wallhaven.cc\/full\/g7\/wallhaven-g7p2kq.jpg",
      "thumbs": {
        "large": "https:\/\/th.wallhaven.cc\/lg\/g7\/g7p2kq.jpg",
        "original": "https:\/\/th.wallhaven.cc\/orig\/g7\/g7p2kq.jpg",
        "small": "https:\/\/th.wallhaven.cc\/small\/g7\/g7p2kq.jpg"
      }
    },
    {
      "id": "m9dxok",
      "url": "https:\/\/wallhaven.cc\/w\/m9dxok",
      "short_url": "https:\/\/whvn.cc\/m9dxok",
      "views": 5448,
      "favorites": 39,
      "source": "",
      "purity": "sfw",
      "category": "general",
      "dimension_x": 4608,
      "dimension_y": 2592,
      "resolution": "4608x2592",
      "ratio": "1.78",
      "file_size": 2281332,
      "file_type": "image\/jpeg",
      "created_at": "2021-02-01 02:49:14",
      "colors": [
        "#000000",
        "#424153",
        "#996633",
        "#663300",
        "#ea4c88"
      ],
      "path": "https:\/\/w.wallhaven.cc\/full\/m9\/wallhaven-m9dxok.jpg",
      "thumbs": {
        "large": "https:\/\/th.wallhaven.cc\/lg\/m9\/m9dxok.jpg",
        "original": "https:\/\/th.wallhaven.cc\/orig\/m9\/m9dxok.jpg",
        "small": "https:\/\/th.wallhaven.cc\/small\/m9\/m9dxok.jpg"
      }
    },
    {
      "id": "q22r57",
      "url": "https:\/\/wallhaven.cc\/w\/q22r57",
      "short_url": "https:\/\/whvn.cc\/q22r57",
      "views": 6789,
      "favorites": 89,
      "source": "https:\/\/wall.alphacoders.com\/big.php?i=1129258",
      "purity": "sfw",
      "category": "general",
      "dimension_x": 5000,
      "dimension_y": 2093,
      "resolution": "5000x2093",
      "ratio": "2.39",
      "file_size": 6971625,
      "file_type": "image\/png",
      "created_at": "2021-02-09 23:08:36",
      "colors": [
        "#000000",
        "#424153",
        "#333399",
        "#663399",
        "#abbcda"
      ],
      "path": "https:\/\/w.wallhaven.cc\/full\/q2\/wallhaven-q22r57.png",
      "thumbs": {
        "large": "https:\/\/th.wallhaven.cc\/lg\/q2\/q22r57.jpg",
        "original": "https:\/\/th.wallhaven.cc\/orig\/q2\/q22r57.jpg",
        "small": "https:\/\/th.wallhaven.cc\/small\/q2\/q22r57.jpg"
      }
    },
    {
      "id": "wqqx37",
      "url": "https:\/\/wallhaven.cc\/w\/wqqx37",
      "short_url": "https:\/\/whvn.cc\/wqqx37",
      "views": 8902,
      "favorites": 116,
      "source": "https:\/\/www.artstation.com\/artwork\/NxzdRN",
      "purity": "sfw",
      "category": "general",
      "dimension_x": 3840,
      "dimension_y": 1732,
      "resolution": "3840x1732",
      "ratio": "2.22",
      "file_size": 2614013,
      "file_type": "image\/jpeg",
      "created_at": "2021-02-18 12:08:30",
      "colors": [
        "#424153",
        "#000000",
        "#663399",
        "#999999",
        "#333399"
      ],
      "path": "https:\/\/w.wallhaven.cc\/full\/wq\/wallhaven-wqqx37.jpg",
      "thumbs": {
        "large": "https:\/\/th.wallhaven.cc\/lg\/wq\/wqqx37.jpg",
        "original": "https:\/\/th.wallhaven.cc\/orig\/wq\/wqqx37.jpg",
        "small": "https:\/\/th.wallhaven.cc\/small\/wq\/wqqx37.jpg"
      }
    },
    {
      "id": "m9dr9k",
      "url": "https:\/\/wallhaven.cc\/w\/m9dr9k",
      "short_url": "https:\/\/whvn.cc\/m9dr9k",
      "views": 1111,
      "favorites": 26,
      "source": "https:\/\/www.artstation.com\/cosmicspark",
      "purity": "sfw",
      "category": "general",
      "dimension_x": 3840,
      "dimension_y": 1920,
      "resolution": "3840x1920",
      "ratio": "2",
      "file_size": 954301,
      "file_type": "image\/jpeg",
      "created_at": "2021-01-20 02:08:04",
      "colors": [
        "#000000",
        "#660000",
        "#424153",
        "#663300",
        "#996633"
      ],
      "path": "https:\/\/w.wallhaven.cc\/full\/m9\/wallhaven-m9dr9k.jpg",
      "thumbs": {
        "large": "https:\/\/th.wallhaven.cc\/lg\/m9\/m9dr9k.jpg",
        "original": "https:\/\/th.wallhaven.cc\/orig\/m9\/m9dr9k.jpg",
        "small": "https:\/\/th.wallhaven.cc\/small\/m9\/m9dr9k.jpg"
      }
    },
    {
      "id": "k7wrx7",
      "url": "https:\/\/wallhaven.cc\/w\/k7wrx7",
      "short_url": "https:\/\/whvn.cc\/k7wrx7",
      "views": 1681,
      "favorites": 37,
      "source": "https:\/\/www.artstation.com\/cosmicspark",
      "purity": "sfw",
      "category": "general",
      "dimension_x": 3840,
      "dimension_y": 1920,
      "resolution": "3840x1920",
      "ratio": "2",
      "file_size": 1222274,
      "file_type": "image\/jpeg",
      "created_at": "2021-01-20 02:08:04",
      "colors": [
        "#000000",
        "#424153",
        "#660000",
        "#663399",
        "#333399"
      ],
      "path": "https:\/\/w.wallhaven.cc\/full\/k7\/wallhaven-k7wrx7.jpg",
      "thumbs": {
        "large": "https:\/\/th.wallhaven.cc\/lg\/k7\/k7wrx7.jpg",
        "original": "https:\/\/th.wallhaven.cc\/orig\/k7\/k7wrx7.jpg",
        "small": "https:\/\/th.wallhaven.cc\/small\/k7\/k7wrx7.jpg"
      }
    },
    {
      "id": "o3xw3m",
      "url": "https:\/\/wallhaven.cc\/w\/o3xw3m",
      "short_url": "https:\/\/whvn.cc\/o3xw3m",
      "views": 2633,
      "favorites": 48,
      "source": "https:\/\/www.artstation.com\/cosmicspark",
      "purity": "sfw",
      "category": "general",
      "dimension_x": 3840,
      "dimension_y": 1920,
      "resolution": "3840x1920",
      "ratio": "2",
      "file_size": 726242,
      "file_type": "image\/jpeg",
      "created_at": "2021-01-20 02:08:04",
      "colors": [
        "#000000",
        "#424153",
        "#333399",
        "#663399",
        "#993399"
      ],
      "path": "https:\/\/w.wallhaven.cc\/full\/o3\/wallhaven-o3xw3m.jpg",
      "thumbs": {
        "large": "https:\/\/th.wallhaven.cc\/lg\/o3\/o3xw3m.jpg",
        "original": "https:\/\/th.wallhaven.cc\/orig\/o3\/o3xw3m.jpg",
        "small": "https:\/\/th.wallhaven.cc\/small\/o3\/o3xw3m.jpg"
      }
    },
    {
      "id": "8o3po2",
      "url": "https:\/\/wallhaven.cc\/w\/8o3po2",
      "short_url": "https:\/\/whvn.cc\/8o3po2",
      "views": 5075,
      "favorites": 80,
      "source": "https:\/\/www.artstation.com\/cosmicspark",
      "purity": "sfw",
      "category": "general",
      "dimension_x": 3840,
      "dimension_y": 1920,
      "resolution": "3840x1920",
      "ratio": "2",
      "file_size": 1092129,
      "file_type": "image\/jpeg",
      "created_at": "2021-01-20 02:08:04",
      "colors": [
        "#000000",
        "#424153",
        "#333399",
        "#66cccc",
        "#663399"
      ],
      "path": "https:\/\/w.wallhaven.cc\/full\/8o\/wallhaven-8o3po2.jpg",
      "thumbs": {
        "large": "https:\/\/th.wallhaven.cc\/lg\/8o\/8o3po2.jpg",
        "original": "https:\/\/th.wallhaven.cc\/orig\/8o\/8o3po2.jpg",
        "small": "https:\/\/th.wallhaven.cc\/small\/8o\/8o3po2.jpg"
      }
    },
    {
      "id": "z8m2yg",
      "url": "https:\/\/wallhaven.cc\/w\/z8m2yg",
      "short_url": "https:\/\/whvn.cc\/z8m2yg",
      "views": 1964,
      "favorites": 45,
      "source": "https:\/\/www.artstation.com\/cosmicspark",
      "purity": "sfw",
      "category": "general",
      "dimension_x": 3840,
      "dimension_y": 1920,
      "resolution": "3840x1920",
      "ratio": "2",
      "file_size": 1118467,
      "file_type": "image\/jpeg",
      "created_at": "2021-01-20 02:08:04",
      "colors": [
        "#000000",
        "#424153",
        "#0099cc",
        "#333399",
        "#0066cc"
      ],
      "path": "https:\/\/w.wallhaven.cc\/full\/z8\/wallhaven-z8m2yg.jpg",
      "thumbs": {
        "large": "https:\/\/th.wallhaven.cc\/lg\/z8\/z8m2yg.jpg",
        "original": "https:\/\/th.wallhaven.cc\/orig\/z8\/z8m2yg.jpg",
        "small": "https:\/\/th.wallhaven.cc\/small\/z8\/z8m2yg.jpg"
      }
    },
    {
      "id": "m9pyl8",
      "url": "https:\/\/wallhaven.cc\/w\/m9pyl8",
      "short_url": "https:\/\/whvn.cc\/m9pyl8",
      "views": 578,
      "favorites": 5,
      "source": "https:\/\/www.deviantart.com\/ladyrapid\/art\/ANTIQUATED-STARGAZE-96031836",
      "purity": "sfw",
      "category": "general",
      "dimension_x": 1920,
      "dimension_y": 1080,
      "resolution": "1920x1080",
      "ratio": "1.78",
      "file_size": 1467995,
      "file_type": "image\/jpeg",
      "created_at": "2020-12-14 12:03:41",
      "colors": [
        "#000000",
        "#abbcda",
        "#424153",
        "#ffffff",
        "#993399"
      ],
      "path": "https:\/\/w.wallhaven.cc\/full\/m9\/wallhaven-m9pyl8.jpg",
      "thumbs": {
        "large": "https:\/\/th.wallhaven.cc\/lg\/m9\/m9pyl8.jpg",
        "original": "https:\/\/th.wallhaven.cc\/orig\/m9\/m9pyl8.jpg",
        "small": "https:\/\/th.wallhaven.cc\/small\/m9\/m9pyl8.jpg"
      }
    },
    {
      "id": "l395zy",
      "url": "https:\/\/wallhaven.cc\/w\/l395zy",
      "short_url": "https:\/\/whvn.cc\/l395zy",
      "views": 4674,
      "favorites": 58,
      "source": "https:\/\/www.deviantart.com\/joeyjazz\/art\/On-the-Wings-of-a-Dream-REMASTERED-862135025",
      "purity": "sfw",
      "category": "general",
      "dimension_x": 3840,
      "dimension_y": 2400,
      "resolution": "3840x2400",
      "ratio": "1.6",
      "file_size": 6886510,
      "file_type": "image\/jpeg",
      "created_at": "2020-11-24 16:39:52",
      "colors": [
        "#424153",
        "#000000",
        "#333399",
        "#663399",
        "#abbcda"
      ],
      "path": "https:\/\/w.wallhaven.cc\/full\/l3\/wallhaven-l395zy.jpg",
      "thumbs": {
        "large": "https:\/\/th.wallhaven.cc\/lg\/l3\/l395zy.jpg",
        "original": "https:\/\/th.wallhaven.cc\/orig\/l3\/l395zy.jpg",
        "small": "https:\/\/th.wallhaven.cc\/small\/l3\/l395zy.jpg"
      }
    },
    {
      "id": "57ddd9",
      "url": "https:\/\/wallhaven.cc\/w\/57ddd9",
      "short_url": "https:\/\/whvn.cc\/57ddd9",
      "views": 1823,
      "favorites": 18,
      "source": "",
      "purity": "sfw",
      "category": "general",
      "dimension_x": 2560,
      "dimension_y": 1600,
      "resolution": "2560x1600",
      "ratio": "1.6",
      "file_size": 1313859,
      "file_type": "image\/jpeg",
      "created_at": "2020-11-29 05:10:23",
      "colors": [
        "#424153",
        "#000000",
        "#abbcda",
        "#ffffff",
        "#333399"
      ],
      "path": "https:\/\/w.wallhaven.cc\/full\/57\/wallhaven-57ddd9.jpg",
      "thumbs": {
        "large": "https:\/\/th.wallhaven.cc\/lg\/57\/57ddd9.jpg",
        "original": "https:\/\/th.wallhaven.cc\/orig\/57\/57ddd9.jpg",
        "small": "https:\/\/th.wallhaven.cc\/small\/57\/57ddd9.jpg"
      }
    },
    {
      "id": "6ojxp7",
      "url": "https:\/\/wallhaven.cc\/w\/6ojxp7",
      "short_url": "https:\/\/whvn.cc\/6ojxp7",
      "views": 1285,
      "favorites": 16,
      "source": "",
      "purity": "sfw",
      "category": "general",
      "dimension_x": 1920,
      "dimension_y": 1200,
      "resolution": "1920x1200",
      "ratio": "1.6",
      "file_size": 1287328,
      "file_type": "image\/jpeg",
      "created_at": "2020-11-23 04:33:04",
      "colors": [
        "#000000",
        "#424153",
        "#663399",
        "#999999",
        "#abbcda"
      ],
      "path": "https:\/\/w.wallhaven.cc\/full\/6o\/wallhaven-6ojxp7.jpg",
      "thumbs": {
        "large": "https:\/\/th.wallhaven.cc\/lg\/6o\/6ojxp7.jpg",
        "original": "https:\/\/th.wallhaven.cc\/orig\/6o\/6ojxp7.jpg",
        "small": "https:\/\/th.wallhaven.cc\/small\/6o\/6ojxp7.jpg"
      }
    },
    {
      "id": "rd3ekm",
      "url": "https:\/\/wallhaven.cc\/w\/rd3ekm",
      "short_url": "https:\/\/whvn.cc\/rd3ekm",
      "views": 892,
      "favorites": 8,
      "source": "",
      "purity": "sfw",
      "category": "general",
      "dimension_x": 2560,
      "dimension_y": 1600,
      "resolution": "2560x1600",
      "ratio": "1.6",
      "file_size": 2017582,
      "file_type": "image\/jpeg",
      "created_at": "2020-11-10 23:29:08",
      "colors": [
        "#000000",
        "#0066cc",
        "#333399",
        "#0099cc",
        "#424153"
      ],
      "path": "https:\/\/w.wallhaven.cc\/full\/rd\/wallhaven-rd3ekm.jpg",
      "thumbs": {
        "large": "https:\/\/th.wallhaven.cc\/lg\/rd\/rd3ekm.jpg",
        "original": "https:\/\/th.wallhaven.cc\/orig\/rd\/rd3ekm.jpg",
        "small": "https:\/\/th.wallhaven.cc\/small\/rd\/rd3ekm.jpg"
      }
    },
    {
      "id": "v9xoe8",
      "url": "https:\/\/wallhaven.cc\/w\/v9xoe8",
      "short_url": "https:\/\/whvn.cc\/v9xoe8",
      "views": 867,
      "favorites": 11,
      "source": "",
      "purity": "sfw",
      "category": "general",
      "dimension_x": 1920,
      "dimension_y": 1200,
      "resolution": "1920x1200",
      "ratio": "1.6",
      "file_size": 1099384,
      "file_type": "image\/jpeg",
      "created_at": "2020-11-03 09:57:49",
      "colors": [
        "#000000",
        "#424153",
        "#ea4c88",
        "#ffffff",
        "#e7d8b1"
      ],
      "path": "https:\/\/w.wallhaven.cc\/full\/v9\/wallhaven-v9xoe8.jpg",
      "thumbs": {
        "large": "https:\/\/th.wallhaven.cc\/lg\/v9\/v9xoe8.jpg",
        "original": "https:\/\/th.wallhaven.cc\/orig\/v9\/v9xoe8.jpg",
        "small": "https:\/\/th.wallhaven.cc\/small\/v9\/v9xoe8.jpg"
      }
    },
    {
      "id": "g8o3oe",
      "url": "https:\/\/wallhaven.cc\/w\/g8o3oe",
      "short_url": "https:\/\/whvn.cc\/g8o3oe",
      "views": 7456,
      "favorites": 60,
      "source": "",
      "purity": "sfw",
      "category": "general",
      "dimension_x": 3840,
      "dimension_y": 2160,
      "resolution": "3840x2160",
      "ratio": "1.78",
      "file_size": 301502,
      "file_type": "image\/jpeg",
      "created_at": "2020-09-23 00:38:10",
      "colors": [
        "#000000",
        "#424153",
        "#999999",
        "#abbcda",
        "#663399"
      ],
      "path": "https:\/\/w.wallhaven.cc\/full\/g8\/wallhaven-g8o3oe.jpg",
      "thumbs": {
        "large": "https:\/\/th.wallhaven.cc\/lg\/g8\/g8o3oe.jpg",
        "original": "https:\/\/th.wallhaven.cc\/orig\/g8\/g8o3oe.jpg",
        "small": "https:\/\/th.wallhaven.cc\/small\/g8\/g8o3oe.jpg"
      }
    },
    {
      "id": "2ermgm",
      "url": "https:\/\/wallhaven.cc\/w\/2ermgm",
      "short_url": "https:\/\/whvn.cc\/2ermgm",
      "views": 6907,
      "favorites": 71,
      "source": "",
      "purity": "sfw",
      "category": "general",
      "dimension_x": 7680,
      "dimension_y": 4320,
      "resolution": "7680x4320",
      "ratio": "1.78",
      "file_size": 7518980,
      "file_type": "image\/jpeg",
      "created_at": "2020-09-18 14:11:23",
      "colors": [
        "#333399",
        "#424153",
        "#993399",
        "#66cccc",
        "#ea4c88"
      ],
      "path": "https:\/\/w.wallhaven.cc\/full\/2e\/wallhaven-2ermgm.jpg",
      "thumbs": {
        "large": "https:\/\/th.wallhaven.cc\/lg\/2e\/2ermgm.jpg",
        "original": "https:\/\/th.wallhaven.cc\/orig\/2e\/2ermgm.jpg",
        "small": "https:\/\/th.wallhaven.cc\/small\/2e\/2ermgm.jpg"
      }
    },
    {
      "id": "135dgg",
      "url": "https:\/\/wallhaven.cc\/w\/135dgg",
      "short_url": "https:\/\/whvn.cc\/135dgg",
      "views": 946,
      "favorites": 12,
      "source": "",
      "purity": "sfw",
      "category": "general",
      "dimension_x": 1920,
      "dimension_y": 1200,
      "resolution": "1920x1200",
      "ratio": "1.6",
      "file_size": 279055,
      "file_type": "image\/jpeg",
      "created_at": "2020-07-09 00:05:36",
      "colors": [
        "#000000",
        "#424153",
        "#999999",
        "#663399",
        "#abbcda"
      ],
      "path": "https:\/\/w.wallhaven.cc\/full\/13\/wallhaven-135dgg.jpg",
      "thumbs": {
        "large": "https:\/\/th.wallhaven.cc\/lg\/13\/135dgg.jpg",
        "original": "https:\/\/th.wallhaven.cc\/orig\/13\/135dgg.jpg",
        "small": "https:\/\/th.wallhaven.cc\/small\/13\/135dgg.jpg"
      }
    },
    {
      "id": "j5p7ew",
      "url": "https:\/\/wallhaven.cc\/w\/j5p7ew",
      "short_url": "https:\/\/whvn.cc\/j5p7ew",
      "views": 1019,
      "favorites": 20,
      "source": "",
      "purity": "sfw",
      "category": "general",
      "dimension_x": 1920,
      "dimension_y": 1200,
      "resolution": "1920x1200",
      "ratio": "1.6",
      "file_size": 990686,
      "file_type": "image\/jpeg",
      "created_at": "2020-05-15 17:21:22",
      "colors": [
        "#424153",
        "#663399",
        "#999999",
        "#333399",
        "#000000"
      ],
      "path": "https:\/\/w.wallhaven.cc\/full\/j5\/wallhaven-j5p7ew.jpg",
      "thumbs": {
        "large": "https:\/\/th.wallhaven.cc\/lg\/j5\/j5p7ew.jpg",
        "original": "https:\/\/th.wallhaven.cc\/orig\/j5\/j5p7ew.jpg",
        "small": "https:\/\/th.wallhaven.cc\/small\/j5\/j5p7ew.jpg"
      }
    },
    {
      "id": "83mqr1",
      "url": "https:\/\/wallhaven.cc\/w\/83mqr1",
      "short_url": "https:\/\/whvn.cc\/83mqr1",
      "views": 686,
      "favorites": 5,
      "source": "",
      "purity": "sfw",
      "category": "general",
      "dimension_x": 1920,
      "dimension_y": 1080,
      "resolution": "1920x1080",
      "ratio": "1.78",
      "file_size": 768649,
      "file_type": "image\/jpeg",
      "created_at": "2020-04-20 03:58:44",
      "colors": [
        "#000000",
        "#424153",
        "#663399",
        "#66cccc",
        "#333399"
      ],
      "path": "https:\/\/w.wallhaven.cc\/full\/83\/wallhaven-83mqr1.jpg",
      "thumbs": {
        "large": "https:\/\/th.wallhaven.cc\/lg\/83\/83mqr1.jpg",
        "original": "https:\/\/th.wallhaven.cc\/orig\/83\/83mqr1.jpg",
        "small": "https:\/\/th.wallhaven.cc\/small\/83\/83mqr1.jpg"
      }
    },
    {
      "id": "yml3dl",
      "url": "https:\/\/wallhaven.cc\/w\/yml3dl",
      "short_url": "https:\/\/whvn.cc\/yml3dl",
      "views": 9406,
      "favorites": 78,
      "source": "",
      "purity": "sfw",
      "category": "general",
      "dimension_x": 1920,
      "dimension_y": 1200,
      "resolution": "1920x1200",
      "ratio": "1.6",
      "file_size": 1562501,
      "file_type": "image\/jpeg",
      "created_at": "2020-03-13 20:37:13",
      "colors": [
        "#000000",
        "#424153",
        "#999999",
        "#abbcda",
        "#333399"
      ],
      "path": "https:\/\/w.wallhaven.cc\/full\/ym\/wallhaven-yml3dl.jpg",
      "thumbs": {
        "large": "https:\/\/th.wallhaven.cc\/lg\/ym\/yml3dl.jpg",
        "original": "https:\/\/th.wallhaven.cc\/orig\/ym\/yml3dl.jpg",
        "small": "https:\/\/th.wallhaven.cc\/small\/ym\/yml3dl.jpg"
      }
    },
    {
      "id": "ey15x8",
      "url": "https:\/\/wallhaven.cc\/w\/ey15x8",
      "short_url": "https:\/\/whvn.cc\/ey15x8",
      "views": 3570,
      "favorites": 32,
      "source": "https:\/\/gtgraphics.de\/en\/wallpapers\/origin",
      "purity": "sfw",
      "category": "general",
      "dimension_x": 3840,
      "dimension_y": 2160,
      "resolution": "3840x2160",
      "ratio": "1.78",
      "file_size": 3128413,
      "file_type": "image\/jpeg",
      "created_at": "2020-02-17 06:14:59",
      "colors": [
        "#000000",
        "#663300",
        "#660000",
        "#cc6633",
        "#424153"
      ],
      "path": "https:\/\/w.wallhaven.cc\/full\/ey\/wallhaven-ey15x8.jpg",
      "thumbs": {
        "large": "https:\/\/th.wallhaven.cc\/lg\/ey\/ey15x8.jpg",
        "original": "https:\/\/th.wallhaven.cc\/orig\/ey\/ey15x8.jpg",
        "small": "https:\/\/th.wallhaven.cc\/small\/ey\/ey15x8.jpg"
      }
    },
    {
      "id": "2e5zqm",
      "url": "https:\/\/wallhaven.cc\/w\/2e5zqm",
      "short_url": "https:\/\/whvn.cc\/2e5zqm",
      "views": 1356,
      "favorites": 12,
      "source": "",
      "purity": "sfw",
      "category": "general",
      "dimension_x": 1680,
      "dimension_y": 1050,
      "resolution": "1680x1050",
      "ratio": "1.6",
      "file_size": 391852,
      "file_type": "image\/jpeg",
      "created_at": "2020-02-01 10:36:12",
      "colors": [
        "#000000",
        "#424153",
        "#999999",
        "#cccccc",
        "#333399"
      ],
      "path": "https:\/\/w.wallhaven.cc\/full\/2e\/wallhaven-2e5zqm.jpg",
      "thumbs": {
        "large": "https:\/\/th.wallhaven.cc\/lg\/2e\/2e5zqm.jpg",
        "original": "https:\/\/th.wallhaven.cc\/orig\/2e\/2e5zqm.jpg",
        "small": "https:\/\/th.wallhaven.cc\/small\/2e\/2e5zqm.jpg"
      }
    },
    {
      "id": "xl25lv",
      "url": "https:\/\/wallhaven.cc\/w\/xl25lv",
      "short_url": "https:\/\/whvn.cc\/xl25lv",
      "views": 1821,
      "favorites": 34,
      "source": "",
      "purity": "sfw",
      "category": "general",
      "dimension_x": 1920,
      "dimension_y": 1080,
      "resolution": "1920x1080",
      "ratio": "1.78",
      "file_size": 1011824,
      "file_type": "image\/jpeg",
      "created_at": "2020-01-23 04:46:01",
      "colors": [
        "#000000",
        "#333399",
        "#0066cc",
        "#424153",
        "#0099cc"
      ],
      "path": "https:\/\/w.wallhaven.cc\/full\/xl\/wallhaven-xl25lv.jpg",
      "thumbs": {
        "large": "https:\/\/th.wallhaven.cc\/lg\/xl\/xl25lv.jpg",
        "original": "https:\/\/th.wallhaven.cc\/orig\/xl\/xl25lv.jpg",
        "small": "https:\/\/th.wallhaven.cc\/small\/xl\/xl25lv.jpg"
      }
    }
  ],
  "meta": {
    "current_page": 1,
    "last_page": 3,
    "per_page": 24,
    "total": 72
  }
}
