{
  "data": [
    {
      "id": "l389gr",
      "url": "https:\/\/wallhaven.cc\/w\/l389gr",
      "short_url": "https:\/\/whvn.cc\/l389gr",
      "views": 55,
      "favorites": 1,
      "source": "https:\/\/35photo.pro\/photo_5940456\/",
      "purity": "sfw",
      "category": "general",
      "dimension_x": 3200,
      "dimension_y": 1952,
      "resolution": "3200x1952",
      "ratio": "1.64",
      "file_size": 5620949,
      "file_type": "image\/jpeg",
      "created_at": "2021-03-08 00:22:15",
      "colors": [
        "#000000",
        "#424153",
        "#e7d8b1",
        "#cccccc",
        "#999999"
      ],
      "path": "https:\/\/w.wallhaven.cc\/full\/l3\/wallhaven-l389gr.jpg",
      "thumbs": {
        "large": "https:\/\/th.wallhaven.cc\/lg\/l3\/l389gr.jpg",
        "original": "https:\/\/th.wallhaven.cc\/orig\/l3\/l389gr.jpg",
        "small": "https:\/\/th.wallhaven.cc\/small\/l3\/l389gr.jpg"
      }
    },
    {
      "id": "dpp9zo",
      "url": "https:\/\/wallhaven.cc\/w\/dpp9zo",
      "short_url": "https:\/\/whvn.cc\/dpp9zo",
      "views": 493,
      "favorites": 10,
      "source": "https:\/\/35photo.pro\/photo_5148365\/",
      "purity": "sfw",
      "category": "general",
      "dimension_x": 2048,
      "dimension_y": 1365,
      "resolution": "2048x1365",
      "ratio": "1.5",
      "file_size": 3176542,
      "file_type": "image\/jpeg",
      "created_at": "2021-03-06 19:20:57",
      "colors": [
        "#424153",
        "#000000",
        "#999999",
        "#663399",
        "#fdadc7"
      ],
      "path": "https:\/\/w.wallhaven.cc\/full\/dp\/wallhaven-dpp9zo.jpg",
      "thumbs": {
        "large": "https:\/\/th.wallhaven.cc\/lg\/dp\/dpp9zo.jpg",
        "original": "https:\/\/th.wallhaven.cc\/orig\/dp\/dpp9zo.jpg",
        "small": "https:\/\/th.wallhaven.cc\/small\/dp\/dpp9zo.jpg"
      }
    },
    {
      "id": "rddvxj",
      "url": "https:\/\/wallhaven.cc\/w\/rddvxj",
      "short_url": "https:\/\/whvn.cc\/rddvxj",
      "views": 815,
      "favorites": 27,
      "source": "https:\/\/35photo.pro\/photo_5631685\/",
      "purity": "sfw",
      "category": "general",
      "dimension_x": 2048,
      "dimension_y": 1332,
      "resolution": "2048x1332",
      "ratio": "1.54",
      "file_size": 3350176,
      "file_type": "image\/jpeg",
      "created_at": "2021-03-06 19:17:33",
      "colors": [
        "#424153",
        "#000000",
        "#999999",
        "#663399",
        "#cccccc"
      ],
      "path": "https:\/\/w.wallhaven.cc\/full\/rd\/wallhaven-rddvxj.jpg",
      "thumbs": {
        "large": "https:\/\/th.wallhaven.cc\/lg\/rd\/rddvxj.jpg",
        "original": "https:\/\/th.wallhaven.cc\/orig\/rd\/rddvxj.jpg",
        "small": "https:\/\/th.wallhaven.cc\/small\/rd\/rddvxj.jpg"
      }
    },
    {
      "id": "k77mg1",
      "url": "https:\/\/wallhaven.cc\/w\/k77mg1",
      "short_url": "https:\/\/whvn.cc\/k77mg1",
      "views": 396,
      "favorites": 12,
      "source": "https:\/\/35photo.pro\/photo_5931241",
      "purity": "sfw",
      "category": "general",
      "dimension_x": 1900,
      "dimension_y": 1343,
      "resolution": "1900x1343",
      "ratio": "1.41",
      "file_size": 4979350,
      "file_type": "image\/jpeg",
      "created_at": "2021-03-06 19:12:58",
      "colors": [
        "#996633",
        "#999999",
        "#424153",
        "#663300",
        "#000000"
      ],
      "path": "https:\/\/w.wallhaven.cc\/full\/k7\/wallhaven-k77mg1.jpg",
      "thumbs": {
        "large": "https:\/\/th.wallhaven.cc\/lg\/k7\/k77mg1.jpg",
        "original": "https:\/\/th.wallhaven.cc\/orig\/k7\/k77mg1.jpg",
        "small": "https:\/\/th.wallhaven.cc\/small\/k7\/k77mg1.jpg"
      }
    },
    {
      "id": "722dqy",
      "url": "https:\/\/wallhaven.cc\/w\/722dqy",
      "short_url": "https:\/\/whvn.cc\/722dqy",
      "views": 648,
      "favorites": 13,
      "source": "https:\/\/35photo.pro\/photo_5930841\/",
      "purity": "sfw",
      "category": "general",
      "dimension_x": 2000,
      "dimension_y": 1333,
      "resolution": "2000x1333",
      "ratio": "1.5",
      "file_size": 3004382,
      "file_type": "image\/jpeg",
      "created_at": "2021-03-06 18:25:57",
      "colors": [
        "#424153",
        "#000000",
        "#333399",
        "#996633",
        "#cc6633"
      ],
      "path": "https:\/\/w.wallhaven.cc\/full\/72\/wallhaven-722dqy.jpg",
      "thumbs": {
        "large": "https:\/\/th.wallhaven.cc\/lg\/72\/722dqy.jpg",
        "original": "https:\/\/th.wallhaven.cc\/orig\/72\/722dqy.jpg",
        "small": "https:\/\/th.wallhaven.cc\/small\/72\/722dqy.jpg"
      }
    },
    {
      "id": "v99vdl",
      "url": "https:\/\/wallhaven.cc\/w\/v99vdl",
      "short_url": "https:\/\/whvn.cc\/v99vdl",
      "views": 1663,
      "favorites": 43,
      "source": "https:\/\/35photo.pro\/photo_5377911\/",
      "purity": "sfw",
      "category": "general",
      "dimension_x": 1600,
      "dimension_y": 900,
      "resolution": "1600x900",
      "ratio": "1.78",
      "file_size": 2706186,
      "file_type": "image\/jpeg",
      "created_at": "2021-02-22 04:03:02",
      "colors": [
        "#424153",
        "#000000",
        "#996633",
        "#663300",
        "#999999"
      ],
      "path": "https:\/\/w.wallhaven.cc\/full\/v9\/wallhaven-v99vdl.jpg",
      "thumbs": {
        "large": "https:\/\/th.wallhaven.cc\/lg\/v9\/v99vdl.jpg",
        "original": "https:\/\/th.wallhaven.cc\/orig\/v9\/v99vdl.jpg",
        "small": "https:\/\/th.wallhaven.cc\/small\/v9\/v99vdl.jpg"
      }
    },
    {
      "id": "l33vjl",
      "url": "https:\/\/wallhaven.cc\/w\/l33vjl",
      "short_url": "https:\/\/whvn.cc\/l33vjl",
      "views": 647,
      "favorites": 16,
      "source": "https:\/\/35photo.pro\/photo_4883995\/",
      "purity": "sfw",
      "category": "general",
      "dimension_x": 1920,
      "dimension_y": 1164,
      "resolution": "1920x1164",
      "ratio": "1.65",
      "file_size": 2205097,
      "file_type": "image\/jpeg",
      "created_at": "2021-02-22 04:10:16",
      "colors": [
        "#000000",
        "#424153",
        "#999999",
        "#996633",
        "#e7d8b1"
      ],
      "path": "https:\/\/w.wallhaven.cc\/full\/l3\/wallhaven-l33vjl.jpg",
      "thumbs": {
        "large": "https:\/\/th.wallhaven.cc\/lg\/l3\/l33vjl.jpg",
        "original": "https:\/\/th.wallhaven.cc\/orig\/l3\/l33vjl.jpg",
        "small": "https:\/\/th.wallhaven.cc\/small\/l3\/l33vjl.jpg"
      }
    },
    {
      "id": "x8839z",
      "url": "https:\/\/wallhaven.cc\/w\/x8839z",
      "short_url": "https:\/\/whvn.cc\/x8839z",
      "views": 313,
      "favorites": 8,
      "source": "https:\/\/35photo.pro\/photo_5811438\/",
      "purity": "sfw",
      "category": "people",
      "dimension_x": 2500,
      "dimension_y": 1663,
      "resolution": "2500x1663",
      "ratio": "1.5",
      "file_size": 12478847,
      "file_type": "image\/png",
      "created_at": "2021-02-22 04:33:09",
      "colors": [
        "#424153",
        "#e7d8b1",
        "#000000",
        "#996633",
        "#ffffff"
      ],
      "path": "https:\/\/w.wallhaven.cc\/full\/x8\/wallhaven-x8839z.png",
      "thumbs": {
        "large": "https:\/\/th.wallhaven.cc\/lg\/x8\/x8839z.jpg",
        "original": "https:\/\/th.wallhaven.cc\/orig\/x8\/x8839z.jpg",
        "small": "https:\/\/th.wallhaven.cc\/small\/x8\/x8839z.jpg"
      }
    },
    {
      "id": "1kkw2g",
      "url": "https:\/\/wallhaven.cc\/w\/1kkw2g",
      "short_url": "https:\/\/whvn.cc\/1kkw2g",
      "views": 913,
      "favorites": 28,
      "source": "https:\/\/35photo.pro\/photo_5811435\/",
      "purity": "sfw",
      "category": "general",
      "dimension_x": 2048,
      "dimension_y": 1365,
      "resolution": "2048x1365",
      "ratio": "1.5",
      "file_size": 2838149,
      "file_type": "image\/jpeg",
      "created_at": "2021-02-22 04:35:30",
      "colors": [
        "#424153",
        "#663300",
        "#996633",
        "#000000",
        "#999999"
      ],
      "path": "https:\/\/w.wallhaven.cc\/full\/1k\/wallhaven-1kkw2g.jpg",
      "thumbs": {
        "large": "https:\/\/th.wallhaven.cc\/lg\/1k\/1kkw2g.jpg",
        "original": "https:\/\/th.wallhaven.cc\/orig\/1k\/1kkw2g.jpg",
        "small": "https:\/\/th.wallhaven.cc\/small\/1k\/1kkw2g.jpg"
      }
    },
    {
      "id": "e772zk",
      "url": "https:\/\/wallhaven.cc\/w\/e772zk",
      "short_url": "https:\/\/whvn.cc\/e772zk",
      "views": 887,
      "favorites": 19,
      "source": "https:\/\/35photo.pro\/photo_4513425\/",
      "purity": "sfw",
      "category": "general",
      "dimension_x": 2048,
      "dimension_y": 1509,
      "resolution": "2048x1509",
      "ratio": "1.36",
      "file_size": 4896966,
      "file_type": "image\/jpeg",
      "created_at": "2021-02-17 18:11:42",
      "colors": [
        "#424153",
        "#000000",
        "#999999",
        "#996633",
        "#e7d8b1"
      ],
      "path": "https:\/\/w.wallhaven.cc\/full\/e7\/wallhaven-e772zk.jpg",
      "thumbs": {
        "large": "https:\/\/th.wallhaven.cc\/lg\/e7\/e772zk.jpg",
        "original": "https:\/\/th.wallhaven.cc\/orig\/e7\/e772zk.jpg",
        "small": "https:\/\/th.wallhaven.cc\/small\/e7\/e772zk.jpg"
      }
    },
    {
      "id": "v99ex5",
      "url": "https:\/\/wallhaven.cc\/w\/v99ex5",
      "short_url": "https:\/\/whvn.cc\/v99ex5",
      "views": 1051,
      "favorites": 20,
      "source": "https:\/\/35photo.pro\/photo_4540420\/",
      "purity": "sfw",
      "category": "general",
      "dimension_x": 2048,
      "dimension_y": 1493,
      "resolution": "2048x1493",
      "ratio": "1.37",
      "file_size": 5174883,
      "file_type": "image\/jpeg",
      "created_at": "2021-02-17 17:58:45",
      "colors": [
        "#424153",
        "#000000",
        "#663300",
        "#e7d8b1",
        "#999999"
      ],
      "path": "https:\/\/w.wallhaven.cc\/full\/v9\/wallhaven-v99ex5.jpg",
      "thumbs": {
        "large": "https:\/\/th.wallhaven.cc\/lg\/v9\/v99ex5.jpg",
        "original": "https:\/\/th.wallhaven.cc\/orig\/v9\/v99ex5.jpg",
        "small": "https:\/\/th.wallhaven.cc\/small\/v9\/v99ex5.jpg"
      }
    },
    {
      "id": "577rm1",
      "url": "https:\/\/wallhaven.cc\/w\/577rm1",
      "short_url": "https:\/\/whvn.cc\/577rm1",
      "views": 1260,
      "favorites": 31,
      "source": "https:\/\/35photo.pro\/photo_5301282\/",
      "purity": "sfw",
      "category": "general",
      "dimension_x": 2048,
      "dimension_y": 1365,
      "resolution": "2048x1365",
      "ratio": "1.5",
      "file_size": 5854451,
      "file_type": "image\/jpeg",
      "created_at": "2021-02-15 18:38:10",
      "colors": [
        "#424153",
        "#663300",
        "#000000",
        "#996633",
        "#999999"
      ],
      "path": "https:\/\/w.wallhaven.cc\/full\/57\/wallhaven-577rm1.jpg",
      "thumbs": {
        "large": "https:\/\/th.wallhaven.cc\/lg\/57\/577rm1.jpg",
        "original": "https:\/\/th.wallhaven.cc\/orig\/57\/577rm1.jpg",
        "small": "https:\/\/th.wallhaven.cc\/small\/57\/577rm1.jpg"
      }
    },
    {
      "id": "g772m7",
      "url": "https:\/\/wallhaven.cc\/w\/g772m7",
      "short_url": "https:\/\/whvn.cc\/g772m7",
      "views": 1343,
      "favorites": 26,
      "source": "https:\/\/www.flickr.com\/photos\/bryanjhill\/3075049645",
      "purity": "sfw",
      "category": "general",
      "dimension_x": 7952,
      "dimension_y": 5304,
      "resolution": "7952x5304",
      "ratio": "1.5",
      "file_size": 20222226,
      "file_type": "image\/jpeg",
      "created_at": "2021-02-15 18:04:22",
      "colors": [
        "#424153",
        "#996633",
        "#999999",
        "#666600",
        "#663300"
      ],
      "path": "https:\/\/w.wallhaven.cc\/full\/g7\/wallhaven-g772m7.jpg",
      "thumbs": {
        "large": "https:\/\/th.wallhaven.cc\/lg\/g7\/g772m7.jpg",
        "original": "https:\/\/th.wallhaven.cc\/orig\/g7\/g772m7.jpg",
        "small": "https:\/\/th.wallhaven.cc\/small\/g7\/g772m7.jpg"
      }
    },
    {
      "id": "9mmdwx",
      "url": "https:\/\/wallhaven.cc\/w\/9mmdwx",
      "short_url": "https:\/\/whvn.cc\/9mmdwx",
      "views": 626,
      "favorites": 14,
      "source": "https:\/\/35photo.pro\/photo_5684168\/",
      "purity": "sfw",
      "category": "general",
      "dimension_x": 1920,
      "dimension_y": 1218,
      "resolution": "1920x1218",
      "ratio": "1.58",
      "file_size": 3680503,
      "file_type": "image\/jpeg",
      "created_at": "2021-02-08 20:34:54",
      "colors": [
        "#424153",
        "#000000",
        "#999999",
        "#663300",
        "#663399"
      ],
      "path": "https:\/\/w.wallhaven.cc\/full\/9m\/wallhaven-9mmdwx.jpg",
      "thumbs": {
        "large": "https:\/\/th.wallhaven.cc\/lg\/9m\/9mmdwx.jpg",
        "original": "https:\/\/th.wallhaven.cc\/orig\/9m\/9mmdwx.jpg",
        "small": "https:\/\/th.wallhaven.cc\/small\/9m\/9mmdwx.jpg"
      }
    },
    {
      "id": "j33vy5",
      "url": "https:\/\/wallhaven.cc\/w\/j33vy5",
      "short_url": "https:\/\/whvn.cc\/j33vy5",
      "views": 6673,
      "favorites": 108,
      "source": "https:\/\/www.flickr.com\/photos\/141260790@N05\/45539120841",
      "purity": "sfw",
      "category": "general",
      "dimension_x": 6000,
      "dimension_y": 3851,
      "resolution": "6000x3851",
      "ratio": "1.56",
      "file_size": 4955843,
      "file_type": "image\/jpeg",
      "created_at": "2021-02-15 17:53:57",
      "colors": [
        "#424153",
        "#999999",
        "#000000",
        "#663399",
        "#e7d8b1"
      ],
      "path": "https:\/\/w.wallhaven.cc\/full\/j3\/wallhaven-j33vy5.jpg",
      "thumbs": {
        "large": "https:\/\/th.wallhaven.cc\/lg\/j3\/j33vy5.jpg",
        "original": "https:\/\/th.wallhaven.cc\/orig\/j3\/j33vy5.jpg",
        "small": "https:\/\/th.wallhaven.cc\/small\/j3\/j33vy5.jpg"
      }
    },
    {
      "id": "722pqo",
      "url": "https:\/\/wallhaven.cc\/w\/722pqo",
      "short_url": "https:\/\/whvn.cc\/722pqo",
      "views": 899,
      "favorites": 24,
      "source": "https:\/\/en.35photo.pro\/photo_5668616\/",
      "purity": "sfw",
      "category": "general",
      "dimension_x": 2048,
      "dimension_y": 1152,
      "resolution": "2048x1152",
      "ratio": "1.78",
      "file_size": 2443303,
      "file_type": "image\/jpeg",
      "created_at": "2021-02-08 20:11:00",
      "colors": [
        "#663300",
        "#000000",
        "#996633",
        "#cc6633",
        "#424153"
      ],
      "path": "https:\/\/w.wallhaven.cc\/full\/72\/wallhaven-722pqo.jpg",
      "thumbs": {
        "large": "https:\/\/th.wallhaven.cc\/lg\/72\/722pqo.jpg",
        "original": "https:\/\/th.wallhaven.cc\/orig\/72\/722pqo.jpg",
        "small": "https:\/\/th.wallhaven.cc\/small\/72\/722pqo.jpg"
      }
    },
    {
      "id": "e77ypk",
      "url": "https:\/\/wallhaven.cc\/w\/e77ypk",
      "short_url": "https:\/\/whvn.cc\/e77ypk",
      "views": 607,
      "favorites": 13,
      "source": "https:\/\/35photo.pro\/photo_5514347\/",
      "purity": "sfw",
      "category": "general",
      "dimension_x": 2500,
      "dimension_y": 1611,
      "resolution": "2500x1611",
      "ratio": "1.55",
      "file_size": 4353281,
      "file_type": "image\/jpeg",
      "created_at": "2021-02-06 13:04:02",
      "colors": [
        "#000000",
        "#424153",
        "#999999",
        "#cccccc",
        "#abbcda"
      ],
      "path": "https:\/\/w.wallhaven.cc\/full\/e7\/wallhaven-e77ypk.jpg",
      "thumbs": {
        "large": "https:\/\/th.wallhaven.cc\/lg\/e7\/e77ypk.jpg",
        "original": "https:\/\/th.wallhaven.cc\/orig\/e7\/e77ypk.jpg",
        "small": "https:\/\/th.wallhaven.cc\/small\/e7\/e77ypk.jpg"
      }
    },
    {
      "id": "v99gr5",
      "url": "https:\/\/wallhaven.cc\/w\/v99gr5",
      "short_url": "https:\/\/whvn.cc\/v99gr5",
      "views": 642,
      "favorites": 21,
      "source": "https:\/\/35photo.pro\/photo_5646687\/",
      "purity": "sfw",
      "category": "general",
      "dimension_x": 1800,
      "dimension_y": 1200,
      "resolution": "1800x1200",
      "ratio": "1.5",
      "file_size": 2705245,
      "file_type": "image\/jpeg",
      "created_at": "2021-02-06 13:30:53",
      "colors": [
        "#663300",
        "#996633",
        "#000000",
        "#424153",
        "#cc6633"
      ],
      "path": "https:\/\/w.wallhaven.cc\/full\/v9\/wallhaven-v99gr5.jpg",
      "thumbs": {
        "large": "https:\/\/th.wallhaven.cc\/lg\/v9\/v99gr5.jpg",
        "original": "https:\/\/th.wallhaven.cc\/orig\/v9\/v99gr5.jpg",
        "small": "https:\/\/th.wallhaven.cc\/small\/v9\/v99gr5.jpg"
      }
    },
    {
      "id": "j335oq",
      "url": "https:\/\/wallhaven.cc\/w\/j335oq",
      "short_url": "https:\/\/whvn.cc\/j335oq",
      "views": 851,
      "favorites": 23,
      "source": "https:\/\/35photo.pro\/photo_3940328\/",
      "purity": "sfw",
      "category": "general",
      "dimension_x": 1920,
      "dimension_y": 1280,
      "resolution": "1920x1280",
      "ratio": "1.5",
      "file_size": 4037293,
      "file_type": "image\/jpeg",
      "created_at": "2021-02-06 13:59:09",
      "colors": [
        "#000000",
        "#663300",
        "#996633",
        "#666600",
        "#424153"
      ],
      "path": "https:\/\/w.wallhaven.cc\/full\/j3\/wallhaven-j335oq.jpg",
      "thumbs": {
        "large": "https:\/\/th.wallhaven.cc\/lg\/j3\/j335oq.jpg",
        "original": "https:\/\/th.wallhaven.cc\/orig\/j3\/j335oq.jpg",
        "small": "https:\/\/th.wallhaven.cc\/small\/j3\/j335oq.jpg"
      }
    },
    {
      "id": "577w83",
      "url": "https:\/\/wallhaven.cc\/w\/577w83",
      "short_url": "https:\/\/whvn.cc\/577w83",
      "views": 724,
      "favorites": 19,
      "source": "https:\/\/35photo.pro\/photo_5228822\/",
      "purity": "sfw",
      "category": "general",
      "dimension_x": 1920,
      "dimension_y": 1280,
      "resolution": "1920x1280",
      "ratio": "1.5",
      "file_size": 2816440,
      "file_type": "image\/jpeg",
      "created_at": "2021-02-06 13:41:21",
      "colors": [
        "#000000",
        "#424153",
        "#663300",
        "#996633",
        "#999999"
      ],
      "path": "https:\/\/w.wallhaven.cc\/full\/57\/wallhaven-577w83.jpg",
      "thumbs": {
        "large": "https:\/\/th.wallhaven.cc\/lg\/57\/577w83.jpg",
        "original": "https:\/\/th.wallhaven.cc\/orig\/57\/577w83.jpg",
        "small": "https:\/\/th.wallhaven.cc\/small\/57\/577w83.jpg"
      }
    },
    {
      "id": "3zz9e6",
      "url": "https:\/\/wallhaven.cc\/w\/3zz9e6",
      "short_url": "https:\/\/whvn.cc\/3zz9e6",
      "views": 1034,
      "favorites": 22,
      "source": "https:\/\/35photo.pro\/photo_5602710\/",
      "purity": "sfw",
      "category": "general",
      "dimension_x": 2048,
      "dimension_y": 1526,
      "resolution": "2048x1526",
      "ratio": "1.34",
      "file_size": 2841644,
      "file_type": "image\/jpeg",
      "created_at": "2021-02-06 13:33:29",
      "colors": [
        "#424153",
        "#999999",
        "#e7d8b1",
        "#996633",
        "#333399"
      ],
      "path": "https:\/\/w.wallhaven.cc\/full\/3z\/wallhaven-3zz9e6.jpg",
      "thumbs": {
        "large": "https:\/\/th.wallhaven.cc\/lg\/3z\/3zz9e6.jpg",
        "original": "https:\/\/th.wallhaven.cc\/orig\/3z\/3zz9e6.jpg",
        "small": "https:\/\/th.wallhaven.cc\/small\/3z\/3zz9e6.jpg"
      }
    },
    {
      "id": "m99dvk",
      "url": "https:\/\/wallhaven.cc\/w\/m99dvk",
      "short_url": "https:\/\/whvn.cc\/m99dvk",
      "views": 630,
      "favorites": 19,
      "source": "https:\/\/35photo.pro\/photo_4591902\/",
      "purity": "sfw",
      "category": "general",
      "dimension_x": 1800,
      "dimension_y": 1200,
      "resolution": "1800x1200",
      "ratio": "1.5",
      "file_size": 1610035,
      "file_type": "image\/jpeg",
      "created_at": "2021-02-06 12:53:47",
      "colors": [
        "#424153",
        "#999999",
        "#000000",
        "#996633",
        "#e7d8b1"
      ],
      "path": "https:\/\/w.wallhaven.cc\/full\/m9\/wallhaven-m99dvk.jpg",
      "thumbs": {
        "large": "https:\/\/th.wallhaven.cc\/lg\/m9\/m99dvk.jpg",
        "original": "https:\/\/th.wallhaven.cc\/orig\/m9\/m99dvk.jpg",
        "small": "https:\/\/th.wallhaven.cc\/small\/m9\/m99dvk.jpg"
      }
    },
    {
      "id": "l33mvr",
      "url": "https:\/\/wallhaven.cc\/w\/l33mvr",
      "short_url": "https:\/\/whvn.cc\/l33mvr",
      "views": 678,
      "favorites": 19,
      "source": "https:\/\/35photo.pro\/photo_5329831\/",
      "purity": "sfw",
      "category": "general",
      "dimension_x": 2500,
      "dimension_y": 1666,
      "resolution": "2500x1666",
      "ratio": "1.5",
      "file_size": 4340996,
      "file_type": "image\/jpeg",
      "created_at": "2021-02-06 12:46:01",
      "colors": [
        "#424153",
        "#663300",
        "#996633",
        "#999999",
        "#000000"
      ],
      "path": "https:\/\/w.wallhaven.cc\/full\/l3\/wallhaven-l33mvr.jpg",
      "thumbs": {
        "large": "https:\/\/th.wallhaven.cc\/lg\/l3\/l33mvr.jpg",
        "original": "https:\/\/th.wallhaven.cc\/orig\/l3\/l33mvr.jpg",
        "small": "https:\/\/th.wallhaven.cc\/small\/l3\/l33mvr.jpg"
      }
    },
    {
      "id": "j335qy",
      "url": "https:\/\/wallhaven.cc\/w\/j335qy",
      "short_url": "https:\/\/whvn.cc\/j335qy",
      "views": 1242,
      "favorites": 25,
      "source": "https:\/\/35photo.pro\/photo_5388579\/",
      "purity": "sfw",
      "category": "general",
      "dimension_x": 2500,
      "dimension_y": 1666,
      "resolution": "2500x1666",
      "ratio": "1.5",
      "file_size": 2416568,
      "file_type": "image\/jpeg",
      "created_at": "2021-02-06 12:41:14",
      "colors": [
        "#424153",
        "#999999",
        "#000000",
        "#663300",
        "#996633"
      ],
      "path": "https:\/\/w.wallhaven.cc\/full\/j3\/wallhaven-j335qy.jpg",
      "thumbs": {
        "large": "https:\/\/th.wallhaven.cc\/lg\/j3\/j335qy.jpg",
        "original": "https:\/\/th.wallhaven.cc\/orig\/j3\/j335qy.jpg",
        "small": "https:\/\/th.wallhaven.cc\/small\/j3\/j335qy.jpg"
      }
    }
  ],
  "meta": {
    "current_page": 1,
    "last_page": 2,
    "per_page": 24,
    "total": 46
  }
}
