{
  "data": [
    {
      "id": "v9qk23",
      "url": "https:\/\/wallhaven.cc\/w\/v9qk23",
      "short_url": "https:\/\/whvn.cc\/v9qk23",
      "views": 153,
      "favorites": 5,
      "source": "https:\/\/www.artstation.com\/artwork\/Xnzky0",
      "purity": "sfw",
      "category": "general",
      "dimension_x": 3840,
      "dimension_y": 1923,
      "resolution": "3840x1923",
      "ratio": "2",
      "file_size": 1503878,
      "file_type": "image\/jpeg",
      "created_at": "2021-04-03 14:19:07",
      "colors": [
        "#000000",
        "#424153",
        "#336600",
        "#cccccc",
        "#996633"
      ],
      "path": "https:\/\/w.wallhaven.cc\/full\/v9\/wallhaven-v9qk23.jpg",
      "thumbs": {
        "large": "https:\/\/th.wallhaven.cc\/lg\/v9\/v9qk23.jpg",
        "original": "https:\/\/th.wallhaven.cc\/orig\/v9\/v9qk23.jpg",
        "small": "https:\/\/th.wallhaven.cc\/small\/v9\/v9qk23.jpg"
      }
    },
    {
      "id": "28ym66",
      "url": "https:\/\/wallhaven.cc\/w\/28ym66",
      "short_url": "https:\/\/whvn.cc\/28ym66",
      "views": 241,
      "favorites": 4,
      "source": "https:\/\/www.artstation.com\/artwork\/NxVgmJ",
      "purity": "sfw",
      "category": "general",
      "dimension_x": 3840,
      "dimension_y": 2229,
      "resolution": "3840x2229",
      "ratio": "1.72",
      "file_size": 1243829,
      "file_type": "image\/jpeg",
      "created_at": "2021-04-03 14:19:07",
      "colors": [
        "#000000",
        "#424153",
        "#abbcda",
        "#ffffff",
        "#999999"
      ],
      "path": "https:\/\/w.wallhaven.cc\/full\/28\/wallhaven-28ym66.jpg",
      "thumbs": {
        "large": "https:\/\/th.wallhaven.cc\/lg\/28\/28ym66.jpg",
        "original": "https:\/\/th.wallhaven.cc\/orig\/28\/28ym66.jpg",
        "small": "https:\/\/th.wallhaven.cc\/small\/28\/28ym66.jpg"
      }
    },
    {
      "id": "3zlp7y",
      "url": "https:\/\/wallhaven.cc\/w\/3zlp7y",
      "short_url": "https:\/\/whvn.cc\/3zlp7y",
      "views": 253,
      "favorites": 11,
      "source": "https:\/\/www.artstation.com\/artwork\/J95Kld",
      "purity": "sfw",
      "category": "general",
      "dimension_x": 3840,
      "dimension_y": 2486,
      "resolution": "3840x2486",
      "ratio": "1.54",
      "file_size": 1629625,
      "file_type": "image\/jpeg",
      "created_at": "2021-04-03 14:19:07",
      "colors": [
        "#424153",
        "#996633",
        "#666600",
        "#999999",
        "#e7d8b1"
      ],
      "path": "https:\/\/w.wallhaven.cc\/full\/3z\/wallhaven-3zlp7y.jpg",
      "thumbs": {
        "large": "https:\/\/th.wallhaven.cc\/lg\/3z\/3zlp7y.jpg",
        "original": "https:\/\/th.wallhaven.cc\/orig\/3z\/3zlp7y.jpg",
        "small": "https:\/\/th.wallhaven.cc\/small\/3z\/3zlp7y.jpg"
      }
    },
    {
      "id": "57gxp8",
      "url": "https:\/\/wallhaven.cc\/w\/57gxp8",
      "short_url": "https:\/\/whvn.cc\/57gxp8",
      "views": 193,
      "favorites": 6,
      "source": "https:\/\/www.artstation.com\/artwork\/B1lgBz",
      "purity": "sfw",
      "category": "general",
      "dimension_x": 2508,
      "dimension_y": 1773,
      "resolution": "2508x1773",
      "ratio": "1.41",
      "file_size": 1651072,
      "file_type": "image\/jpeg",
      "created_at": "2021-04-03 14:19:07",
      "colors": [
        "#424153",
        "#000000",
        "#999999",
        "#abbcda",
        "#ea4c88"
      ],
      "path": "https:\/\/w.wallhaven.cc\/full\/57\/wallhaven-57gxp8.jpg",
      "thumbs": {
        "large": "https:\/\/th.wallhaven.cc\/lg\/57\/57gxp8.jpg",
        "original": "https:\/\/th.wallhaven.cc\/orig\/57\/57gxp8.jpg",
        "small": "https:\/\/th.wallhaven.cc\/small\/57\/57gxp8.jpg"
      }
    },
    {
      "id": "dp6rvo",
      "url": "https:\/\/wallhaven.cc\/w\/dp6rvo",
      "short_url": "https:\/\/whvn.cc\/dp6rvo",
      "views": 311,
      "favorites": 30,
      "source": "https:\/\/www.artstation.com\/artwork\/q9XrVN",
      "purity": "sfw",
      "category": "general",
      "dimension_x": 1920,
      "dimension_y": 2520,
      "resolution": "1920x2520",
      "ratio": "0.76",
      "file_size": 820954,
      "file_type": "image\/jpeg",
      "created_at": "2021-04-03 14:19:06",
      "colors": [
        "#999999",
        "#000000",
        "#cccccc",
        "#996633",
        "#424153"
      ],
      "path": "https:\/\/w.wallhaven.cc\/full\/dp\/wallhaven-dp6rvo.jpg",
      "thumbs": {
        "large": "https:\/\/th.wallhaven.cc\/lg\/dp\/dp6rvo.jpg",
        "original": "https:\/\/th.wallhaven.cc\/orig\/dp\/dp6rvo.jpg",
        "small": "https:\/\/th.wallhaven.cc\/small\/dp\/dp6rvo.jpg"
      }
    },
    {
      "id": "rdr8ej",
      "url": "https:\/\/wallhaven.cc\/w\/rdr8ej",
      "short_url": "https:\/\/whvn.cc\/rdr8ej",
      "views": 247,
      "favorites": 11,
      "source": "https:\/\/www.artstation.com\/artwork\/9e1B4y",
      "purity": "sfw",
      "category": "general",
      "dimension_x": 2500,
      "dimension_y": 1060,
      "resolution": "2500x1060",
      "ratio": "2.36",
      "file_size": 663937,
      "file_type": "image\/jpeg",
      "created_at": "2021-04-03 14:19:06",
      "colors": [
        "#424153",
        "#000000",
        "#333399",
        "#999999",
        "#0066cc"
      ],
      "path": "https:\/\/w.wallhaven.cc\/full\/rd\/wallhaven-rdr8ej.jpg",
      "thumbs": {
        "large": "https:\/\/th.wallhaven.cc\/lg\/rd\/rdr8ej.jpg",
        "original": "https:\/\/th.wallhaven.cc\/orig\/rd\/rdr8ej.jpg",
        "small": "https:\/\/th.wallhaven.cc\/small\/rd\/rdr8ej.jpg"
      }
    },
    {
      "id": "9md1k8",
      "url": "https:\/\/wallhaven.cc\/w\/9md1k8",
      "short_url": "https:\/\/whvn.cc\/9md1k8",
      "views": 356,
      "favorites": 21,
      "source": "https:\/\/www.artstation.com\/artwork\/AdmVe",
      "purity": "sfw",
      "category": "general",
      "dimension_x": 3200,
      "dimension_y": 1981,
      "resolution": "3200x1981",
      "ratio": "1.62",
      "file_size": 750398,
      "file_type": "image\/jpeg",
      "created_at": "2021-04-03 14:19:06",
      "colors": [
        "#424153",
        "#999999",
        "#cccccc",
        "#abbcda",
        "#996633"
      ],
      "path": "https:\/\/w.wallhaven.cc\/full\/9m\/wallhaven-9md1k8.jpg",
      "thumbs": {
        "large": "https:\/\/th.wallhaven.cc\/lg\/9m\/9md1k8.jpg",
        "original": "https:\/\/th.wallhaven.cc\/orig\/9m\/9md1k8.jpg",
        "small": "https:\/\/th.wallhaven.cc\/small\/9m\/9md1k8.jpg"
      }
    },
    {
      "id": "1kp5o1",
      "url": "https:\/\/wallhaven.cc\/w\/1kp5o1",
      "short_url": "https:\/\/whvn.cc\/1kp5o1",
      "views": 165,
      "favorites": 12,
      "source": "https:\/\/www.artstation.com\/artwork\/lVD4Wo",
      "purity": "sfw",
      "category": "general",
      "dimension_x": 3000,
      "dimension_y": 1897,
      "resolution": "3000x1897",
      "ratio": "1.58",
      "file_size": 450044,
      "file_type": "image\/jpeg",
      "created_at": "2021-04-03 14:19:06",
      "colors": [
        "#424153",
        "#000000",
        "#999999",
        "#996633",
        "#663300"
      ],
      "path": "https:\/\/w.wallhaven.cc\/full\/1k\/wallhaven-1kp5o1.jpg",
      "thumbs": {
        "large": "https:\/\/th.wallhaven.cc\/lg\/1k\/1kp5o1.jpg",
        "original": "https:\/\/th.wallhaven.cc\/orig\/1k\/1kp5o1.jpg",
        "small": "https:\/\/th.wallhaven.cc\/small\/1k\/1kp5o1.jpg"
      }
    },
    {
      "id": "wqe9wx",
      "url": "https:\/\/wallhaven.cc\/w\/wqe9wx",
      "short_url": "https:\/\/whvn.cc\/wqe9wx",
      "views": 140,
      "favorites": 2,
      "source": "",
      "purity": "sfw",
      "category": "general",
      "dimension_x": 1920,
      "dimension_y": 1080,
      "resolution": "1920x1080",
      "ratio": "1.78",
      "file_size": 2288417,
      "file_type": "image\/png",
      "created_at": "2021-04-03 14:06:01",
      "colors": [
        "#424153",
        "#000000",
        "#333399",
        "#660000",
        "#ffcc33"
      ],
      "path": "https:\/\/w.wallhaven.cc\/full\/wq\/wallhaven-wqe9wx.png",
      "thumbs": {
        "large": "https:\/\/th.wallhaven.cc\/lg\/wq\/wqe9wx.jpg",
        "original": "https:\/\/th.wallhaven.cc\/orig\/wq\/wqe9wx.jpg",
        "small": "https:\/\/th.wallhaven.cc\/small\/wq\/wqe9wx.jpg"
      }
    },
    {
      "id": "28ymj6",
      "url": "https:\/\/wallhaven.cc\/w\/28ymj6",
      "short_url": "https:\/\/whvn.cc\/28ymj6",
      "views": 302,
      "favorites": 8,
      "source": "",
      "purity": "sfw",
      "category": "general",
      "dimension_x": 1920,
      "dimension_y": 1080,
      "resolution": "1920x1080",
      "ratio": "1.78",
      "file_size": 3286916,
      "file_type": "image\/png",
      "created_at": "2021-04-03 14:06:01",
      "colors": [
        "#424153",
        "#000000",
        "#333399",
        "#663399",
        "#993399"
      ],
      "path": "https:\/\/w.wallhaven.cc\/full\/28\/wallhaven-28ymj6.png",
      "thumbs": {
        "large": "https:\/\/th.wallhaven.cc\/lg\/28\/28ymj6.jpg",
        "original": "https:\/\/th.wallhaven.cc\/orig\/28\/28ymj6.jpg",
        "small": "https:\/\/th.wallhaven.cc\/small\/28\/28ymj6.jpg"
      }
    },
    {
      "id": "1kp5l1",
      "url": "https:\/\/wallhaven.cc\/w\/1kp5l1",
      "short_url": "https:\/\/whvn.cc\/1kp5l1",
      "views": 394,
      "favorites": 9,
      "source": "",
      "purity": "sfw",
      "category": "general",
      "dimension_x": 1920,
      "dimension_y": 1080,
      "resolution": "1920x1080",
      "ratio": "1.78",
      "file_size": 156654,
      "file_type": "image\/jpeg",
      "created_at": "2021-04-03 13:31:23",
      "colors": [
        "#000000",
        "#424153",
        "#333399",
        "#0099cc",
        "#0066cc"
      ],
      "path": "https:\/\/w.wallhaven.cc\/full\/1k\/wallhaven-1kp5l1.jpg",
      "thumbs": {
        "large": "https:\/\/th.wallhaven.cc\/lg\/1k\/1kp5l1.jpg",
        "original": "https:\/\/th.wallhaven.cc\/orig\/1k\/1kp5l1.jpg",
        "small": "https:\/\/th.wallhaven.cc\/small\/1k\/1kp5l1.jpg"
      }
    },
    {
      "id": "8o5qpo",
      "url": "https:\/\/wallhaven.cc\/w\/8o5qpo",
      "short_url": "https:\/\/whvn.cc\/8o5qpo",
      "views": 44,
      "favorites": 0,
      "source": "",
      "purity": "sfw",
      "category": "general",
      "dimension_x": 1041,
      "dimension_y": 1289,
      "resolution": "1041x1289",
      "ratio": "0.81",
      "file_size": 18876,
      "file_type": "image\/png",
      "created_at": "2021-04-03 13:30:26",
      "colors": [
        "#000000",
        "#ffffff",
        "#990000",
        "#cc0000",
        "#424153"
      ],
      "path": "https:\/\/w.wallhaven.cc\/full\/8o\/wallhaven-8o5qpo.png",
      "thumbs": {
        "large": "https:\/\/th.wallhaven.cc\/lg\/8o\/8o5qpo.jpg",
        "original": "https:\/\/th.wallhaven.cc\/orig\/8o\/8o5qpo.jpg",
        "small": "https:\/\/th.wallhaven.cc\/small\/8o\/8o5qpo.jpg"
      }
    },
    {
      "id": "e7x5ro",
      "url": "https:\/\/wallhaven.cc\/w\/e7x5ro",
      "short_url": "https:\/\/whvn.cc\/e7x5ro",
      "views": 273,
      "favorites": 9,
      "source": "https:\/\/old.reddit.com\/r\/singapore\/comments\/mj1ztf\/tried_my_hand_at_editing_this_shot_of_an_empty\/",
      "purity": "sfw",
      "category": "general",
      "dimension_x": 2788,
      "dimension_y": 1569,
      "resolution": "2788x1569",
      "ratio": "1.78",
      "file_size": 310091,
      "file_type": "image\/jpeg",
      "created_at": "2021-04-03 13:21:58",
      "colors": [
        "#000000",
        "#424153",
        "#abbcda",
        "#333399",
        "#999999"
      ],
      "path": "https:\/\/w.wallhaven.cc\/full\/e7\/wallhaven-e7x5ro.jpg",
      "thumbs": {
        "large": "https:\/\/th.wallhaven.cc\/lg\/e7\/e7x5ro.jpg",
        "original": "https:\/\/th.wallhaven.cc\/orig\/e7\/e7x5ro.jpg",
        "small": "https:\/\/th.wallhaven.cc\/small\/e7\/e7x5ro.jpg"
      }
    },
    {
      "id": "o35p7p",
      "url": "https:\/\/wallhaven.cc\/w\/o35p7p",
      "short_url": "https:\/\/whvn.cc\/o35p7p",
      "views": 317,
      "favorites": 26,
      "source": "",
      "purity": "sfw",
      "category": "general",
      "dimension_x": 7680,
      "dimension_y": 4320,
      "resolution": "7680x4320",
      "ratio": "1.78",
      "file_size": 1517561,
      "file_type": "image\/jpeg",
      "created_at": "2021-04-03 13:16:38",
      "colors": [
        "#999999",
        "#424153",
        "#000000",
        "#996633",
        "#663399"
      ],
      "path": "https:\/\/w.wallhaven.cc\/full\/o3\/wallhaven-o35p7p.jpg",
      "thumbs": {
        "large": "https:\/\/th.wallhaven.cc\/lg\/o3\/o35p7p.jpg",
        "original": "https:\/\/th.wallhaven.cc\/orig\/o3\/o35p7p.jpg",
        "small": "https:\/\/th.wallhaven.cc\/small\/o3\/o35p7p.jpg"
      }
    },
    {
      "id": "q2zxpr",
      "url": "https:\/\/wallhaven.cc\/w\/q2zxpr",
      "short_url": "https:\/\/whvn.cc\/q2zxpr",
      "views": 341,
      "favorites": 17,
      "source": "",
      "purity": "sfw",
      "category": "general",
      "dimension_x": 1750,
      "dimension_y": 1000,
      "resolution": "1750x1000",
      "ratio": "1.75",
      "file_size": 237874,
      "file_type": "image\/jpeg",
      "created_at": "2021-04-03 13:04:48",
      "colors": [
        "#000000",
        "#424153",
        "#999999",
        "#cccc33",
        "#996633"
      ],
      "path": "https:\/\/w.wallhaven.cc\/full\/q2\/wallhaven-q2zxpr.jpg",
      "thumbs": {
        "large": "https:\/\/th.wallhaven.cc\/lg\/q2\/q2zxpr.jpg",
        "original": "https:\/\/th.wallhaven.cc\/orig\/q2\/q2zxpr.jpg",
        "small": "https:\/\/th.wallhaven.cc\/small\/q2\/q2zxpr.jpg"
      }
    },
    {
      "id": "m937y8",
      "url": "https:\/\/wallhaven.cc\/w\/m937y8",
      "short_url": "https:\/\/whvn.cc\/m937y8",
      "views": 757,
      "favorites": 24,
      "source": "",
      "purity": "sfw",
      "category": "general",
      "dimension_x": 1920,
      "dimension_y": 2844,
      "resolution": "1920x2844",
      "ratio": "0.68",
      "file_size": 849966,
      "file_type": "image\/jpeg",
      "created_at": "2021-04-03 12:48:22",
      "colors": [
        "#424153",
        "#996633",
        "#663300",
        "#000000",
        "#999999"
      ],
      "path": "https:\/\/w.wallhaven.cc\/full\/m9\/wallhaven-m937y8.jpg",
      "thumbs": {
        "large": "https:\/\/th.wallhaven.cc\/lg\/m9\/m937y8.jpg",
        "original": "https:\/\/th.wallhaven.cc\/orig\/m9\/m937y8.jpg",
        "small": "https:\/\/th.wallhaven.cc\/small\/m9\/m937y8.jpg"
      }
    },
    {
      "id": "j3xgdp",
      "url": "https:\/\/wallhaven.cc\/w\/j3xgdp",
      "short_url": "https:\/\/whvn.cc\/j3xgdp",
      "views": 99,
      "favorites": 0,
      "source": "",
      "purity": "sfw",
      "category": "general",
      "dimension_x": 3440,
      "dimension_y": 1440,
      "resolution": "3440x1440",
      "ratio": "2.39",
      "file_size": 860795,
      "file_type": "image\/jpeg",
      "created_at": "2021-04-03 12:34:38",
      "colors": [
        "#000000",
        "#424153",
        "#999999",
        "#cccccc",
        "#abbcda"
      ],
      "path": "https:\/\/w.wallhaven.cc\/full\/j3\/wallhaven-j3xgdp.jpg",
      "thumbs": {
        "large": "https:\/\/th.wallhaven.cc\/lg\/j3\/j3xgdp.jpg",
        "original": "https:\/\/th.wallhaven.cc\/orig\/j3\/j3xgdp.jpg",
        "small": "https:\/\/th.wallhaven.cc\/small\/j3\/j3xgdp.jpg"
      }
    },
    {
      "id": "o35pjp",
      "url": "https:\/\/wallhaven.cc\/w\/o35pjp",
      "short_url": "https:\/\/whvn.cc\/o35pjp",
      "views": 79,
      "favorites": 1,
      "source": "",
      "purity": "sfw",
      "category": "general",
      "dimension_x": 3440,
      "dimension_y": 1440,
      "resolution": "3440x1440",
      "ratio": "2.39",
      "file_size": 907238,
      "file_type": "image\/jpeg",
      "created_at": "2021-04-03 12:34:38",
      "colors": [
        "#000000",
        "#424153",
        "#663300",
        "#660000",
        "#996633"
      ],
      "path": "https:\/\/w.wallhaven.cc\/full\/o3\/wallhaven-o35pjp.jpg",
      "thumbs": {
        "large": "https:\/\/th.wallhaven.cc\/lg\/o3\/o35pjp.jpg",
        "original": "https:\/\/th.wallhaven.cc\/orig\/o3\/o35pjp.jpg",
        "small": "https:\/\/th.wallhaven.cc\/small\/o3\/o35pjp.jpg"
      }
    },
    {
      "id": "g7pyde",
      "url": "https:\/\/wallhaven.cc\/w\/g7pyde",
      "short_url": "https:\/\/whvn.cc\/g7pyde",
      "views": 99,
      "favorites": 3,
      "source": "",
      "purity": "sfw",
      "category": "general",
      "dimension_x": 3440,
      "dimension_y": 1440,
      "resolution": "3440x1440",
      "ratio": "2.39",
      "file_size": 866337,
      "file_type": "image\/jpeg",
      "created_at": "2021-04-03 12:34:38",
      "colors": [
        "#663300",
        "#000000",
        "#424153",
        "#996633",
        "#990000"
      ],
      "path": "https:\/\/w.wallhaven.cc\/full\/g7\/wallhaven-g7pyde.jpg",
      "thumbs": {
        "large": "https:\/\/th.wallhaven.cc\/lg\/g7\/g7pyde.jpg",
        "original": "https:\/\/th.wallhaven.cc\/orig\/g7\/g7pyde.jpg",
        "small": "https:\/\/th.wallhaven.cc\/small\/g7\/g7pyde.jpg"
      }
    },
    {
      "id": "wqe9xx",
      "url": "https:\/\/wallhaven.cc\/w\/wqe9xx",
      "short_url": "https:\/\/whvn.cc\/wqe9xx",
      "views": 486,
      "favorites": 15,
      "source": "",
      "purity": "sfw",
      "category": "general",
      "dimension_x": 4096,
      "dimension_y": 2557,
      "resolution": "4096x2557",
      "ratio": "1.6",
      "file_size": 1227860,
      "file_type": "image\/jpeg",
      "created_at": "2021-04-03 11:35:21",
      "colors": [
        "#996633",
        "#663300",
        "#424153",
        "#000000",
        "#999999"
      ],
      "path": "https:\/\/w.wallhaven.cc\/full\/wq\/wallhaven-wqe9xx.jpg",
      "thumbs": {
        "large": "https:\/\/th.wallhaven.cc\/lg\/wq\/wqe9xx.jpg",
        "original": "https:\/\/th.wallhaven.cc\/orig\/wq\/wqe9xx.jpg",
        "small": "https:\/\/th.wallhaven.cc\/small\/wq\/wqe9xx.jpg"
      }
    },
    {
      "id": "x86r9l",
      "url": "https:\/\/wallhaven.cc\/w\/x86r9l",
      "short_url": "https:\/\/whvn.cc\/x86r9l",
      "views": 322,
      "favorites": 12,
      "source": "",
      "purity": "sfw",
      "category": "general",
      "dimension_x": 1722,
      "dimension_y": 932,
      "resolution": "1722x932",
      "ratio": "1.85",
      "file_size": 2687893,
      "file_type": "image\/png",
      "created_at": "2021-04-03 11:32:38",
      "colors": [
        "#424153",
        "#e7d8b1",
        "#000000",
        "#996633",
        "#999999"
      ],
      "path": "https:\/\/w.wallhaven.cc\/full\/x8\/wallhaven-x86r9l.png",
      "thumbs": {
        "large": "https:\/\/th.wallhaven.cc\/lg\/x8\/x86r9l.jpg",
        "original": "https:\/\/th.wallhaven.cc\/orig\/x8\/x86r9l.jpg",
        "small": "https:\/\/th.wallhaven.cc\/small\/x8\/x86r9l.jpg"
      }
    },
    {
      "id": "z8yw9y",
      "url": "https:\/\/wallhaven.cc\/w\/z8yw9y",
      "short_url": "https:\/\/whvn.cc\/z8yw9y",
      "views": 89,
      "favorites": 1,
      "source": "",
      "purity": "sfw",
      "category": "general",
      "dimension_x": 1440,
      "dimension_y": 900,
      "resolution": "1440x900",
      "ratio": "1.6",
      "file_size": 3195141,
      "file_type": "image\/png",
      "created_at": "2021-04-03 11:30:24",
      "colors": [
        "#424153",
        "#000000",
        "#999999",
        "#ffffff",
        "#abbcda"
      ],
      "path": "https:\/\/w.wallhaven.cc\/full\/z8\/wallhaven-z8yw9y.png",
      "thumbs": {
        "large": "https:\/\/th.wallhaven.cc\/lg\/z8\/z8yw9y.jpg",
        "original": "https:\/\/th.wallhaven.cc\/orig\/z8\/z8yw9y.jpg",
        "small": "https:\/\/th.wallhaven.cc\/small\/z8\/z8yw9y.jpg"
      }
    },
    {
      "id": "8o5qjo",
      "url": "https:\/\/wallhaven.cc\/w\/8o5qjo",
      "short_url": "https:\/\/whvn.cc\/8o5qjo",
      "views": 80,
      "favorites": 1,
      "source": "",
      "purity": "sfw",
      "category": "general",
      "dimension_x": 1440,
      "dimension_y": 900,
      "resolution": "1440x900",
      "ratio": "1.6",
      "file_size": 3240734,
      "file_type": "image\/png",
      "created_at": "2021-04-03 11:30:24",
      "colors": [
        "#424153",
        "#999999",
        "#ffffff",
        "#663399",
        "#000000"
      ],
      "path": "https:\/\/w.wallhaven.cc\/full\/8o\/wallhaven-8o5qjo.png",
      "thumbs": {
        "large": "https:\/\/th.wallhaven.cc\/lg\/8o\/8o5qjo.jpg",
        "original": "https:\/\/th.wallhaven.cc\/orig\/8o\/8o5qjo.jpg",
        "small": "https:\/\/th.wallhaven.cc\/small\/8o\/8o5qjo.jpg"
      }
    },
    {
      "id": "e7x52o",
      "url": "https:\/\/wallhaven.cc\/w\/e7x52o",
      "short_url": "https:\/\/whvn.cc\/e7x52o",
      "views": 584,
      "favorites": 25,
      "source": "",
      "purity": "sfw",
      "category": "general",
      "dimension_x": 1941,
      "dimension_y": 1092,
      "resolution": "1941x1092",
      "ratio": "1.78",
      "file_size": 5165215,
      "file_type": "image\/png",
      "created_at": "2021-04-03 11:26:13",
      "colors": [
        "#424153",
        "#999999",
        "#996633",
        "#000000",
        "#66cccc"
      ],
      "path": "https:\/\/w.wallhaven.cc\/full\/e7\/wallhaven-e7x52o.png",
      "thumbs": {
        "large": "https:\/\/th.wallhaven.cc\/lg\/e7\/e7x52o.jpg",
        "original": "https:\/\/th.wallhaven.cc\/orig\/e7\/e7x52o.jpg",
        "small": "https:\/\/th.wallhaven.cc\/small\/e7\/e7x52o.jpg"
      }
    }
  ],
  "meta": {
    "current_page": 2,
    "last_page": 3,
    "per_page": 24,
    "total": 72,
    "query": null,
    "seed": null
  }
}
