{
  "data": [
    {
      "id": "8o5qwk",
      "url": "https:\/\/wallhaven.cc\/w\/8o5qwk",
      "short_url": "https:\/\/whvn.cc\/8o5qwk",
      "views": 5,
      "favorites": 1,
      "source": "",
      "purity": "sfw",
      "category": "general",
      "dimension_x": 1920,
      "dimension_y": 1080,
      "resolution": "1920x1080",
      "ratio": "1.78",
      "file_size": 2793319,
      "file_type": "image\/png",
      "created_at": "2021-04-03 20:53:58",
      "colors": [
        "#ffffff",
        "#000000",
        "#424153",
        "#999999",
        "#996633"
      ],
      "path": "https:\/\/w.wallhaven.cc\/full\/8o\/wallhaven-8o5qwk.png",
      "thumbs": {
        "large": "https:\/\/th.wallhaven.cc\/lg\/8o\/8o5qwk.jpg",
        "original": "https:\/\/th.wallhaven.cc\/orig\/8o\/8o5qwk.jpg",
        "small": "https:\/\/th.wallhaven.cc\/small\/8o\/8o5qwk.jpg"
      }
    },
    {
      "id": "z8ywjo",
      "url": "https:\/\/wallhaven.cc\/w\/z8ywjo",
      "short_url": "https:\/\/whvn.cc\/z8ywjo",
      "views": 7,
      "favorites": 1,
      "source": "",
      "purity": "sfw",
      "category": "general",
      "dimension_x": 1920,
      "dimension_y": 1080,
      "resolution": "1920x1080",
      "ratio": "1.78",
      "file_size": 4112393,
      "file_type": "image\/png",
      "created_at": "2021-04-03 20:53:58",
      "colors": [
        "#000000",
        "#999999",
        "#424153",
        "#cccccc",
        "#abbcda"
      ],
      "path": "https:\/\/w.wallhaven.cc\/full\/z8\/wallhaven-z8ywjo.png",
      "thumbs": {
        "large": "https:\/\/th.wallhaven.cc\/lg\/z8\/z8ywjo.jpg",
        "original": "https:\/\/th.wallhaven.cc\/orig\/z8\/z8ywjo.jpg",
        "small": "https:\/\/th.wallhaven.cc\/small\/z8\/z8ywjo.jpg"
      }
    },
    {
      "id": "m93769",
      "url": "https:\/\/wallhaven.cc\/w\/m93769",
      "short_url": "https:\/\/whvn.cc\/m93769",
      "views": 5,
      "favorites": 2,
      "source": "",
      "purity": "sfw",
      "category": "general",
      "dimension_x": 2360,
      "dimension_y": 1640,
      "resolution": "2360x1640",
      "ratio": "1.44",
      "file_size": 1274316,
      "file_type": "image\/png",
      "created_at": "2021-04-03 20:00:26",
      "colors": [
        "#000000",
        "#abbcda",
        "#e7d8b1",
        "#ea4c88",
        "#66cccc"
      ],
      "path": "https:\/\/w.wallhaven.cc\/full\/m9\/wallhaven-m93769.png",
      "thumbs": {
        "large": "https:\/\/th.wallhaven.cc\/lg\/m9\/m93769.jpg",
        "original": "https:\/\/th.wallhaven.cc\/orig\/m9\/m93769.jpg",
        "small": "https:\/\/th.wallhaven.cc\/small\/m9\/m93769.jpg"
      }
    },
    {
      "id": "pk9ep9",
      "url": "https:\/\/wallhaven.cc\/w\/pk9ep9",
      "short_url": "https:\/\/whvn.cc\/pk9ep9",
      "views": 7,
      "favorites": 1,
      "source": "",
      "purity": "sfw",
      "category": "general",
      "dimension_x": 2360,
      "dimension_y": 1640,
      "resolution": "2360x1640",
      "ratio": "1.44",
      "file_size": 1218207,
      "file_type": "image\/png",
      "created_at": "2021-04-03 20:00:26",
      "colors": [
        "#000000",
        "#424153",
        "#333399",
        "#999999",
        "#663399"
      ],
      "path": "https:\/\/w.wallhaven.cc\/full\/pk\/wallhaven-pk9ep9.png",
      "thumbs": {
        "large": "https:\/\/th.wallhaven.cc\/lg\/pk\/pk9ep9.jpg",
        "original": "https:\/\/th.wallhaven.cc\/orig\/pk\/pk9ep9.jpg",
        "small": "https:\/\/th.wallhaven.cc\/small\/pk\/pk9ep9.jpg"
      }
    },
    {
      "id": "6od81q",
      "url": "https:\/\/wallhaven.cc\/w\/6od81q",
      "short_url": "https:\/\/whvn.cc\/6od81q",
      "views": 5,
      "favorites": 1,
      "source": "",
      "purity": "sfw",
      "category": "general",
      "dimension_x": 2360,
      "dimension_y": 1640,
      "resolution": "2360x1640",
      "ratio": "1.44",
      "file_size": 912330,
      "file_type": "image\/png",
      "created_at": "2021-04-03 20:00:26",
      "colors": [
        "#000000",
        "#999999",
        "#e7d8b1",
        "#cc6633",
        "#996633"
      ],
      "path": "https:\/\/w.wallhaven.cc\/full\/6o\/wallhaven-6od81q.png",
      "thumbs": {
        "large": "https:\/\/th.wallhaven.cc\/lg\/6o\/6od81q.jpg",
        "original": "https:\/\/th.wallhaven.cc\/orig\/6o\/6od81q.jpg",
        "small": "https:\/\/th.wallhaven.cc\/small\/6o\/6od81q.jpg"
      }
    },
    {
      "id": "e7x5q8",
      "url": "https:\/\/wallhaven.cc\/w\/e7x5q8",
      "short_url": "https:\/\/whvn.cc\/e7x5q8",
      "views": 5,
      "favorites": 1,
      "source": "",
      "purity": "sfw",
      "category": "general",
      "dimension_x": 2360,
      "dimension_y": 1640,
      "resolution": "2360x1640",
      "ratio": "1.44",
      "file_size": 2078427,
      "file_type": "image\/png",
      "created_at": "2021-04-03 20:00:26",
      "colors": [
        "#000000",
        "#996633",
        "#66cccc",
        "#cc6633",
        "#cccc33"
      ],
      "path": "https:\/\/w.wallhaven.cc\/full\/e7\/wallhaven-e7x5q8.png",
      "thumbs": {
        "large": "https:\/\/th.wallhaven.cc\/lg\/e7\/e7x5q8.jpg",
        "original": "https:\/\/th.wallhaven.cc\/orig\/e7\/e7x5q8.jpg",
        "small": "https:\/\/th.wallhaven.cc\/small\/e7\/e7x5q8.jpg"
      }
    },
    {
      "id": "x86ryz",
      "url": "https:\/\/wallhaven.cc\/w\/x86ryz",
      "short_url": "https:\/\/whvn.cc\/x86ryz",
      "views": 9,
      "favorites": 1,
      "source": "",
      "purity": "sfw",
      "category": "general",
      "dimension_x": 2360,
      "dimension_y": 1640,
      "resolution": "2360x1640",
      "ratio": "1.44",
      "file_size": 4491271,
      "file_type": "image\/png",
      "created_at": "2021-04-03 20:00:26",
      "colors": [
        "#999999",
        "#ea4c88",
        "#993399",
        "#abbcda",
        "#cccccc"
      ],
      "path": "https:\/\/w.wallhaven.cc\/full\/x8\/wallhaven-x86ryz.png",
      "thumbs": {
        "large": "https:\/\/th.wallhaven.cc\/lg\/x8\/x86ryz.jpg",
        "original": "https:\/\/th.wallhaven.cc\/orig\/x8\/x86ryz.jpg",
        "small": "https:\/\/th.wallhaven.cc\/small\/x8\/x86ryz.jpg"
      }
    },
    {
      "id": "72pzk3",
      "url": "https:\/\/wallhaven.cc\/w\/72pzk3",
      "short_url": "https:\/\/whvn.cc\/72pzk3",
      "views": 5,
      "favorites": 1,
      "source": "",
      "purity": "sfw",
      "category": "general",
      "dimension_x": 2360,
      "dimension_y": 1640,
      "resolution": "2360x1640",
      "ratio": "1.44",
      "file_size": 1029856,
      "file_type": "image\/png",
      "created_at": "2021-04-03 20:00:26",
      "colors": [
        "#000000",
        "#e7d8b1",
        "#999999",
        "#ffcc33",
        "#996633"
      ],
      "path": "https:\/\/w.wallhaven.cc\/full\/72\/wallhaven-72pzk3.png",
      "thumbs": {
        "large": "https:\/\/th.wallhaven.cc\/lg\/72\/72pzk3.jpg",
        "original": "https:\/\/th.wallhaven.cc\/orig\/72\/72pzk3.jpg",
        "small": "https:\/\/th.wallhaven.cc\/small\/72\/72pzk3.jpg"
      }
    },
    {
      "id": "o35pm9",
      "url": "https:\/\/wallhaven.cc\/w\/o35pm9",
      "short_url": "https:\/\/whvn.cc\/o35pm9",
      "views": 5,
      "favorites": 2,
      "source": "",
      "purity": "sfw",
      "category": "general",
      "dimension_x": 4864,
      "dimension_y": 3243,
      "resolution": "4864x3243",
      "ratio": "1.5",
      "file_size": 2492077,
      "file_type": "image\/jpeg",
      "created_at": "2021-04-03 19:41:24",
      "colors": [
        "#999999",
        "#cccccc",
        "#424153",
        "#e7d8b1",
        "#abbcda"
      ],
      "path": "https:\/\/w.wallhaven.cc\/full\/o3\/wallhaven-o35pm9.jpg",
      "thumbs": {
        "large": "https:\/\/th.wallhaven.cc\/lg\/o3\/o35pm9.jpg",
        "original": "https:\/\/th.wallhaven.cc\/orig\/o3\/o35pm9.jpg",
        "small": "https:\/\/th.wallhaven.cc\/small\/o3\/o35pm9.jpg"
      }
    },
    {
      "id": "g7pyl3",
      "url": "https:\/\/wallhaven.cc\/w\/g7pyl3",
      "short_url": "https:\/\/whvn.cc\/g7pyl3",
      "views": 5,
      "favorites": 6,
      "source": "",
      "purity": "sfw",
      "category": "general",
      "dimension_x": 2880,
      "dimension_y": 1800,
      "resolution": "2880x1800",
      "ratio": "1.6",
      "file_size": 3983720,
      "file_type": "image\/jpeg",
      "created_at": "2021-04-03 19:37:55",
      "colors": [
        "#424153",
        "#999999",
        "#abbcda",
        "#000000",
        "#cccccc"
      ],
      "path": "https:\/\/w.wallhaven.cc\/full\/g7\/wallhaven-g7pyl3.jpg",
      "thumbs": {
        "large": "https:\/\/th.wallhaven.cc\/lg\/g7\/g7pyl3.jpg",
        "original": "https:\/\/th.wallhaven.cc\/orig\/g7\/g7pyl3.jpg",
        "small": "https:\/\/th.wallhaven.cc\/small\/g7\/g7pyl3.jpg"
      }
    },
    {
      "id": "wqe9rr",
      "url": "https:\/\/wallhaven.cc\/w\/wqe9rr",
      "short_url": "https:\/\/whvn.cc\/wqe9rr",
      "views": 35,
      "favorites": 1,
      "source": "",
      "purity": "sfw",
      "category": "general",
      "dimension_x": 1920,
      "dimension_y": 1080,
      "resolution": "1920x1080",
      "ratio": "1.78",
      "file_size": 3355578,
      "file_type": "image\/png",
      "created_at": "2021-04-03 19:17:58",
      "colors": [
        "#000000",
        "#424153",
        "#999999",
        "#cccccc",
        "#ffffff"
      ],
      "path": "https:\/\/w.wallhaven.cc\/full\/wq\/wallhaven-wqe9rr.png",
      "thumbs": {
        "large": "https:\/\/th.wallhaven.cc\/lg\/wq\/wqe9rr.jpg",
        "original": "https:\/\/th.wallhaven.cc\/orig\/wq\/wqe9rr.jpg",
        "small": "https:\/\/th.wallhaven.cc\/small\/wq\/wqe9rr.jpg"
      }
    },
    {
      "id": "28ym5x",
      "url": "https:\/\/wallhaven.cc\/w\/28ym5x",
      "short_url": "https:\/\/whvn.cc\/28ym5x",
      "views": 49,
      "favorites": 1,
      "source": "",
      "purity": "sfw",
      "category": "general",
      "dimension_x": 1920,
      "dimension_y": 1080,
      "resolution": "1920x1080",
      "ratio": "1.78",
      "file_size": 3351282,
      "file_type": "image\/png",
      "created_at": "2021-04-03 19:17:58",
      "colors": [
        "#000000",
        "#424153",
        "#663300",
        "#996633",
        "#999999"
      ],
      "path": "https:\/\/w.wallhaven.cc\/full\/28\/wallhaven-28ym5x.png",
      "thumbs": {
        "large": "https:\/\/th.wallhaven.cc\/lg\/28\/28ym5x.jpg",
        "original": "https:\/\/th.wallhaven.cc\/orig\/28\/28ym5x.jpg",
        "small": "https:\/\/th.wallhaven.cc\/small\/28\/28ym5x.jpg"
      }
    },
    {
      "id": "dp6rqm",
      "url": "https:\/\/wallhaven.cc\/w\/dp6rqm",
      "short_url": "https:\/\/whvn.cc\/dp6rqm",
      "views": 50,
      "favorites": 1,
      "source": "",
      "purity": "sfw",
      "category": "general",
      "dimension_x": 2360,
      "dimension_y": 1640,
      "resolution": "2360x1640",
      "ratio": "1.44",
      "file_size": 658416,
      "file_type": "image\/png",
      "created_at": "2021-04-03 19:00:59",
      "colors": [
        "#000000",
        "#abbcda",
        "#e7d8b1",
        "#cccccc",
        "#ffcc33"
      ],
      "path": "https:\/\/w.wallhaven.cc\/full\/dp\/wallhaven-dp6rqm.png",
      "thumbs": {
        "large": "https:\/\/th.wallhaven.cc\/lg\/dp\/dp6rqm.jpg",
        "original": "https:\/\/th.wallhaven.cc\/orig\/dp\/dp6rqm.jpg",
        "small": "https:\/\/th.wallhaven.cc\/small\/dp\/dp6rqm.jpg"
      }
    },
    {
      "id": "rdr8zw",
      "url": "https:\/\/wallhaven.cc\/w\/rdr8zw",
      "short_url": "https:\/\/whvn.cc\/rdr8zw",
      "views": 49,
      "favorites": 1,
      "source": "",
      "purity": "sfw",
      "category": "general",
      "dimension_x": 2360,
      "dimension_y": 1640,
      "resolution": "2360x1640",
      "ratio": "1.44",
      "file_size": 474486,
      "file_type": "image\/png",
      "created_at": "2021-04-03 18:44:32",
      "colors": [
        "#000000",
        "#cccc33",
        "#996633",
        "#ffcc33",
        "#cc6633"
      ],
      "path": "https:\/\/w.wallhaven.cc\/full\/rd\/wallhaven-rdr8zw.png",
      "thumbs": {
        "large": "https:\/\/th.wallhaven.cc\/lg\/rd\/rdr8zw.jpg",
        "original": "https:\/\/th.wallhaven.cc\/orig\/rd\/rdr8zw.jpg",
        "small": "https:\/\/th.wallhaven.cc\/small\/rd\/rdr8zw.jpg"
      }
    },
    {
      "id": "9md1yk",
      "url": "https:\/\/wallhaven.cc\/w\/9md1yk",
      "short_url": "https:\/\/whvn.cc\/9md1yk",
      "views": 173,
      "favorites": 9,
      "source": "",
      "purity": "sfw",
      "category": "general",
      "dimension_x": 1920,
      "dimension_y": 1050,
      "resolution": "1920x1050",
      "ratio": "1.83",
      "file_size": 579750,
      "file_type": "image\/jpeg",
      "created_at": "2021-04-03 18:29:23",
      "colors": [
        "#000000",
        "#424153",
        "#e7d8b1",
        "#999999",
        "#996633"
      ],
      "path": "https:\/\/w.wallhaven.cc\/full\/9m\/wallhaven-9md1yk.jpg",
      "thumbs": {
        "large": "https:\/\/th.wallhaven.cc\/lg\/9m\/9md1yk.jpg",
        "original": "https:\/\/th.wallhaven.cc\/orig\/9m\/9md1yk.jpg",
        "small": "https:\/\/th.wallhaven.cc\/small\/9m\/9md1yk.jpg"
      }
    },
    {
      "id": "k7xo6d",
      "url": "https:\/\/wallhaven.cc\/w\/k7xo6d",
      "short_url": "https:\/\/whvn.cc\/k7xo6d",
      "views": 72,
      "favorites": 0,
      "source": "https:\/\/www.reddit.com\/r\/Bioshock\/comments\/mh3khm\/drowning_me_digital_art\/",
      "purity": "sfw",
      "category": "general",
      "dimension_x": 3157,
      "dimension_y": 1606,
      "resolution": "3157x1606",
      "ratio": "1.97",
      "file_size": 7410463,
      "file_type": "image\/png",
      "created_at": "2021-04-03 18:19:49",
      "colors": [
        "#000000",
        "#424153",
        "#999999",
        "#cccccc",
        "#336600"
      ],
      "path": "https:\/\/w.wallhaven.cc\/full\/k7\/wallhaven-k7xo6d.png",
      "thumbs": {
        "large": "https:\/\/th.wallhaven.cc\/lg\/k7\/k7xo6d.jpg",
        "original": "https:\/\/th.wallhaven.cc\/orig\/k7\/k7xo6d.jpg",
        "small": "https:\/\/th.wallhaven.cc\/small\/k7\/k7xo6d.jpg"
      }
    },
    {
      "id": "1kp5mg",
      "url": "https:\/\/wallhaven.cc\/w\/1kp5mg",
      "short_url": "https:\/\/whvn.cc\/1kp5mg",
      "views": 26,
      "favorites": 1,
      "source": "https:\/\/www.reddit.com\/r\/ImaginaryFallout\/comments\/mhtyd4\/minimalism_vault_door_me_digital_art_4k\/",
      "purity": "sfw",
      "category": "general",
      "dimension_x": 3840,
      "dimension_y": 2160,
      "resolution": "3840x2160",
      "ratio": "1.78",
      "file_size": 179549,
      "file_type": "image\/png",
      "created_at": "2021-04-03 18:10:48",
      "colors": [
        "#66cccc",
        "#999999",
        "#424153",
        "#e7d8b1",
        "#660000"
      ],
      "path": "https:\/\/w.wallhaven.cc\/full\/1k\/wallhaven-1kp5mg.png",
      "thumbs": {
        "large": "https:\/\/th.wallhaven.cc\/lg\/1k\/1kp5mg.jpg",
        "original": "https:\/\/th.wallhaven.cc\/orig\/1k\/1kp5mg.jpg",
        "small": "https:\/\/th.wallhaven.cc\/small\/1k\/1kp5mg.jpg"
      }
    },
    {
      "id": "q2zx8l",
      "url": "https:\/\/wallhaven.cc\/w\/q2zx8l",
      "short_url": "https:\/\/whvn.cc\/q2zx8l",
      "views": 26,
      "favorites": 1,
      "source": "https:\/\/www.reddit.com\/r\/ImaginaryFallout\/comments\/mhtyd4\/minimalism_vault_door_me_digital_art_4k\/",
      "purity": "sfw",
      "category": "general",
      "dimension_x": 3840,
      "dimension_y": 2160,
      "resolution": "3840x2160",
      "ratio": "1.78",
      "file_size": 182940,
      "file_type": "image\/png",
      "created_at": "2021-04-03 18:10:48",
      "colors": [
        "#e7d8b1",
        "#999999",
        "#424153",
        "#996633",
        "#cccc33"
      ],
      "path": "https:\/\/w.wallhaven.cc\/full\/q2\/wallhaven-q2zx8l.png",
      "thumbs": {
        "large": "https:\/\/th.wallhaven.cc\/lg\/q2\/q2zx8l.jpg",
        "original": "https:\/\/th.wallhaven.cc\/orig\/q2\/q2zx8l.jpg",
        "small": "https:\/\/th.wallhaven.cc\/small\/q2\/q2zx8l.jpg"
      }
    },
    {
      "id": "z8ywro",
      "url": "https:\/\/wallhaven.cc\/w\/z8ywro",
      "short_url": "https:\/\/whvn.cc\/z8ywro",
      "views": 27,
      "favorites": 1,
      "source": "https:\/\/www.reddit.com\/r\/ImaginaryFallout\/comments\/mhtyd4\/minimalism_vault_door_me_digital_art_4k\/",
      "purity": "sfw",
      "category": "general",
      "dimension_x": 3840,
      "dimension_y": 2160,
      "resolution": "3840x2160",
      "ratio": "1.78",
      "file_size": 181427,
      "file_type": "image\/png",
      "created_at": "2021-04-03 18:10:48",
      "colors": [
        "#66cccc",
        "#999999",
        "#424153",
        "#e7d8b1",
        "#663399"
      ],
      "path": "https:\/\/w.wallhaven.cc\/full\/z8\/wallhaven-z8ywro.png",
      "thumbs": {
        "large": "https:\/\/th.wallhaven.cc\/lg\/z8\/z8ywro.jpg",
        "original": "https:\/\/th.wallhaven.cc\/orig\/z8\/z8ywro.jpg",
        "small": "https:\/\/th.wallhaven.cc\/small\/z8\/z8ywro.jpg"
      }
    },
    {
      "id": "72pzq3",
      "url": "https:\/\/wallhaven.cc\/w\/72pzq3",
      "short_url": "https:\/\/whvn.cc\/72pzq3",
      "views": 67,
      "favorites": 3,
      "source": "",
      "purity": "sfw",
      "category": "general",
      "dimension_x": 2000,
      "dimension_y": 1469,
      "resolution": "2000x1469",
      "ratio": "1.36",
      "file_size": 563245,
      "file_type": "image\/jpeg",
      "created_at": "2021-04-03 17:40:13",
      "colors": [
        "#424153",
        "#999999",
        "#663300",
        "#000000",
        "#996633"
      ],
      "path": "https:\/\/w.wallhaven.cc\/full\/72\/wallhaven-72pzq3.jpg",
      "thumbs": {
        "large": "https:\/\/th.wallhaven.cc\/lg\/72\/72pzq3.jpg",
        "original": "https:\/\/th.wallhaven.cc\/orig\/72\/72pzq3.jpg",
        "small": "https:\/\/th.wallhaven.cc\/small\/72\/72pzq3.jpg"
      }
    },
    {
      "id": "6od8zq",
      "url": "https:\/\/wallhaven.cc\/w\/6od8zq",
      "short_url": "https:\/\/whvn.cc\/6od8zq",
      "views": 48,
      "favorites": 0,
      "source": "",
      "purity": "sfw",
      "category": "general",
      "dimension_x": 1920,
      "dimension_y": 1080,
      "resolution": "1920x1080",
      "ratio": "1.78",
      "file_size": 44318,
      "file_type": "image\/png",
      "created_at": "2021-04-03 16:55:50",
      "colors": [
        "#ffffff",
        "#ff6600",
        "#ffff00",
        "#cc0000",
        "#fdadc7"
      ],
      "path": "https:\/\/w.wallhaven.cc\/full\/6o\/wallhaven-6od8zq.png",
      "thumbs": {
        "large": "https:\/\/th.wallhaven.cc\/lg\/6o\/6od8zq.jpg",
        "original": "https:\/\/th.wallhaven.cc\/orig\/6o\/6od8zq.jpg",
        "small": "https:\/\/th.wallhaven.cc\/small\/6o\/6od8zq.jpg"
      }
    },
    {
      "id": "o35pe9",
      "url": "https:\/\/wallhaven.cc\/w\/o35pe9",
      "short_url": "https:\/\/whvn.cc\/o35pe9",
      "views": 291,
      "favorites": 11,
      "source": "",
      "purity": "sfw",
      "category": "general",
      "dimension_x": 989,
      "dimension_y": 1280,
      "resolution": "989x1280",
      "ratio": "0.77",
      "file_size": 248620,
      "file_type": "image\/jpeg",
      "created_at": "2021-04-03 16:38:15",
      "colors": [
        "#000000",
        "#424153",
        "#999999",
        "#996633",
        "#663300"
      ],
      "path": "https:\/\/w.wallhaven.cc\/full\/o3\/wallhaven-o35pe9.jpg",
      "thumbs": {
        "large": "https:\/\/th.wallhaven.cc\/lg\/o3\/o35pe9.jpg",
        "original": "https:\/\/th.wallhaven.cc\/orig\/o3\/o35pe9.jpg",
        "small": "https:\/\/th.wallhaven.cc\/small\/o3\/o35pe9.jpg"
      }
    },
    {
      "id": "1kp5w1",
      "url": "https:\/\/wallhaven.cc\/w\/1kp5w1",
      "short_url": "https:\/\/whvn.cc\/1kp5w1",
      "views": 79,
      "favorites": 1,
      "source": "",
      "purity": "sfw",
      "category": "general",
      "dimension_x": 1920,
      "dimension_y": 1080,
      "resolution": "1920x1080",
      "ratio": "1.78",
      "file_size": 2335847,
      "file_type": "image\/png",
      "created_at": "2021-04-03 15:31:48",
      "colors": [
        "#000000",
        "#424153",
        "#663300",
        "#999999",
        "#660000"
      ],
      "path": "https:\/\/w.wallhaven.cc\/full\/1k\/wallhaven-1kp5w1.png",
      "thumbs": {
        "large": "https:\/\/th.wallhaven.cc\/lg\/1k\/1kp5w1.jpg",
        "original": "https:\/\/th.wallhaven.cc\/orig\/1k\/1kp5w1.jpg",
        "small": "https:\/\/th.wallhaven.cc\/small\/1k\/1kp5w1.jpg"
      }
    },
    {
      "id": "q2zxvr",
      "url": "https:\/\/wallhaven.cc\/w\/q2zxvr",
      "short_url": "https:\/\/whvn.cc\/q2zxvr",
      "views": 62,
      "favorites": 1,
      "source": "",
      "purity": "sfw",
      "category": "general",
      "dimension_x": 1920,
      "dimension_y": 1080,
      "resolution": "1920x1080",
      "ratio": "1.78",
      "file_size": 894883,
      "file_type": "image\/png",
      "created_at": "2021-04-03 15:31:48",
      "colors": [
        "#000000",
        "#424153",
        "#663300",
        "#999999",
        "#333399"
      ],
      "path": "https:\/\/w.wallhaven.cc\/full\/q2\/wallhaven-q2zxvr.png",
      "thumbs": {
        "large": "https:\/\/th.wallhaven.cc\/lg\/q2\/q2zxvr.jpg",
        "original": "https:\/\/th.wallhaven.cc\/orig\/q2\/q2zxvr.jpg",
        "small": "https:\/\/th.wallhaven.cc\/small\/q2\/q2zxvr.jpg"
      }
    }
  ],
  "meta": {
    "current_page": 1,
    "last_page": 3,
    "per_page": 24,
    "total": 72,
    "query": null,
    "seed": null
  }
}
