{
  "data": [
    {
      "id": "pk9eg3",
      "url": "https:\/\/wallhaven.cc\/w\/pk9eg3",
      "short_url": "https:\/\/whvn.cc\/pk9eg3",
      "views": 419,
      "favorites": 18,
      "source": "",
      "purity": "sfw",
      "category": "general",
      "dimension_x": 4096,
      "dimension_y": 2205,
      "resolution": "4096x2205",
      "ratio": "1.86",
      "file_size": 1240128,
      "file_type": "image\/jpeg",
      "created_at": "2021-04-03 11:22:20",
      "colors": [
        "#424153",
        "#999999",
        "#e7d8b1",
        "#000000",
        "#996633"
      ],
      "path": "https:\/\/w.wallhaven.cc\/full\/pk\/wallhaven-pk9eg3.jpg",
      "thumbs": {
        "large": "https:\/\/th.wallhaven.cc\/lg\/pk\/pk9eg3.jpg",
        "original": "https:\/\/th.wallhaven.cc\/orig\/pk\/pk9eg3.jpg",
        "small": "https:\/\/th.wallhaven.cc\/small\/pk\/pk9eg3.jpg"
      }
    },
    {
      "id": "72pzey",
      "url": "https:\/\/wallhaven.cc\/w\/72pzey",
      "short_url": "https:\/\/whvn.cc\/72pzey",
      "views": 387,
      "favorites": 26,
      "source": "",
      "purity": "sfw",
      "category": "general",
      "dimension_x": 4096,
      "dimension_y": 2438,
      "resolution": "4096x2438",
      "ratio": "1.68",
      "file_size": 2027421,
      "file_type": "image\/jpeg",
      "created_at": "2021-04-03 11:16:21",
      "colors": [
        "#424153",
        "#000000",
        "#e7d8b1",
        "#996633",
        "#999999"
      ],
      "path": "https:\/\/w.wallhaven.cc\/full\/72\/wallhaven-72pzey.jpg",
      "thumbs": {
        "large": "https:\/\/th.wallhaven.cc\/lg\/72\/72pzey.jpg",
        "original": "https:\/\/th.wallhaven.cc\/orig\/72\/72pzey.jpg",
        "small": "https:\/\/th.wallhaven.cc\/small\/72\/72pzey.jpg"
      }
    },
    {
      "id": "6od8px",
      "url": "https:\/\/wallhaven.cc\/w\/6od8px",
      "short_url": "https:\/\/whvn.cc\/6od8px",
      "views": 413,
      "favorites": 29,
      "source": "",
      "purity": "sfw",
      "category": "general",
      "dimension_x": 4096,
      "dimension_y": 2438,
      "resolution": "4096x2438",
      "ratio": "1.68",
      "file_size": 1102735,
      "file_type": "image\/jpeg",
      "created_at": "2021-04-03 11:13:37",
      "colors": [
        "#424153",
        "#000000",
        "#66cccc",
        "#333399",
        "#e7d8b1"
      ],
      "path": "https:\/\/w.wallhaven.cc\/full\/6o\/wallhaven-6od8px.jpg",
      "thumbs": {
        "large": "https:\/\/th.wallhaven.cc\/lg\/6o\/6od8px.jpg",
        "original": "https:\/\/th.wallhaven.cc\/orig\/6o\/6od8px.jpg",
        "small": "https:\/\/th.wallhaven.cc\/small\/6o\/6od8px.jpg"
      }
    },
    {
      "id": "o35p6p",
      "url": "https:\/\/wallhaven.cc\/w\/o35p6p",
      "short_url": "https:\/\/whvn.cc\/o35p6p",
      "views": 434,
      "favorites": 24,
      "source": "",
      "purity": "sfw",
      "category": "general",
      "dimension_x": 4096,
      "dimension_y": 2438,
      "resolution": "4096x2438",
      "ratio": "1.68",
      "file_size": 1745487,
      "file_type": "image\/jpeg",
      "created_at": "2021-04-03 11:10:46",
      "colors": [
        "#424153",
        "#cc6633",
        "#996633",
        "#000000",
        "#999999"
      ],
      "path": "https:\/\/w.wallhaven.cc\/full\/o3\/wallhaven-o35p6p.jpg",
      "thumbs": {
        "large": "https:\/\/th.wallhaven.cc\/lg\/o3\/o35p6p.jpg",
        "original": "https:\/\/th.wallhaven.cc\/orig\/o3\/o35p6p.jpg",
        "small": "https:\/\/th.wallhaven.cc\/small\/o3\/o35p6p.jpg"
      }
    },
    {
      "id": "3zlp66",
      "url": "https:\/\/wallhaven.cc\/w\/3zlp66",
      "short_url": "https:\/\/whvn.cc\/3zlp66",
      "views": 623,
      "favorites": 29,
      "source": "",
      "purity": "sfw",
      "category": "general",
      "dimension_x": 1132,
      "dimension_y": 1992,
      "resolution": "1132x1992",
      "ratio": "0.57",
      "file_size": 3424835,
      "file_type": "image\/png",
      "created_at": "2021-04-03 10:07:48",
      "colors": [
        "#424153",
        "#999999",
        "#cccccc",
        "#ffffff",
        "#996633"
      ],
      "path": "https:\/\/w.wallhaven.cc\/full\/3z\/wallhaven-3zlp66.png",
      "thumbs": {
        "large": "https:\/\/th.wallhaven.cc\/lg\/3z\/3zlp66.jpg",
        "original": "https:\/\/th.wallhaven.cc\/orig\/3z\/3zlp66.jpg",
        "small": "https:\/\/th.wallhaven.cc\/small\/3z\/3zlp66.jpg"
      }
    },
    {
      "id": "pk9eye",
      "url": "https:\/\/wallhaven.cc\/w\/pk9eye",
      "short_url": "https:\/\/whvn.cc\/pk9eye",
      "views": 513,
      "favorites": 32,
      "source": "",
      "purity": "sfw",
      "category": "general",
      "dimension_x": 1920,
      "dimension_y": 1080,
      "resolution": "1920x1080",
      "ratio": "1.78",
      "file_size": 248881,
      "file_type": "image\/jpeg",
      "created_at": "2021-04-03 09:52:38",
      "colors": [
        "#000000",
        "#424153",
        "#77cc33",
        "#669900",
        "#336600"
      ],
      "path": "https:\/\/w.wallhaven.cc\/full\/pk\/wallhaven-pk9eye.jpg",
      "thumbs": {
        "large": "https:\/\/th.wallhaven.cc\/lg\/pk\/pk9eye.jpg",
        "original": "https:\/\/th.wallhaven.cc\/orig\/pk\/pk9eye.jpg",
        "small": "https:\/\/th.wallhaven.cc\/small\/pk\/pk9eye.jpg"
      }
    },
    {
      "id": "m9372k",
      "url": "https:\/\/wallhaven.cc\/w\/m9372k",
      "short_url": "https:\/\/whvn.cc\/m9372k",
      "views": 445,
      "favorites": 20,
      "source": "",
      "purity": "sfw",
      "category": "general",
      "dimension_x": 1920,
      "dimension_y": 1080,
      "resolution": "1920x1080",
      "ratio": "1.78",
      "file_size": 291143,
      "file_type": "image\/jpeg",
      "created_at": "2021-04-03 09:49:45",
      "colors": [
        "#abbcda",
        "#ea4c88",
        "#000000",
        "#999999",
        "#333399"
      ],
      "path": "https:\/\/w.wallhaven.cc\/full\/m9\/wallhaven-m9372k.jpg",
      "thumbs": {
        "large": "https:\/\/th.wallhaven.cc\/lg\/m9\/m9372k.jpg",
        "original": "https:\/\/th.wallhaven.cc\/orig\/m9\/m9372k.jpg",
        "small": "https:\/\/th.wallhaven.cc\/small\/m9\/m9372k.jpg"
      }
    },
    {
      "id": "6od8w6",
      "url": "https:\/\/wallhaven.cc\/w\/6od8w6",
      "short_url": "https:\/\/whvn.cc\/6od8w6",
      "views": 350,
      "favorites": 19,
      "source": "",
      "purity": "sfw",
      "category": "general",
      "dimension_x": 1778,
      "dimension_y": 1000,
      "resolution": "1778x1000",
      "ratio": "1.78",
      "file_size": 313728,
      "file_type": "image\/jpeg",
      "created_at": "2021-04-03 08:36:56",
      "colors": [
        "#999999",
        "#cccccc",
        "#424153",
        "#000000",
        "#663399"
      ],
      "path": "https:\/\/w.wallhaven.cc\/full\/6o\/wallhaven-6od8w6.jpg",
      "thumbs": {
        "large": "https:\/\/th.wallhaven.cc\/lg\/6o\/6od8w6.jpg",
        "original": "https:\/\/th.wallhaven.cc\/orig\/6o\/6od8w6.jpg",
        "small": "https:\/\/th.wallhaven.cc\/small\/6o\/6od8w6.jpg"
      }
    },
    {
      "id": "y8xdvk",
      "url": "https:\/\/wallhaven.cc\/w\/y8xdvk",
      "short_url": "https:\/\/whvn.cc\/y8xdvk",
      "views": 309,
      "favorites": 7,
      "source": "https:\/\/500px.com\/photo\/1030509559\/Dawn-by-Matteo-Sciarra\/",
      "purity": "sfw",
      "category": "general",
      "dimension_x": 2000,
      "dimension_y": 1333,
      "resolution": "2000x1333",
      "ratio": "1.5",
      "file_size": 360560,
      "file_type": "image\/jpeg",
      "created_at": "2021-04-03 07:50:34",
      "colors": [
        "#000000",
        "#424153",
        "#e7d8b1",
        "#996633",
        "#999999"
      ],
      "path": "https:\/\/w.wallhaven.cc\/full\/y8\/wallhaven-y8xdvk.jpg",
      "thumbs": {
        "large": "https:\/\/th.wallhaven.cc\/lg\/y8\/y8xdvk.jpg",
        "original": "https:\/\/th.wallhaven.cc\/orig\/y8\/y8xdvk.jpg",
        "small": "https:\/\/th.wallhaven.cc\/small\/y8\/y8xdvk.jpg"
      }
    },
    {
      "id": "dp6rw3",
      "url": "https:\/\/wallhaven.cc\/w\/dp6rw3",
      "short_url": "https:\/\/whvn.cc\/dp6rw3",
      "views": 495,
      "favorites": 19,
      "source": "https:\/\/500px.com\/photo\/1030349515\/%E9%BE%99%E8%84%89-by-%E5%92%8C%E9%A3%8E-\/",
      "purity": "sfw",
      "category": "general",
      "dimension_x": 2000,
      "dimension_y": 1154,
      "resolution": "2000x1154",
      "ratio": "1.73",
      "file_size": 233430,
      "file_type": "image\/jpeg",
      "created_at": "2021-04-03 07:48:05",
      "colors": [
        "#fdadc7",
        "#999999",
        "#424153",
        "#000000",
        "#ea4c88"
      ],
      "path": "https:\/\/w.wallhaven.cc\/full\/dp\/wallhaven-dp6rw3.jpg",
      "thumbs": {
        "large": "https:\/\/th.wallhaven.cc\/lg\/dp\/dp6rw3.jpg",
        "original": "https:\/\/th.wallhaven.cc\/orig\/dp\/dp6rw3.jpg",
        "small": "https:\/\/th.wallhaven.cc\/small\/dp\/dp6rw3.jpg"
      }
    },
    {
      "id": "9md1rd",
      "url": "https:\/\/wallhaven.cc\/w\/9md1rd",
      "short_url": "https:\/\/whvn.cc\/9md1rd",
      "views": 522,
      "favorites": 20,
      "source": "",
      "purity": "sfw",
      "category": "general",
      "dimension_x": 3840,
      "dimension_y": 3840,
      "resolution": "3840x3840",
      "ratio": "1",
      "file_size": 1705669,
      "file_type": "image\/jpeg",
      "created_at": "2021-04-03 06:55:28",
      "colors": [
        "#cccccc",
        "#ffffff",
        "#424153",
        "#abbcda",
        "#999999"
      ],
      "path": "https:\/\/w.wallhaven.cc\/full\/9m\/wallhaven-9md1rd.jpg",
      "thumbs": {
        "large": "https:\/\/th.wallhaven.cc\/lg\/9m\/9md1rd.jpg",
        "original": "https:\/\/th.wallhaven.cc\/orig\/9m\/9md1rd.jpg",
        "small": "https:\/\/th.wallhaven.cc\/small\/9m\/9md1rd.jpg"
      }
    },
    {
      "id": "j3xgkq",
      "url": "https:\/\/wallhaven.cc\/w\/j3xgkq",
      "short_url": "https:\/\/whvn.cc\/j3xgkq",
      "views": 1097,
      "favorites": 80,
      "source": "",
      "purity": "sfw",
      "category": "general",
      "dimension_x": 4096,
      "dimension_y": 2241,
      "resolution": "4096x2241",
      "ratio": "1.83",
      "file_size": 1711484,
      "file_type": "image\/jpeg",
      "created_at": "2021-04-03 04:51:11",
      "colors": [
        "#424153",
        "#000000",
        "#999999",
        "#0099cc",
        "#66cccc"
      ],
      "path": "https:\/\/w.wallhaven.cc\/full\/j3\/wallhaven-j3xgkq.jpg",
      "thumbs": {
        "large": "https:\/\/th.wallhaven.cc\/lg\/j3\/j3xgkq.jpg",
        "original": "https:\/\/th.wallhaven.cc\/orig\/j3\/j3xgkq.jpg",
        "small": "https:\/\/th.wallhaven.cc\/small\/j3\/j3xgkq.jpg"
      }
    },
    {
      "id": "l386kr",
      "url": "https:\/\/wallhaven.cc\/w\/l386kr",
      "short_url": "https:\/\/whvn.cc\/l386kr",
      "views": 904,
      "favorites": 43,
      "source": "",
      "purity": "sfw",
      "category": "general",
      "dimension_x": 3277,
      "dimension_y": 4096,
      "resolution": "3277x4096",
      "ratio": "0.8",
      "file_size": 1923879,
      "file_type": "image\/jpeg",
      "created_at": "2021-04-03 04:47:20",
      "colors": [
        "#000000",
        "#424153",
        "#999999",
        "#ffffff",
        "#abbcda"
      ],
      "path": "https:\/\/w.wallhaven.cc\/full\/l3\/wallhaven-l386kr.jpg",
      "thumbs": {
        "large": "https:\/\/th.wallhaven.cc\/lg\/l3\/l386kr.jpg",
        "original": "https:\/\/th.wallhaven.cc\/orig\/l3\/l386kr.jpg",
        "small": "https:\/\/th.wallhaven.cc\/small\/l3\/l386kr.jpg"
      }
    },
    {
      "id": "wqe9l6",
      "url": "https:\/\/wallhaven.cc\/w\/wqe9l6",
      "short_url": "https:\/\/whvn.cc\/wqe9l6",
      "views": 926,
      "favorites": 35,
      "source": "",
      "purity": "sfw",
      "category": "general",
      "dimension_x": 1920,
      "dimension_y": 1222,
      "resolution": "1920x1222",
      "ratio": "1.57",
      "file_size": 334171,
      "file_type": "image\/jpeg",
      "created_at": "2021-04-03 02:27:25",
      "colors": [
        "#000000",
        "#424153",
        "#996633",
        "#663300",
        "#333399"
      ],
      "path": "https:\/\/w.wallhaven.cc\/full\/wq\/wallhaven-wqe9l6.jpg",
      "thumbs": {
        "large": "https:\/\/th.wallhaven.cc\/lg\/wq\/wqe9l6.jpg",
        "original": "https:\/\/th.wallhaven.cc\/orig\/wq\/wqe9l6.jpg",
        "small": "https:\/\/th.wallhaven.cc\/small\/wq\/wqe9l6.jpg"
      }
    },
    {
      "id": "dp6re3",
      "url": "https:\/\/wallhaven.cc\/w\/dp6re3",
      "short_url": "https:\/\/whvn.cc\/dp6re3",
      "views": 379,
      "favorites": 14,
      "source": "",
      "purity": "sfw",
      "category": "general",
      "dimension_x": 1920,
      "dimension_y": 1170,
      "resolution": "1920x1170",
      "ratio": "1.64",
      "file_size": 455507,
      "file_type": "image\/jpeg",
      "created_at": "2021-04-03 02:26:18",
      "colors": [
        "#000000",
        "#996633",
        "#663300",
        "#424153",
        "#cc6633"
      ],
      "path": "https:\/\/w.wallhaven.cc\/full\/dp\/wallhaven-dp6re3.jpg",
      "thumbs": {
        "large": "https:\/\/th.wallhaven.cc\/lg\/dp\/dp6re3.jpg",
        "original": "https:\/\/th.wallhaven.cc\/orig\/dp\/dp6re3.jpg",
        "small": "https:\/\/th.wallhaven.cc\/small\/dp\/dp6re3.jpg"
      }
    },
    {
      "id": "q2zxgd",
      "url": "https:\/\/wallhaven.cc\/w\/q2zxgd",
      "short_url": "https:\/\/whvn.cc\/q2zxgd",
      "views": 174,
      "favorites": 2,
      "source": "",
      "purity": "sfw",
      "category": "general",
      "dimension_x": 1920,
      "dimension_y": 1200,
      "resolution": "1920x1200",
      "ratio": "1.6",
      "file_size": 313239,
      "file_type": "image\/jpeg",
      "created_at": "2021-04-03 02:13:03",
      "colors": [
        "#e7d8b1",
        "#996633",
        "#cccc33",
        "#ffcc33",
        "#ffffff"
      ],
      "path": "https:\/\/w.wallhaven.cc\/full\/q2\/wallhaven-q2zxgd.jpg",
      "thumbs": {
        "large": "https:\/\/th.wallhaven.cc\/lg\/q2\/q2zxgd.jpg",
        "original": "https:\/\/th.wallhaven.cc\/orig\/q2\/q2zxgd.jpg",
        "small": "https:\/\/th.wallhaven.cc\/small\/q2\/q2zxgd.jpg"
      }
    },
    {
      "id": "z8ywog",
      "url": "https:\/\/wallhaven.cc\/w\/z8ywog",
      "short_url": "https:\/\/whvn.cc\/z8ywog",
      "views": 593,
      "favorites": 26,
      "source": "",
      "purity": "sfw",
      "category": "general",
      "dimension_x": 3840,
      "dimension_y": 2160,
      "resolution": "3840x2160",
      "ratio": "1.78",
      "file_size": 1293794,
      "file_type": "image\/jpeg",
      "created_at": "2021-04-03 02:10:57",
      "colors": [
        "#999999",
        "#424153",
        "#abbcda",
        "#000000",
        "#996633"
      ],
      "path": "https:\/\/w.wallhaven.cc\/full\/z8\/wallhaven-z8ywog.jpg",
      "thumbs": {
        "large": "https:\/\/th.wallhaven.cc\/lg\/z8\/z8ywog.jpg",
        "original": "https:\/\/th.wallhaven.cc\/orig\/z8\/z8ywog.jpg",
        "small": "https:\/\/th.wallhaven.cc\/small\/z8\/z8ywog.jpg"
      }
    },
    {
      "id": "8o5qk2",
      "url": "https:\/\/wallhaven.cc\/w\/8o5qk2",
      "short_url": "https:\/\/whvn.cc\/8o5qk2",
      "views": 270,
      "favorites": 1,
      "source": "",
      "purity": "sfw",
      "category": "general",
      "dimension_x": 1920,
      "dimension_y": 1080,
      "resolution": "1920x1080",
      "ratio": "1.78",
      "file_size": 695719,
      "file_type": "image\/jpeg",
      "created_at": "2021-04-03 02:08:49",
      "colors": [
        "#000000",
        "#424153",
        "#333399",
        "#999999",
        "#996633"
      ],
      "path": "https:\/\/w.wallhaven.cc\/full\/8o\/wallhaven-8o5qk2.jpg",
      "thumbs": {
        "large": "https:\/\/th.wallhaven.cc\/lg\/8o\/8o5qk2.jpg",
        "original": "https:\/\/th.wallhaven.cc\/orig\/8o\/8o5qk2.jpg",
        "small": "https:\/\/th.wallhaven.cc\/small\/8o\/8o5qk2.jpg"
      }
    },
    {
      "id": "x86r7v",
      "url": "https:\/\/wallhaven.cc\/w\/x86r7v",
      "short_url": "https:\/\/whvn.cc\/x86r7v",
      "views": 454,
      "favorites": 12,
      "source": "",
      "purity": "sfw",
      "category": "general",
      "dimension_x": 1920,
      "dimension_y": 1200,
      "resolution": "1920x1200",
      "ratio": "1.6",
      "file_size": 435481,
      "file_type": "image\/jpeg",
      "created_at": "2021-04-03 02:05:37",
      "colors": [
        "#424153",
        "#000000",
        "#333399",
        "#0066cc",
        "#0099cc"
      ],
      "path": "https:\/\/w.wallhaven.cc\/full\/x8\/wallhaven-x86r7v.jpg",
      "thumbs": {
        "large": "https:\/\/th.wallhaven.cc\/lg\/x8\/x86r7v.jpg",
        "original": "https:\/\/th.wallhaven.cc\/orig\/x8\/x86r7v.jpg",
        "small": "https:\/\/th.wallhaven.cc\/small\/x8\/x86r7v.jpg"
      }
    },
    {
      "id": "e7x59k",
      "url": "https:\/\/wallhaven.cc\/w\/e7x59k",
      "short_url": "https:\/\/whvn.cc\/e7x59k",
      "views": 433,
      "favorites": 11,
      "source": "",
      "purity": "sfw",
      "category": "general",
      "dimension_x": 2560,
      "dimension_y": 1440,
      "resolution": "2560x1440",
      "ratio": "1.78",
      "file_size": 1077609,
      "file_type": "image\/jpeg",
      "created_at": "2021-04-03 02:02:56",
      "colors": [
        "#424153",
        "#000000",
        "#663300",
        "#660000",
        "#996633"
      ],
      "path": "https:\/\/w.wallhaven.cc\/full\/e7\/wallhaven-e7x59k.jpg",
      "thumbs": {
        "large": "https:\/\/th.wallhaven.cc\/lg\/e7\/e7x59k.jpg",
        "original": "https:\/\/th.wallhaven.cc\/orig\/e7\/e7x59k.jpg",
        "small": "https:\/\/th.wallhaven.cc\/small\/e7\/e7x59k.jpg"
      }
    },
    {
      "id": "m9371k",
      "url": "https:\/\/wallhaven.cc\/w\/m9371k",
      "short_url": "https:\/\/whvn.cc\/m9371k",
      "views": 569,
      "favorites": 17,
      "source": "",
      "purity": "sfw",
      "category": "general",
      "dimension_x": 2560,
      "dimension_y": 1421,
      "resolution": "2560x1421",
      "ratio": "1.8",
      "file_size": 1088368,
      "file_type": "image\/jpeg",
      "created_at": "2021-04-03 01:58:32",
      "colors": [
        "#424153",
        "#000000",
        "#999999",
        "#cccccc",
        "#abbcda"
      ],
      "path": "https:\/\/w.wallhaven.cc\/full\/m9\/wallhaven-m9371k.jpg",
      "thumbs": {
        "large": "https:\/\/th.wallhaven.cc\/lg\/m9\/m9371k.jpg",
        "original": "https:\/\/th.wallhaven.cc\/orig\/m9\/m9371k.jpg",
        "small": "https:\/\/th.wallhaven.cc\/small\/m9\/m9371k.jpg"
      }
    },
    {
      "id": "y8xdek",
      "url": "https:\/\/wallhaven.cc\/w\/y8xdek",
      "short_url": "https:\/\/whvn.cc\/y8xdek",
      "views": 170,
      "favorites": 3,
      "source": "",
      "purity": "sfw",
      "category": "general",
      "dimension_x": 2048,
      "dimension_y": 1362,
      "resolution": "2048x1362",
      "ratio": "1.5",
      "file_size": 1001473,
      "file_type": "image\/jpeg",
      "created_at": "2021-04-03 01:44:30",
      "colors": [
        "#999999",
        "#e7d8b1",
        "#cccccc",
        "#ffcc33",
        "#424153"
      ],
      "path": "https:\/\/w.wallhaven.cc\/full\/y8\/wallhaven-y8xdek.jpg",
      "thumbs": {
        "large": "https:\/\/th.wallhaven.cc\/lg\/y8\/y8xdek.jpg",
        "original": "https:\/\/th.wallhaven.cc\/orig\/y8\/y8xdek.jpg",
        "small": "https:\/\/th.wallhaven.cc\/small\/y8\/y8xdek.jpg"
      }
    },
    {
      "id": "rdr8yq",
      "url": "https:\/\/wallhaven.cc\/w\/rdr8yq",
      "short_url": "https:\/\/whvn.cc\/rdr8yq",
      "views": 516,
      "favorites": 7,
      "source": "",
      "purity": "sfw",
      "category": "general",
      "dimension_x": 1920,
      "dimension_y": 1080,
      "resolution": "1920x1080",
      "ratio": "1.78",
      "file_size": 10224271,
      "file_type": "image\/png",
      "created_at": "2021-04-03 00:57:28",
      "colors": [
        "#999999",
        "#424153",
        "#cccccc",
        "#000000",
        "#663399"
      ],
      "path": "https:\/\/w.wallhaven.cc\/full\/rd\/wallhaven-rdr8yq.png",
      "thumbs": {
        "large": "https:\/\/th.wallhaven.cc\/lg\/rd\/rdr8yq.jpg",
        "original": "https:\/\/th.wallhaven.cc\/orig\/rd\/rdr8yq.jpg",
        "small": "https:\/\/th.wallhaven.cc\/small\/rd\/rdr8yq.jpg"
      }
    },
    {
      "id": "9md12d",
      "url": "https:\/\/wallhaven.cc\/w\/9md12d",
      "short_url": "https:\/\/whvn.cc\/9md12d",
      "views": 598,
      "favorites": 25,
      "source": "",
      "purity": "sfw",
      "category": "general",
      "dimension_x": 3840,
      "dimension_y": 2160,
      "resolution": "3840x2160",
      "ratio": "1.78",
      "file_size": 697913,
      "file_type": "image\/jpeg",
      "created_at": "2021-04-03 00:53:18",
      "colors": [
        "#999999",
        "#ea4c88",
        "#cc6633",
        "#cccccc",
        "#424153"
      ],
      "path": "https:\/\/w.wallhaven.cc\/full\/9m\/wallhaven-9md12d.jpg",
      "thumbs": {
        "large": "https:\/\/th.wallhaven.cc\/lg\/9m\/9md12d.jpg",
        "original": "https:\/\/th.wallhaven.cc\/orig\/9m\/9md12d.jpg",
        "small": "https:\/\/th.wallhaven.cc\/small\/9m\/9md12d.jpg"
      }
    }
  ],
  "meta": {
    "current_page": 3,
    "last_page": 3,
    "per_page": 24,
    "total": 72,
    "query": null,
    "seed": null
  }
}
