{
  "data": [
    {
      "id": "lqjexy",
      "url": "https:\/\/wallhaven.cc\/w\/lqjexy",
      "short_url": "https:\/\/whvn.cc\/lqjexy",
      "views": 1557,
      "favorites": 10,
      "source": "",
      "purity": "sfw",
      "category": "general",
      "dimension_x": 2000,
      "dimension_y": 1335,
      "resolution": "2000x1335",
      "ratio": "1.5",
      "file_size": 524610,
      "file_type": "image\/jpeg",
      "created_at": "2017-02-09 02:55:23",
      "colors": [
        "#999999",
        "#333399",
        "#424153",
        "#996633",
        "#663399"
      ],
      "path": "https:\/\/w.wallhaven.cc\/full\/lq\/wallhaven-lqjexy.jpg",
      "thumbs": {
        "large": "https:\/\/th.wallhaven.cc\/lg\/lq\/lqjexy.jpg",
        "original": "https:\/\/th.wallhaven.cc\/orig\/lq\/lqjexy.jpg",
        "small": "https:\/\/th.wallhaven.cc\/small\/lq\/lqjexy.jpg"
      }
    },
    {
      "id": "4l816y",
      "url": "https:\/\/wallhaven.cc\/w\/4l816y",
      "short_url": "https:\/\/whvn.cc\/4l816y",
      "views": 1456,
      "favorites": 2,
      "source": "",
      "purity": "sfw",
      "category": "general",
      "dimension_x": 1600,
      "dimension_y": 1200,
      "resolution": "1600x1200",
      "ratio": "1.33",
      "file_size": 407739,
      "file_type": "image\/jpeg",
      "created_at": "2014-10-16 07:42:00",
      "colors": [
        "#cccccc",
        "#424153",
        "#000000",
        "#ffffff",
        "#999999"
      ],
      "path": "https:\/\/w.wallhaven.cc\/full\/4l\/wallhaven-4l816y.jpg",
      "thumbs": {
        "large": "https:\/\/th.wallhaven.cc\/lg\/4l\/4l816y.jpg",
        "original": "https:\/\/th.wallhaven.cc\/orig\/4l\/4l816y.jpg",
        "small": "https:\/\/th.wallhaven.cc\/small\/4l\/4l816y.jpg"
      }
    },
    {
      "id": "od7ke5",
      "url": "https:\/\/wallhaven.cc\/w\/od7ke5",
      "short_url": "https:\/\/whvn.cc\/od7ke5",
      "views": 1794,
      "favorites": 4,
      "source": "",
      "purity": "sfw",
      "category": "general",
      "dimension_x": 1920,
      "dimension_y": 1080,
      "resolution": "1920x1080",
      "ratio": "1.78",
      "file_size": 394371,
      "file_type": "image\/jpeg",
      "created_at": "2017-05-01 22:22:51",
      "colors": [
        "#000000",
        "#424153",
        "#333399",
        "#0066cc",
        "#66cccc"
      ],
      "path": "https:\/\/w.wallhaven.cc\/full\/od\/wallhaven-od7ke5.jpg",
      "thumbs": {
        "large": "https:\/\/th.wallhaven.cc\/lg\/od\/od7ke5.jpg",
        "original": "https:\/\/th.wallhaven.cc\/orig\/od\/od7ke5.jpg",
        "small": "https:\/\/th.wallhaven.cc\/small\/od\/od7ke5.jpg"
      }
    },
    {
      "id": "0q3x2d",
      "url": "https:\/\/wallhaven.cc\/w\/0q3x2d",
      "short_url": "https:\/\/whvn.cc\/0q3x2d",
      "views": 2215,
      "favorites": 8,
      "source": "",
      "purity": "sfw",
      "category": "general",
      "dimension_x": 1920,
      "dimension_y": 1080,
      "resolution": "1920x1080",
      "ratio": "1.78",
      "file_size": 536868,
      "file_type": "image\/jpeg",
      "created_at": "2014-11-25 12:55:36",
      "colors": [
        "#000000",
        "#424153",
        "#333399",
        "#999999",
        "#cccccc"
      ],
      "path": "https:\/\/w.wallhaven.cc\/full\/0q\/wallhaven-0q3x2d.jpg",
      "thumbs": {
        "large": "https:\/\/th.wallhaven.cc\/lg\/0q\/0q3x2d.jpg",
        "original": "https:\/\/th.wallhaven.cc\/orig\/0q\/0q3x2d.jpg",
        "small": "https:\/\/th.wallhaven.cc\/small\/0q\/0q3x2d.jpg"
      }
    },
    {
      "id": "j8l165",
      "url": "https:\/\/wallhaven.cc\/w\/j8l165",
      "short_url": "https:\/\/whvn.cc\/j8l165",
      "views": 921,
      "favorites": 6,
      "source": "",
      "purity": "sfw",
      "category": "general",
      "dimension_x": 1920,
      "dimension_y": 1200,
      "resolution": "1920x1200",
      "ratio": "1.6",
      "file_size": 2583687,
      "file_type": "image\/png",
      "created_at": "2017-04-02 21:48:47",
      "colors": [
        "#000000",
        "#663300",
        "#ff6600",
        "#666600",
        "#ff9900"
      ],
      "path": "https:\/\/w.wallhaven.cc\/full\/j8\/wallhaven-j8l165.png",
      "thumbs": {
        "large": "https:\/\/th.wallhaven.cc\/lg\/j8\/j8l165.jpg",
        "original": "https:\/\/th.wallhaven.cc\/orig\/j8\/j8l165.jpg",
        "small": "https:\/\/th.wallhaven.cc\/small\/j8\/j8l165.jpg"
      }
    },
    {
      "id": "dgvo23",
      "url": "https:\/\/wallhaven.cc\/w\/dgvo23",
      "short_url": "https:\/\/whvn.cc\/dgvo23",
      "views": 476,
      "favorites": 5,
      "source": "https:\/\/www.deviantart.com\/rammpatricia",
      "purity": "sfw",
      "category": "general",
      "dimension_x": 1920,
      "dimension_y": 1080,
      "resolution": "1920x1080",
      "ratio": "1.78",
      "file_size": 2772840,
      "file_type": "image\/jpeg",
      "created_at": "2019-10-23 14:36:07",
      "colors": [
        "#333399",
        "#000000",
        "#424153",
        "#0066cc",
        "#0099cc"
      ],
      "path": "https:\/\/w.wallhaven.cc\/full\/dg\/wallhaven-dgvo23.jpg",
      "thumbs": {
        "large": "https:\/\/th.wallhaven.cc\/lg\/dg\/dgvo23.jpg",
        "original": "https:\/\/th.wallhaven.cc\/orig\/dg\/dgvo23.jpg",
        "small": "https:\/\/th.wallhaven.cc\/small\/dg\/dgvo23.jpg"
      }
    },
    {
      "id": "4og6op",
      "url": "https:\/\/wallhaven.cc\/w\/4og6op",
      "short_url": "https:\/\/whvn.cc\/4og6op",
      "views": 5672,
      "favorites": 30,
      "source": "",
      "purity": "sfw",
      "category": "general",
      "dimension_x": 1920,
      "dimension_y": 1080,
      "resolution": "1920x1080",
      "ratio": "1.78",
      "file_size": 532220,
      "file_type": "image\/jpeg",
      "created_at": "2014-10-23 04:15:51",
      "colors": [
        "#999999",
        "#abbcda",
        "#424153",
        "#cccccc",
        "#996633"
      ],
      "path": "https:\/\/w.wallhaven.cc\/full\/4o\/wallhaven-4og6op.jpg",
      "thumbs": {
        "large": "https:\/\/th.wallhaven.cc\/lg\/4o\/4og6op.jpg",
        "original": "https:\/\/th.wallhaven.cc\/orig\/4o\/4og6op.jpg",
        "small": "https:\/\/th.wallhaven.cc\/small\/4o\/4og6op.jpg"
      }
    },
    {
      "id": "qdyver",
      "url": "https:\/\/wallhaven.cc\/w\/qdyver",
      "short_url": "https:\/\/whvn.cc\/qdyver",
      "views": 1934,
      "favorites": 12,
      "source": "",
      "purity": "sfw",
      "category": "general",
      "dimension_x": 2048,
      "dimension_y": 1365,
      "resolution": "2048x1365",
      "ratio": "1.5",
      "file_size": 325320,
      "file_type": "image\/jpeg",
      "created_at": "2017-12-19 03:14:54",
      "colors": [
        "#000000",
        "#663300",
        "#996633",
        "#424153",
        "#cccc33"
      ],
      "path": "https:\/\/w.wallhaven.cc\/full\/qd\/wallhaven-qdyver.jpg",
      "thumbs": {
        "large": "https:\/\/th.wallhaven.cc\/lg\/qd\/qdyver.jpg",
        "original": "https:\/\/th.wallhaven.cc\/orig\/qd\/qdyver.jpg",
        "small": "https:\/\/th.wallhaven.cc\/small\/qd\/qdyver.jpg"
      }
    },
    {
      "id": "xlewwd",
      "url": "https:\/\/wallhaven.cc\/w\/xlewwd",
      "short_url": "https:\/\/whvn.cc\/xlewwd",
      "views": 2725,
      "favorites": 14,
      "source": "",
      "purity": "sfw",
      "category": "general",
      "dimension_x": 1920,
      "dimension_y": 1200,
      "resolution": "1920x1200",
      "ratio": "1.6",
      "file_size": 276837,
      "file_type": "image\/jpeg",
      "created_at": "2019-01-30 21:50:47",
      "colors": [
        "#424153",
        "#996633",
        "#000000",
        "#999999",
        "#cccc33"
      ],
      "path": "https:\/\/w.wallhaven.cc\/full\/xl\/wallhaven-xlewwd.jpg",
      "thumbs": {
        "large": "https:\/\/th.wallhaven.cc\/lg\/xl\/xlewwd.jpg",
        "original": "https:\/\/th.wallhaven.cc\/orig\/xl\/xlewwd.jpg",
        "small": "https:\/\/th.wallhaven.cc\/small\/xl\/xlewwd.jpg"
      }
    },
    {
      "id": "96dglx",
      "url": "https:\/\/wallhaven.cc\/w\/96dglx",
      "short_url": "https:\/\/whvn.cc\/96dglx",
      "views": 4660,
      "favorites": 63,
      "source": "https:\/\/dribbble.com\/shots\/5295289-Goonies",
      "purity": "sfw",
      "category": "general",
      "dimension_x": 4637,
      "dimension_y": 1935,
      "resolution": "4637x1935",
      "ratio": "2.4",
      "file_size": 3876693,
      "file_type": "image\/png",
      "created_at": "2018-12-19 13:47:01",
      "colors": [
        "#424153",
        "#999999",
        "#e7d8b1",
        "#ea4c88",
        "#cccccc"
      ],
      "path": "https:\/\/w.wallhaven.cc\/full\/96\/wallhaven-96dglx.png",
      "thumbs": {
        "large": "https:\/\/th.wallhaven.cc\/lg\/96\/96dglx.jpg",
        "original": "https:\/\/th.wallhaven.cc\/orig\/96\/96dglx.jpg",
        "small": "https:\/\/th.wallhaven.cc\/small\/96\/96dglx.jpg"
      }
    },
    {
      "id": "4dpvrg",
      "url": "https:\/\/wallhaven.cc\/w\/4dpvrg",
      "short_url": "https:\/\/whvn.cc\/4dpvrg",
      "views": 2690,
      "favorites": 14,
      "source": "",
      "purity": "sfw",
      "category": "general",
      "dimension_x": 1920,
      "dimension_y": 1080,
      "resolution": "1920x1080",
      "ratio": "1.78",
      "file_size": 226599,
      "file_type": "image\/jpeg",
      "created_at": "2014-10-02 00:10:30",
      "colors": [
        "#000000",
        "#424153",
        "#999999",
        "#abbcda",
        "#663399"
      ],
      "path": "https:\/\/w.wallhaven.cc\/full\/4d\/wallhaven-4dpvrg.jpg",
      "thumbs": {
        "large": "https:\/\/th.wallhaven.cc\/lg\/4d\/4dpvrg.jpg",
        "original": "https:\/\/th.wallhaven.cc\/orig\/4d\/4dpvrg.jpg",
        "small": "https:\/\/th.wallhaven.cc\/small\/4d\/4dpvrg.jpg"
      }
    },
    {
      "id": "0jg7vq",
      "url": "https:\/\/wallhaven.cc\/w\/0jg7vq",
      "short_url": "https:\/\/whvn.cc\/0jg7vq",
      "views": 3336,
      "favorites": 10,
      "source": "",
      "purity": "sfw",
      "category": "general",
      "dimension_x": 1920,
      "dimension_y": 1440,
      "resolution": "1920x1440",
      "ratio": "1.33",
      "file_size": 607163,
      "file_type": "image\/jpeg",
      "created_at": "2015-11-16 21:42:50",
      "colors": [
        "#000000",
        "#424153",
        "#333399",
        "#999999",
        "#cc6633"
      ],
      "path": "https:\/\/w.wallhaven.cc\/full\/0j\/wallhaven-0jg7vq.jpg",
      "thumbs": {
        "large": "https:\/\/th.wallhaven.cc\/lg\/0j\/0jg7vq.jpg",
        "original": "https:\/\/th.wallhaven.cc\/orig\/0j\/0jg7vq.jpg",
        "small": "https:\/\/th.wallhaven.cc\/small\/0j\/0jg7vq.jpg"
      }
    },
    {
      "id": "0wx2jp",
      "url": "https:\/\/wallhaven.cc\/w\/0wx2jp",
      "short_url": "https:\/\/whvn.cc\/0wx2jp",
      "views": 8885,
      "favorites": 5,
      "source": "",
      "purity": "sfw",
      "category": "general",
      "dimension_x": 3200,
      "dimension_y": 1800,
      "resolution": "3200x1800",
      "ratio": "1.78",
      "file_size": 1307214,
      "file_type": "image\/jpeg",
      "created_at": "2015-02-16 19:15:18",
      "colors": [
        "#996633",
        "#cc6633",
        "#663300",
        "#660000",
        "#990000"
      ],
      "path": "https:\/\/w.wallhaven.cc\/full\/0w\/wallhaven-0wx2jp.jpg",
      "thumbs": {
        "large": "https:\/\/th.wallhaven.cc\/lg\/0w\/0wx2jp.jpg",
        "original": "https:\/\/th.wallhaven.cc\/orig\/0w\/0wx2jp.jpg",
        "small": "https:\/\/th.wallhaven.cc\/small\/0w\/0wx2jp.jpg"
      }
    },
    {
      "id": "k91m3m",
      "url": "https:\/\/wallhaven.cc\/w\/k91m3m",
      "short_url": "https:\/\/whvn.cc\/k91m3m",
      "views": 884,
      "favorites": 4,
      "source": "",
      "purity": "sfw",
      "category": "general",
      "dimension_x": 2048,
      "dimension_y": 1463,
      "resolution": "2048x1463",
      "ratio": "1.4",
      "file_size": 365140,
      "file_type": "image\/jpeg",
      "created_at": "2016-10-07 18:21:48",
      "colors": [
        "#000000",
        "#424153",
        "#336600",
        "#996633",
        "#999999"
      ],
      "path": "https:\/\/w.wallhaven.cc\/full\/k9\/wallhaven-k91m3m.jpg",
      "thumbs": {
        "large": "https:\/\/th.wallhaven.cc\/lg\/k9\/k91m3m.jpg",
        "original": "https:\/\/th.wallhaven.cc\/orig\/k9\/k91m3m.jpg",
        "small": "https:\/\/th.wallhaven.cc\/small\/k9\/k91m3m.jpg"
      }
    },
    {
      "id": "0jwddw",
      "url": "https:\/\/wallhaven.cc\/w\/0jwddw",
      "short_url": "https:\/\/whvn.cc\/0jwddw",
      "views": 4003,
      "favorites": 11,
      "source": "",
      "purity": "sfw",
      "category": "general",
      "dimension_x": 1920,
      "dimension_y": 1080,
      "resolution": "1920x1080",
      "ratio": "1.78",
      "file_size": 3931881,
      "file_type": "image\/png",
      "created_at": "2014-11-05 10:36:12",
      "colors": [
        "#000000",
        "#424153",
        "#cccccc",
        "#999999",
        "#663300"
      ],
      "path": "https:\/\/w.wallhaven.cc\/full\/0j\/wallhaven-0jwddw.png",
      "thumbs": {
        "large": "https:\/\/th.wallhaven.cc\/lg\/0j\/0jwddw.jpg",
        "original": "https:\/\/th.wallhaven.cc\/orig\/0j\/0jwddw.jpg",
        "small": "https:\/\/th.wallhaven.cc\/small\/0j\/0jwddw.jpg"
      }
    },
    {
      "id": "kwoj9q",
      "url": "https:\/\/wallhaven.cc\/w\/kwoj9q",
      "short_url": "https:\/\/whvn.cc\/kwoj9q",
      "views": 447,
      "favorites": 2,
      "source": "https:\/\/www.cartoonnetwork.com\/backgrounds\/",
      "purity": "sfw",
      "category": "general",
      "dimension_x": 1920,
      "dimension_y": 1080,
      "resolution": "1920x1080",
      "ratio": "1.78",
      "file_size": 1291561,
      "file_type": "image\/jpeg",
      "created_at": "2020-07-14 12:51:53",
      "colors": [
        "#e7d8b1",
        "#cccccc",
        "#ffffff",
        "#66cccc",
        "#cc6633"
      ],
      "path": "https:\/\/w.wallhaven.cc\/full\/kw\/wallhaven-kwoj9q.jpg",
      "thumbs": {
        "large": "https:\/\/th.wallhaven.cc\/lg\/kw\/kwoj9q.jpg",
        "original": "https:\/\/th.wallhaven.cc\/orig\/kw\/kwoj9q.jpg",
        "small": "https:\/\/th.wallhaven.cc\/small\/kw\/kwoj9q.jpg"
      }
    },
    {
      "id": "ne3r9w",
      "url": "https:\/\/wallhaven.cc\/w\/ne3r9w",
      "short_url": "https:\/\/whvn.cc\/ne3r9w",
      "views": 2659,
      "favorites": 4,
      "source": "http:\/\/novaflux.deviantart.com\/",
      "purity": "sfw",
      "category": "general",
      "dimension_x": 1920,
      "dimension_y": 1080,
      "resolution": "1920x1080",
      "ratio": "1.78",
      "file_size": 378832,
      "file_type": "image\/jpeg",
      "created_at": "2014-11-06 03:57:02",
      "colors": [
        "#000000",
        "#424153",
        "#333399",
        "#999999",
        "#cccccc"
      ],
      "path": "https:\/\/w.wallhaven.cc\/full\/ne\/wallhaven-ne3r9w.jpg",
      "thumbs": {
        "large": "https:\/\/th.wallhaven.cc\/lg\/ne\/ne3r9w.jpg",
        "original": "https:\/\/th.wallhaven.cc\/orig\/ne\/ne3r9w.jpg",
        "small": "https:\/\/th.wallhaven.cc\/small\/ne\/ne3r9w.jpg"
      }
    },
    {
      "id": "nk6l8m",
      "url": "https:\/\/wallhaven.cc\/w\/nk6l8m",
      "short_url": "https:\/\/whvn.cc\/nk6l8m",
      "views": 2377,
      "favorites": 9,
      "source": "",
      "purity": "sfw",
      "category": "general",
      "dimension_x": 1920,
      "dimension_y": 1200,
      "resolution": "1920x1200",
      "ratio": "1.6",
      "file_size": 133235,
      "file_type": "image\/jpeg",
      "created_at": "2015-05-29 04:07:20",
      "colors": [
        "#ffffff",
        "#cccccc",
        "#999999",
        "#424153",
        "#000000"
      ],
      "path": "https:\/\/w.wallhaven.cc\/full\/nk\/wallhaven-nk6l8m.jpg",
      "thumbs": {
        "large": "https:\/\/th.wallhaven.cc\/lg\/nk\/nk6l8m.jpg",
        "original": "https:\/\/th.wallhaven.cc\/orig\/nk\/nk6l8m.jpg",
        "small": "https:\/\/th.wallhaven.cc\/small\/nk\/nk6l8m.jpg"
      }
    },
    {
      "id": "m9de71",
      "url": "https:\/\/wallhaven.cc\/w\/m9de71",
      "short_url": "https:\/\/whvn.cc\/m9de71",
      "views": 822,
      "favorites": 12,
      "source": "https:\/\/www.artstation.com\/artwork\/DxgD30",
      "purity": "sfw",
      "category": "general",
      "dimension_x": 1595,
      "dimension_y": 2315,
      "resolution": "1595x2315",
      "ratio": "0.69",
      "file_size": 817204,
      "file_type": "image\/jpeg",
      "created_at": "2021-01-26 05:53:34",
      "colors": [
        "#424153",
        "#000000",
        "#660000",
        "#663300",
        "#996633"
      ],
      "path": "https:\/\/w.wallhaven.cc\/full\/m9\/wallhaven-m9de71.jpg",
      "thumbs": {
        "large": "https:\/\/th.wallhaven.cc\/lg\/m9\/m9de71.jpg",
        "original": "https:\/\/th.wallhaven.cc\/orig\/m9\/m9de71.jpg",
        "small": "https:\/\/th.wallhaven.cc\/small\/m9\/m9de71.jpg"
      }
    },
    {
      "id": "vmgvxp",
      "url": "https:\/\/wallhaven.cc\/w\/vmgvxp",
      "short_url": "https:\/\/whvn.cc\/vmgvxp",
      "views": 1759,
      "favorites": 23,
      "source": "https:\/\/www.artstation.com\/artist\/leekent",
      "purity": "sfw",
      "category": "general",
      "dimension_x": 1920,
      "dimension_y": 3220,
      "resolution": "1920x3220",
      "ratio": "0.6",
      "file_size": 748144,
      "file_type": "image\/jpeg",
      "created_at": "2016-04-22 18:49:20",
      "colors": [
        "#424153",
        "#999999",
        "#000000",
        "#996633",
        "#cccccc"
      ],
      "path": "https:\/\/w.wallhaven.cc\/full\/vm\/wallhaven-vmgvxp.jpg",
      "thumbs": {
        "large": "https:\/\/th.wallhaven.cc\/lg\/vm\/vmgvxp.jpg",
        "original": "https:\/\/th.wallhaven.cc\/orig\/vm\/vmgvxp.jpg",
        "small": "https:\/\/th.wallhaven.cc\/small\/vm\/vmgvxp.jpg"
      }
    },
    {
      "id": "nee7zr",
      "url": "https:\/\/wallhaven.cc\/w\/nee7zr",
      "short_url": "https:\/\/whvn.cc\/nee7zr",
      "views": 3031,
      "favorites": 37,
      "source": "",
      "purity": "sfw",
      "category": "general",
      "dimension_x": 1920,
      "dimension_y": 1200,
      "resolution": "1920x1200",
      "ratio": "1.6",
      "file_size": 530478,
      "file_type": "image\/jpeg",
      "created_at": "2014-11-30 04:30:53",
      "colors": [
        "#000000",
        "#424153",
        "#333399",
        "#0066cc",
        "#66cccc"
      ],
      "path": "https:\/\/w.wallhaven.cc\/full\/ne\/wallhaven-nee7zr.jpg",
      "thumbs": {
        "large": "https:\/\/th.wallhaven.cc\/lg\/ne\/nee7zr.jpg",
        "original": "https:\/\/th.wallhaven.cc\/orig\/ne\/nee7zr.jpg",
        "small": "https:\/\/th.wallhaven.cc\/small\/ne\/nee7zr.jpg"
      }
    },
    {
      "id": "4xxl5z",
      "url": "https:\/\/wallhaven.cc\/w\/4xxl5z",
      "short_url": "https:\/\/whvn.cc\/4xxl5z",
      "views": 2392,
      "favorites": 13,
      "source": "",
      "purity": "sfw",
      "category": "general",
      "dimension_x": 2560,
      "dimension_y": 1600,
      "resolution": "2560x1600",
      "ratio": "1.6",
      "file_size": 452619,
      "file_type": "image\/jpeg",
      "created_at": "2016-01-13 14:49:32",
      "colors": [
        "#66cccc",
        "#0066cc",
        "#abbcda",
        "#0099cc",
        "#ffffff"
      ],
      "path": "https:\/\/w.wallhaven.cc\/full\/4x\/wallhaven-4xxl5z.jpg",
      "thumbs": {
        "large": "https:\/\/th.wallhaven.cc\/lg\/4x\/4xxl5z.jpg",
        "original": "https:\/\/th.wallhaven.cc\/orig\/4x\/4xxl5z.jpg",
        "small": "https:\/\/th.wallhaven.cc\/small\/4x\/4xxl5z.jpg"
      }
    },
    {
      "id": "1jk231",
      "url": "https:\/\/wallhaven.cc\/w\/1jk231",
      "short_url": "https:\/\/whvn.cc\/1jk231",
      "views": 2531,
      "favorites": 8,
      "source": "",
      "purity": "sfw",
      "category": "general",
      "dimension_x": 1500,
      "dimension_y": 1500,
      "resolution": "1500x1500",
      "ratio": "1",
      "file_size": 182981,
      "file_type": "image\/jpeg",
      "created_at": "2016-05-23 19:06:19",
      "colors": [
        "#000000",
        "#424153",
        "#996633",
        "#336600",
        "#999999"
      ],
      "path": "https:\/\/w.wallhaven.cc\/full\/1j\/wallhaven-1jk231.jpg",
      "thumbs": {
        "large": "https:\/\/th.wallhaven.cc\/lg\/1j\/1jk231.jpg",
        "original": "https:\/\/th.wallhaven.cc\/orig\/1j\/1jk231.jpg",
        "small": "https:\/\/th.wallhaven.cc\/small\/1j\/1jk231.jpg"
      }
    },
    {
      "id": "ymmzj7",
      "url": "https:\/\/wallhaven.cc\/w\/ymmzj7",
      "short_url": "https:\/\/whvn.cc\/ymmzj7",
      "views": 2202,
      "favorites": 15,
      "source": "",
      "purity": "sfw",
      "category": "general",
      "dimension_x": 1920,
      "dimension_y": 1080,
      "resolution": "1920x1080",
      "ratio": "1.78",
      "file_size": 795607,
      "file_type": "image\/jpeg",
      "created_at": "2018-10-14 17:37:56",
      "colors": [
        "#424153",
        "#996633",
        "#000000",
        "#993399",
        "#663399"
      ],
      "path": "https:\/\/w.wallhaven.cc\/full\/ym\/wallhaven-ymmzj7.jpg",
      "thumbs": {
        "large": "https:\/\/th.wallhaven.cc\/lg\/ym\/ymmzj7.jpg",
        "original": "https:\/\/th.wallhaven.cc\/orig\/ym\/ymmzj7.jpg",
        "small": "https:\/\/th.wallhaven.cc\/small\/ym\/ymmzj7.jpg"
      }
    }
  ],
  "meta": {
    "current_page": 3,
    "last_page": 3,
    "per_page": 24,
    "total": 72,
    "query": null,
    "seed": "abc123"
  }
}
