{
  "data": [
    {
      "id": "nko96m",
      "url": "https:\/\/wallhaven.cc\/w\/nko96m",
      "short_url": "https:\/\/whvn.cc\/nko96m",
      "views": 1998,
      "favorites": 6,
      "source": "https:\/\/500px.com\/photo\/44561852\/resurrection-by-marsel-van-oosten",
      "purity": "sfw",
      "category": "general",
      "dimension_x": 2560,
      "dimension_y": 1703,
      "resolution": "2560x1703",
      "ratio": "1.5",
      "file_size": 229957,
      "file_type": "image\/jpeg",
      "created_at": "2015-10-26 12:17:47",
      "colors": [
        "#999999",
        "#663399",
        "#424153",
        "#66cccc",
        "#333399"
      ],
      "path": "https:\/\/w.wallhaven.cc\/full\/nk\/wallhaven-nko96m.jpg",
      "thumbs": {
        "large": "https:\/\/th.wallhaven.cc\/lg\/nk\/nko96m.jpg",
        "original": "https:\/\/th.wallhaven.cc\/orig\/nk\/nko96m.jpg",
        "small": "https:\/\/th.wallhaven.cc\/small\/nk\/nko96m.jpg"
      }
    },
    {
      "id": "839xmk",
      "url": "https:\/\/wallhaven.cc\/w\/839xmk",
      "short_url": "https:\/\/whvn.cc\/839xmk",
      "views": 1397,
      "favorites": 5,
      "source": "",
      "purity": "sfw",
      "category": "general",
      "dimension_x": 4032,
      "dimension_y": 3024,
      "resolution": "4032x3024",
      "ratio": "1.33",
      "file_size": 2849934,
      "file_type": "image\/jpeg",
      "created_at": "2019-08-05 20:29:44",
      "colors": [
        "#000000",
        "#999999",
        "#424153",
        "#cccccc",
        "#ffffff"
      ],
      "path": "https:\/\/w.wallhaven.cc\/full\/83\/wallhaven-839xmk.jpg",
      "thumbs": {
        "large": "https:\/\/th.wallhaven.cc\/lg\/83\/839xmk.jpg",
        "original": "https:\/\/th.wallhaven.cc\/orig\/83\/839xmk.jpg",
        "small": "https:\/\/th.wallhaven.cc\/small\/83\/839xmk.jpg"
      }
    },
    {
      "id": "n695gw",
      "url": "https:\/\/wallhaven.cc\/w\/n695gw",
      "short_url": "https:\/\/whvn.cc\/n695gw",
      "views": 2283,
      "favorites": 11,
      "source": "",
      "purity": "sfw",
      "category": "general",
      "dimension_x": 1920,
      "dimension_y": 1200,
      "resolution": "1920x1200",
      "ratio": "1.6",
      "file_size": 372070,
      "file_type": "image\/jpeg",
      "created_at": "2016-01-20 00:18:14",
      "colors": [
        "#0066cc",
        "#333399",
        "#424153",
        "#999999",
        "#e7d8b1"
      ],
      "path": "https:\/\/w.wallhaven.cc\/full\/n6\/wallhaven-n695gw.jpg",
      "thumbs": {
        "large": "https:\/\/th.wallhaven.cc\/lg\/n6\/n695gw.jpg",
        "original": "https:\/\/th.wallhaven.cc\/orig\/n6\/n695gw.jpg",
        "small": "https:\/\/th.wallhaven.cc\/small\/n6\/n695gw.jpg"
      }
    },
    {
      "id": "g8eq3d",
      "url": "https:\/\/wallhaven.cc\/w\/g8eq3d",
      "short_url": "https:\/\/whvn.cc\/g8eq3d",
      "views": 2901,
      "favorites": 37,
      "source": "https:\/\/www.deviantart.com\/joeyjazz\/art\/In-the-Spotlight-844353630",
      "purity": "sfw",
      "category": "general",
      "dimension_x": 2560,
      "dimension_y": 1440,
      "resolution": "2560x1440",
      "ratio": "1.78",
      "file_size": 1469569,
      "file_type": "image\/jpeg",
      "created_at": "2020-06-04 13:53:00",
      "colors": [
        "#999999",
        "#424153",
        "#abbcda",
        "#cccccc",
        "#000000"
      ],
      "path": "https:\/\/w.wallhaven.cc\/full\/g8\/wallhaven-g8eq3d.jpg",
      "thumbs": {
        "large": "https:\/\/th.wallhaven.cc\/lg\/g8\/g8eq3d.jpg",
        "original": "https:\/\/th.wallhaven.cc\/orig\/g8\/g8eq3d.jpg",
        "small": "https:\/\/th.wallhaven.cc\/small\/g8\/g8eq3d.jpg"
      }
    },
    {
      "id": "w85m2x",
      "url": "https:\/\/wallhaven.cc\/w\/w85m2x",
      "short_url": "https:\/\/whvn.cc\/w85m2x",
      "views": 4358,
      "favorites": 4,
      "source": "",
      "purity": "sfw",
      "category": "general",
      "dimension_x": 1920,
      "dimension_y": 1200,
      "resolution": "1920x1200",
      "ratio": "1.6",
      "file_size": 493165,
      "file_type": "image\/png",
      "created_at": "2016-07-04 23:54:48",
      "colors": [
        "#999999",
        "#663399",
        "#424153",
        "#cccccc",
        "#996633"
      ],
      "path": "https:\/\/w.wallhaven.cc\/full\/w8\/wallhaven-w85m2x.png",
      "thumbs": {
        "large": "https:\/\/th.wallhaven.cc\/lg\/w8\/w85m2x.jpg",
        "original": "https:\/\/th.wallhaven.cc\/orig\/w8\/w85m2x.jpg",
        "small": "https:\/\/th.wallhaven.cc\/small\/w8\/w85m2x.jpg"
      }
    },
    {
      "id": "763759",
      "url": "https:\/\/wallhaven.cc\/w\/763759",
      "short_url": "https:\/\/whvn.cc\/763759",
      "views": 2020,
      "favorites": 13,
      "source": "",
      "purity": "sfw",
      "category": "general",
      "dimension_x": 4604,
      "dimension_y": 3453,
      "resolution": "4604x3453",
      "ratio": "1.33",
      "file_size": 1371891,
      "file_type": "image\/jpeg",
      "created_at": "2016-04-26 21:44:36",
      "colors": [
        "#000000",
        "#424153",
        "#663300",
        "#996633",
        "#999999"
      ],
      "path": "https:\/\/w.wallhaven.cc\/full\/76\/wallhaven-763759.jpg",
      "thumbs": {
        "large": "https:\/\/th.wallhaven.cc\/lg\/76\/763759.jpg",
        "original": "https:\/\/th.wallhaven.cc\/orig\/76\/763759.jpg",
        "small": "https:\/\/th.wallhaven.cc\/small\/76\/763759.jpg"
      }
    },
    {
      "id": "726voy",
      "url": "https:\/\/wallhaven.cc\/w\/726voy",
      "short_url": "https:\/\/whvn.cc\/726voy",
      "views": 963,
      "favorites": 2,
      "source": "",
      "purity": "sfw",
      "category": "general",
      "dimension_x": 1920,
      "dimension_y": 1080,
      "resolution": "1920x1080",
      "ratio": "1.78",
      "file_size": 332137,
      "file_type": "image\/jpeg",
      "created_at": "2020-12-24 04:43:09",
      "colors": [
        "#000000",
        "#424153",
        "#663300",
        "#996633",
        "#999999"
      ],
      "path": "https:\/\/w.wallhaven.cc\/full\/72\/wallhaven-726voy.jpg",
      "thumbs": {
        "large": "https:\/\/th.wallhaven.cc\/lg\/72\/726voy.jpg",
        "original": "https:\/\/th.wallhaven.cc\/orig\/72\/726voy.jpg",
        "small": "https:\/\/th.wallhaven.cc\/small\/72\/726voy.jpg"
      }
    },
    {
      "id": "1jlle3",
      "url": "https:\/\/wallhaven.cc\/w\/1jlle3",
      "short_url": "https:\/\/whvn.cc\/1jlle3",
      "views": 2529,
      "favorites": 22,
      "source": "",
      "purity": "sfw",
      "category": "general",
      "dimension_x": 1920,
      "dimension_y": 1080,
      "resolution": "1920x1080",
      "ratio": "1.78",
      "file_size": 1506754,
      "file_type": "image\/jpeg",
      "created_at": "2017-05-26 18:26:42",
      "colors": [
        "#424153",
        "#000000",
        "#663300",
        "#333399",
        "#66cccc"
      ],
      "path": "https:\/\/w.wallhaven.cc\/full\/1j\/wallhaven-1jlle3.jpg",
      "thumbs": {
        "large": "https:\/\/th.wallhaven.cc\/lg\/1j\/1jlle3.jpg",
        "original": "https:\/\/th.wallhaven.cc\/orig\/1j\/1jlle3.jpg",
        "small": "https:\/\/th.wallhaven.cc\/small\/1j\/1jlle3.jpg"
      }
    },
    {
      "id": "wyg13r",
      "url": "https:\/\/wallhaven.cc\/w\/wyg13r",
      "short_url": "https:\/\/whvn.cc\/wyg13r",
      "views": 1985,
      "favorites": 27,
      "source": "https:\/\/www.deviantart.com\/quethu\/art\/Sunset-837892324",
      "purity": "sfw",
      "category": "general",
      "dimension_x": 3000,
      "dimension_y": 2055,
      "resolution": "3000x2055",
      "ratio": "1.46",
      "file_size": 2089726,
      "file_type": "image\/jpeg",
      "created_at": "2020-05-02 19:26:56",
      "colors": [
        "#333399",
        "#999999",
        "#663399",
        "#fdadc7",
        "#e7d8b1"
      ],
      "path": "https:\/\/w.wallhaven.cc\/full\/wy\/wallhaven-wyg13r.jpg",
      "thumbs": {
        "large": "https:\/\/th.wallhaven.cc\/lg\/wy\/wyg13r.jpg",
        "original": "https:\/\/th.wallhaven.cc\/orig\/wy\/wyg13r.jpg",
        "small": "https:\/\/th.wallhaven.cc\/small\/wy\/wyg13r.jpg"
      }
    },
    {
      "id": "3kwj96",
      "url": "https:\/\/wallhaven.cc\/w\/3kwj96",
      "short_url": "https:\/\/whvn.cc\/3kwj96",
      "views": 1421,
      "favorites": 12,
      "source": "",
      "purity": "sfw",
      "category": "general",
      "dimension_x": 1920,
      "dimension_y": 1268,
      "resolution": "1920x1268",
      "ratio": "1.51",
      "file_size": 654458,
      "file_type": "image\/jpeg",
      "created_at": "2016-09-27 19:14:11",
      "colors": [
        "#424153",
        "#000000",
        "#996633",
        "#663300",
        "#cc6633"
      ],
      "path": "https:\/\/w.wallhaven.cc\/full\/3k\/wallhaven-3kwj96.jpg",
      "thumbs": {
        "large": "https:\/\/th.wallhaven.cc\/lg\/3k\/3kwj96.jpg",
        "original": "https:\/\/th.wallhaven.cc\/orig\/3k\/3kwj96.jpg",
        "small": "https:\/\/th.wallhaven.cc\/small\/3k\/3kwj96.jpg"
      }
    },
    {
      "id": "nexo7r",
      "url": "https:\/\/wallhaven.cc\/w\/nexo7r",
      "short_url": "https:\/\/whvn.cc\/nexo7r",
      "views": 4480,
      "favorites": 4,
      "source": "",
      "purity": "sfw",
      "category": "general",
      "dimension_x": 1920,
      "dimension_y": 1080,
      "resolution": "1920x1080",
      "ratio": "1.78",
      "file_size": 3535685,
      "file_type": "image\/png",
      "created_at": "2014-10-07 00:54:38",
      "colors": [
        "#000000",
        "#424153",
        "#999999",
        "#abbcda",
        "#996633"
      ],
      "path": "https:\/\/w.wallhaven.cc\/full\/ne\/wallhaven-nexo7r.png",
      "thumbs": {
        "large": "https:\/\/th.wallhaven.cc\/lg\/ne\/nexo7r.jpg",
        "original": "https:\/\/th.wallhaven.cc\/orig\/ne\/nexo7r.jpg",
        "small": "https:\/\/th.wallhaven.cc\/small\/ne\/nexo7r.jpg"
      }
    },
    {
      "id": "01eejw",
      "url": "https:\/\/wallhaven.cc\/w\/01eejw",
      "short_url": "https:\/\/whvn.cc\/01eejw",
      "views": 2089,
      "favorites": 9,
      "source": "",
      "purity": "sfw",
      "category": "general",
      "dimension_x": 1920,
      "dimension_y": 1080,
      "resolution": "1920x1080",
      "ratio": "1.78",
      "file_size": 451233,
      "file_type": "image\/jpeg",
      "created_at": "2015-07-06 12:38:28",
      "colors": [
        "#cccccc",
        "#999999",
        "#660000",
        "#000000",
        "#abbcda"
      ],
      "path": "https:\/\/w.wallhaven.cc\/full\/01\/wallhaven-01eejw.jpg",
      "thumbs": {
        "large": "https:\/\/th.wallhaven.cc\/lg\/01\/01eejw.jpg",
        "original": "https:\/\/th.wallhaven.cc\/orig\/01\/01eejw.jpg",
        "small": "https:\/\/th.wallhaven.cc\/small\/01\/01eejw.jpg"
      }
    },
    {
      "id": "v9qxqm",
      "url": "https:\/\/wallhaven.cc\/w\/v9qxqm",
      "short_url": "https:\/\/whvn.cc\/v9qxqm",
      "views": 2307,
      "favorites": 23,
      "source": "https:\/\/zloizloizloi.tumblr.com\/",
      "purity": "sfw",
      "category": "general",
      "dimension_x": 3840,
      "dimension_y": 2160,
      "resolution": "3840x2160",
      "ratio": "1.78",
      "file_size": 8143783,
      "file_type": "image\/png",
      "created_at": "2021-03-07 14:46:44",
      "colors": [
        "#000000",
        "#ffffff",
        "#424153",
        "#cc0000",
        "#cccccc"
      ],
      "path": "https:\/\/w.wallhaven.cc\/full\/v9\/wallhaven-v9qxqm.png",
      "thumbs": {
        "large": "https:\/\/th.wallhaven.cc\/lg\/v9\/v9qxqm.jpg",
        "original": "https:\/\/th.wallhaven.cc\/orig\/v9\/v9qxqm.jpg",
        "small": "https:\/\/th.wallhaven.cc\/small\/v9\/v9qxqm.jpg"
      }
    },
    {
      "id": "r2qvy7",
      "url": "https:\/\/wallhaven.cc\/w\/r2qvy7",
      "short_url": "https:\/\/whvn.cc\/r2qvy7",
      "views": 801,
      "favorites": 2,
      "source": "",
      "purity": "sfw",
      "category": "general",
      "dimension_x": 1920,
      "dimension_y": 1080,
      "resolution": "1920x1080",
      "ratio": "1.78",
      "file_size": 630262,
      "file_type": "image\/jpeg",
      "created_at": "2019-02-16 18:26:43",
      "colors": [
        "#000000",
        "#424153",
        "#336600",
        "#999999",
        "#77cc33"
      ],
      "path": "https:\/\/w.wallhaven.cc\/full\/r2\/wallhaven-r2qvy7.jpg",
      "thumbs": {
        "large": "https:\/\/th.wallhaven.cc\/lg\/r2\/r2qvy7.jpg",
        "original": "https:\/\/th.wallhaven.cc\/orig\/r2\/r2qvy7.jpg",
        "small": "https:\/\/th.wallhaven.cc\/small\/r2\/r2qvy7.jpg"
      }
    },
    {
      "id": "r7mvmj",
      "url": "https:\/\/wallhaven.cc\/w\/r7mvmj",
      "short_url": "https:\/\/whvn.cc\/r7mvmj",
      "views": 1042,
      "favorites": 8,
      "source": "",
      "purity": "sfw",
      "category": "general",
      "dimension_x": 1600,
      "dimension_y": 1200,
      "resolution": "1600x1200",
      "ratio": "1.33",
      "file_size": 368384,
      "file_type": "image\/jpeg",
      "created_at": "2018-03-20 04:53:25",
      "colors": [
        "#999999",
        "#424153",
        "#000000",
        "#cccccc",
        "#ffffff"
      ],
      "path": "https:\/\/w.wallhaven.cc\/full\/r7\/wallhaven-r7mvmj.jpg",
      "thumbs": {
        "large": "https:\/\/th.wallhaven.cc\/lg\/r7\/r7mvmj.jpg",
        "original": "https:\/\/th.wallhaven.cc\/orig\/r7\/r7mvmj.jpg",
        "small": "https:\/\/th.wallhaven.cc\/small\/r7\/r7mvmj.jpg"
      }
    },
    {
      "id": "w8v7jq",
      "url": "https:\/\/wallhaven.cc\/w\/w8v7jq",
      "short_url": "https:\/\/whvn.cc\/w8v7jq",
      "views": 1431,
      "favorites": 4,
      "source": "",
      "purity": "sfw",
      "category": "general",
      "dimension_x": 1920,
      "dimension_y": 1200,
      "resolution": "1920x1200",
      "ratio": "1.6",
      "file_size": 1423339,
      "file_type": "image\/png",
      "created_at": "2017-07-11 21:09:38",
      "colors": [
        "#660000",
        "#cc3333",
        "#cc6633",
        "#424153",
        "#ffffff"
      ],
      "path": "https:\/\/w.wallhaven.cc\/full\/w8\/wallhaven-w8v7jq.png",
      "thumbs": {
        "large": "https:\/\/th.wallhaven.cc\/lg\/w8\/w8v7jq.jpg",
        "original": "https:\/\/th.wallhaven.cc\/orig\/w8\/w8v7jq.jpg",
        "small": "https:\/\/th.wallhaven.cc\/small\/w8\/w8v7jq.jpg"
      }
    },
    {
      "id": "yjg29g",
      "url": "https:\/\/wallhaven.cc\/w\/yjg29g",
      "short_url": "https:\/\/whvn.cc\/yjg29g",
      "views": 1823,
      "favorites": 12,
      "source": "",
      "purity": "sfw",
      "category": "general",
      "dimension_x": 2560,
      "dimension_y": 1600,
      "resolution": "2560x1600",
      "ratio": "1.6",
      "file_size": 436253,
      "file_type": "image\/jpeg",
      "created_at": "2016-10-23 10:49:41",
      "colors": [
        "#000000",
        "#424153",
        "#663300",
        "#996633",
        "#cc3333"
      ],
      "path": "https:\/\/w.wallhaven.cc\/full\/yj\/wallhaven-yjg29g.jpg",
      "thumbs": {
        "large": "https:\/\/th.wallhaven.cc\/lg\/yj\/yjg29g.jpg",
        "original": "https:\/\/th.wallhaven.cc\/orig\/yj\/yjg29g.jpg",
        "small": "https:\/\/th.wallhaven.cc\/small\/yj\/yjg29g.jpg"
      }
    },
    {
      "id": "57wk87",
      "url": "https:\/\/wallhaven.cc\/w\/57wk87",
      "short_url": "https:\/\/whvn.cc\/57wk87",
      "views": 1337,
      "favorites": 8,
      "source": "",
      "purity": "sfw",
      "category": "general",
      "dimension_x": 6000,
      "dimension_y": 3376,
      "resolution": "6000x3376",
      "ratio": "1.78",
      "file_size": 8068809,
      "file_type": "image\/jpeg",
      "created_at": "2021-01-12 21:05:27",
      "colors": [
        "#424153",
        "#999999",
        "#cccccc",
        "#abbcda",
        "#ffffff"
      ],
      "path": "https:\/\/w.wallhaven.cc\/full\/57\/wallhaven-57wk87.jpg",
      "thumbs": {
        "large": "https:\/\/th.wallhaven.cc\/lg\/57\/57wk87.jpg",
        "original": "https:\/\/th.wallhaven.cc\/orig\/57\/57wk87.jpg",
        "small": "https:\/\/th.wallhaven.cc\/small\/57\/57wk87.jpg"
      }
    },
    {
      "id": "8xyj8o",
      "url": "https:\/\/wallhaven.cc\/w\/8xyj8o",
      "short_url": "https:\/\/whvn.cc\/8xyj8o",
      "views": 1504,
      "favorites": 8,
      "source": "",
      "purity": "sfw",
      "category": "general",
      "dimension_x": 4316,
      "dimension_y": 5000,
      "resolution": "4316x5000",
      "ratio": "0.86",
      "file_size": 8845057,
      "file_type": "image\/jpeg",
      "created_at": "2017-12-15 22:06:23",
      "colors": [
        "#000000",
        "#424153",
        "#ffcc33",
        "#663300",
        "#996633"
      ],
      "path": "https:\/\/w.wallhaven.cc\/full\/8x\/wallhaven-8xyj8o.jpg",
      "thumbs": {
        "large": "https:\/\/th.wallhaven.cc\/lg\/8x\/8xyj8o.jpg",
        "original": "https:\/\/th.wallhaven.cc\/orig\/8x\/8xyj8o.jpg",
        "small": "https:\/\/th.wallhaven.cc\/small\/8x\/8xyj8o.jpg"
      }
    },
    {
      "id": "lmr7dy",
      "url": "https:\/\/wallhaven.cc\/w\/lmr7dy",
      "short_url": "https:\/\/whvn.cc\/lmr7dy",
      "views": 2307,
      "favorites": 16,
      "source": "",
      "purity": "sfw",
      "category": "general",
      "dimension_x": 3072,
      "dimension_y": 2040,
      "resolution": "3072x2040",
      "ratio": "1.51",
      "file_size": 2058756,
      "file_type": "image\/jpeg",
      "created_at": "2019-12-03 16:15:33",
      "colors": [
        "#424153",
        "#999999",
        "#996633",
        "#abbcda",
        "#000000"
      ],
      "path": "https:\/\/w.wallhaven.cc\/full\/lm\/wallhaven-lmr7dy.jpg",
      "thumbs": {
        "large": "https:\/\/th.wallhaven.cc\/lg\/lm\/lmr7dy.jpg",
        "original": "https:\/\/th.wallhaven.cc\/orig\/lm\/lmr7dy.jpg",
        "small": "https:\/\/th.wallhaven.cc\/small\/lm\/lmr7dy.jpg"
      }
    },
    {
      "id": "4dq6jl",
      "url": "https:\/\/wallhaven.cc\/w\/4dq6jl",
      "short_url": "https:\/\/whvn.cc\/4dq6jl",
      "views": 1725,
      "favorites": 5,
      "source": "",
      "purity": "sfw",
      "category": "general",
      "dimension_x": 2560,
      "dimension_y": 1600,
      "resolution": "2560x1600",
      "ratio": "1.6",
      "file_size": 1445136,
      "file_type": "image\/jpeg",
      "created_at": "2015-05-23 10:00:55",
      "colors": [
        "#999999",
        "#424153",
        "#996633",
        "#000000",
        "#336600"
      ],
      "path": "https:\/\/w.wallhaven.cc\/full\/4d\/wallhaven-4dq6jl.jpg",
      "thumbs": {
        "large": "https:\/\/th.wallhaven.cc\/lg\/4d\/4dq6jl.jpg",
        "original": "https:\/\/th.wallhaven.cc\/orig\/4d\/4dq6jl.jpg",
        "small": "https:\/\/th.wallhaven.cc\/small\/4d\/4dq6jl.jpg"
      }
    },
    {
      "id": "0q2q3r",
      "url": "https:\/\/wallhaven.cc\/w\/0q2q3r",
      "short_url": "https:\/\/whvn.cc\/0q2q3r",
      "views": 2755,
      "favorites": 3,
      "source": "",
      "purity": "sfw",
      "category": "general",
      "dimension_x": 2288,
      "dimension_y": 1287,
      "resolution": "2288x1287",
      "ratio": "1.78",
      "file_size": 96808,
      "file_type": "image\/jpeg",
      "created_at": "2014-10-04 01:17:33",
      "colors": [
        "#000000",
        "#424153",
        "#999999",
        "#abbcda",
        "#996633"
      ],
      "path": "https:\/\/w.wallhaven.cc\/full\/0q\/wallhaven-0q2q3r.jpg",
      "thumbs": {
        "large": "https:\/\/th.wallhaven.cc\/lg\/0q\/0q2q3r.jpg",
        "original": "https:\/\/th.wallhaven.cc\/orig\/0q\/0q2q3r.jpg",
        "small": "https:\/\/th.wallhaven.cc\/small\/0q\/0q2q3r.jpg"
      }
    },
    {
      "id": "mpvqdk",
      "url": "https:\/\/wallhaven.cc\/w\/mpvqdk",
      "short_url": "https:\/\/whvn.cc\/mpvqdk",
      "views": 837,
      "favorites": 3,
      "source": "",
      "purity": "sfw",
      "category": "general",
      "dimension_x": 1600,
      "dimension_y": 1200,
      "resolution": "1600x1200",
      "ratio": "1.33",
      "file_size": 906652,
      "file_type": "image\/jpeg",
      "created_at": "2017-06-10 23:19:32",
      "colors": [
        "#999999",
        "#abbcda",
        "#424153",
        "#996633",
        "#000000"
      ],
      "path": "https:\/\/w.wallhaven.cc\/full\/mp\/wallhaven-mpvqdk.jpg",
      "thumbs": {
        "large": "https:\/\/th.wallhaven.cc\/lg\/mp\/mpvqdk.jpg",
        "original": "https:\/\/th.wallhaven.cc\/orig\/mp\/mpvqdk.jpg",
        "small": "https:\/\/th.wallhaven.cc\/small\/mp\/mpvqdk.jpg"
      }
    },
    {
      "id": "0wlz5x",
      "url": "https:\/\/wallhaven.cc\/w\/0wlz5x",
      "short_url": "https:\/\/whvn.cc\/0wlz5x",
      "views": 1977,
      "favorites": 3,
      "source": "",
      "purity": "sfw",
      "category": "general",
      "dimension_x": 2000,
      "dimension_y": 1320,
      "resolution": "2000x1320",
      "ratio": "1.52",
      "file_size": 463225,
      "file_type": "image\/jpeg",
      "created_at": "2014-12-13 04:45:48",
      "colors": [
        "#999999",
        "#000000",
        "#424153",
        "#cccccc",
        "#996633"
      ],
      "path": "https:\/\/w.wallhaven.cc\/full\/0w\/wallhaven-0wlz5x.jpg",
      "thumbs": {
        "large": "https:\/\/th.wallhaven.cc\/lg\/0w\/0wlz5x.jpg",
        "original": "https:\/\/th.wallhaven.cc\/orig\/0w\/0wlz5x.jpg",
        "small": "https:\/\/th.wallhaven.cc\/small\/0w\/0wlz5x.jpg"
      }
    }
  ],
  "meta": {
    "current_page": 1,
    "last_page": 3,
    "per_page": 24,
    "total": 72,
    "query": null,
    "seed": "abc123"
  }
}
