{
  "data": [
    {
      "id": "43pjxd",
      "url": "https:\/\/wallhaven.cc\/w\/43pjxd",
      "short_url": "https:\/\/whvn.cc\/43pjxd",
      "views": 1786,
      "favorites": 4,
      "source": "",
      "purity": "sfw",
      "category": "general",
      "dimension_x": 4912,
      "dimension_y": 3264,
      "resolution": "4912x3264",
      "ratio": "1.5",
      "file_size": 1763419,
      "file_type": "image\/jpeg",
      "created_at": "2015-11-17 13:00:30",
      "colors": [
        "#000000",
        "#663300",
        "#424153",
        "#fdadc7",
        "#999999"
      ],
      "path": "https:\/\/w.wallhaven.cc\/full\/43\/wallhaven-43pjxd.jpg",
      "thumbs": {
        "large": "https:\/\/th.wallhaven.cc\/lg\/43\/43pjxd.jpg",
        "original": "https:\/\/th.wallhaven.cc\/orig\/43\/43pjxd.jpg",
        "small": "https:\/\/th.wallhaven.cc\/small\/43\/43pjxd.jpg"
      }
    },
    {
      "id": "6kqdml",
      "url": "https:\/\/wallhaven.cc\/w\/6kqdml",
      "short_url": "https:\/\/whvn.cc\/6kqdml",
      "views": 4089,
      "favorites": 40,
      "source": "",
      "purity": "sfw",
      "category": "general",
      "dimension_x": 1920,
      "dimension_y": 1184,
      "resolution": "1920x1184",
      "ratio": "1.62",
      "file_size": 652989,
      "file_type": "image\/jpeg",
      "created_at": "2018-07-28 15:39:52",
      "colors": [
        "#ffffff",
        "#999999",
        "#cccccc",
        "#996633",
        "#424153"
      ],
      "path": "https:\/\/w.wallhaven.cc\/full\/6k\/wallhaven-6kqdml.jpg",
      "thumbs": {
        "large": "https:\/\/th.wallhaven.cc\/lg\/6k\/6kqdml.jpg",
        "original": "https:\/\/th.wallhaven.cc\/orig\/6k\/6kqdml.jpg",
        "small": "https:\/\/th.wallhaven.cc\/small\/6k\/6kqdml.jpg"
      }
    },
    {
      "id": "pk9xem",
      "url": "https:\/\/wallhaven.cc\/w\/pk9xem",
      "short_url": "https:\/\/whvn.cc\/pk9xem",
      "views": 285,
      "favorites": 4,
      "source": "",
      "purity": "sfw",
      "category": "general",
      "dimension_x": 2484,
      "dimension_y": 1200,
      "resolution": "2484x1200",
      "ratio": "2.07",
      "file_size": 8985329,
      "file_type": "image\/png",
      "created_at": "2021-03-27 19:04:18",
      "colors": [
        "#999999",
        "#424153",
        "#996633",
        "#cccccc",
        "#663399"
      ],
      "path": "https:\/\/w.wallhaven.cc\/full\/pk\/wallhaven-pk9xem.png",
      "thumbs": {
        "large": "https:\/\/th.wallhaven.cc\/lg\/pk\/pk9xem.jpg",
        "original": "https:\/\/th.wallhaven.cc\/orig\/pk\/pk9xem.jpg",
        "small": "https:\/\/th.wallhaven.cc\/small\/pk\/pk9xem.jpg"
      }
    },
    {
      "id": "5w2877",
      "url": "https:\/\/wallhaven.cc\/w\/5w2877",
      "short_url": "https:\/\/whvn.cc\/5w2877",
      "views": 1166,
      "favorites": 26,
      "source": "",
      "purity": "sfw",
      "category": "general",
      "dimension_x": 1428,
      "dimension_y": 850,
      "resolution": "1428x850",
      "ratio": "1.68",
      "file_size": 767852,
      "file_type": "image\/jpeg",
      "created_at": "2020-09-13 05:28:31",
      "colors": [
        "#424153",
        "#000000",
        "#999999",
        "#663399",
        "#cccccc"
      ],
      "path": "https:\/\/w.wallhaven.cc\/full\/5w\/wallhaven-5w2877.jpg",
      "thumbs": {
        "large": "https:\/\/th.wallhaven.cc\/lg\/5w\/5w2877.jpg",
        "original": "https:\/\/th.wallhaven.cc\/orig\/5w\/5w2877.jpg",
        "small": "https:\/\/th.wallhaven.cc\/small\/5w\/5w2877.jpg"
      }
    },
    {
      "id": "49jrxd",
      "url": "https:\/\/wallhaven.cc\/w\/49jrxd",
      "short_url": "https:\/\/whvn.cc\/49jrxd",
      "views": 2104,
      "favorites": 12,
      "source": "",
      "purity": "sfw",
      "category": "general",
      "dimension_x": 2560,
      "dimension_y": 1440,
      "resolution": "2560x1440",
      "ratio": "1.78",
      "file_size": 281076,
      "file_type": "image\/jpeg",
      "created_at": "2015-12-26 20:47:50",
      "colors": [
        "#000000",
        "#424153",
        "#999999",
        "#ffcc33",
        "#663300"
      ],
      "path": "https:\/\/w.wallhaven.cc\/full\/49\/wallhaven-49jrxd.jpg",
      "thumbs": {
        "large": "https:\/\/th.wallhaven.cc\/lg\/49\/49jrxd.jpg",
        "original": "https:\/\/th.wallhaven.cc\/orig\/49\/49jrxd.jpg",
        "small": "https:\/\/th.wallhaven.cc\/small\/49\/49jrxd.jpg"
      }
    },
    {
      "id": "xlprm3",
      "url": "https:\/\/wallhaven.cc\/w\/xlprm3",
      "short_url": "https:\/\/whvn.cc\/xlprm3",
      "views": 898,
      "favorites": 9,
      "source": "",
      "purity": "sfw",
      "category": "general",
      "dimension_x": 1920,
      "dimension_y": 1080,
      "resolution": "1920x1080",
      "ratio": "1.78",
      "file_size": 929890,
      "file_type": "image\/png",
      "created_at": "2019-07-30 19:07:01",
      "colors": [
        "#993399",
        "#663399",
        "#660000",
        "#999999",
        "#ff6600"
      ],
      "path": "https:\/\/w.wallhaven.cc\/full\/xl\/wallhaven-xlprm3.png",
      "thumbs": {
        "large": "https:\/\/th.wallhaven.cc\/lg\/xl\/xlprm3.jpg",
        "original": "https:\/\/th.wallhaven.cc\/orig\/xl\/xlprm3.jpg",
        "small": "https:\/\/th.wallhaven.cc\/small\/xl\/xlprm3.jpg"
      }
    },
    {
      "id": "nr2d8j",
      "url": "https:\/\/wallhaven.cc\/w\/nr2d8j",
      "short_url": "https:\/\/whvn.cc\/nr2d8j",
      "views": 53845,
      "favorites": 41,
      "source": "https:\/\/dribbble.com\/shots\/1396669-Wired-Los-Angeles\/attachments\/202469",
      "purity": "sfw",
      "category": "general",
      "dimension_x": 3200,
      "dimension_y": 2048,
      "resolution": "3200x2048",
      "ratio": "1.56",
      "file_size": 660976,
      "file_type": "image\/jpeg",
      "created_at": "2014-09-21 15:39:40",
      "colors": [
        "#424153",
        "#999999",
        "#e7d8b1",
        "#cccccc",
        "#996633"
      ],
      "path": "https:\/\/w.wallhaven.cc\/full\/nr\/wallhaven-nr2d8j.jpg",
      "thumbs": {
        "large": "https:\/\/th.wallhaven.cc\/lg\/nr\/nr2d8j.jpg",
        "original": "https:\/\/th.wallhaven.cc\/orig\/nr\/nr2d8j.jpg",
        "small": "https:\/\/th.wallhaven.cc\/small\/nr\/nr2d8j.jpg"
      }
    },
    {
      "id": "ox3pkl",
      "url": "https:\/\/wallhaven.cc\/w\/ox3pkl",
      "short_url": "https:\/\/whvn.cc\/ox3pkl",
      "views": 32734,
      "favorites": 242,
      "source": "https:\/\/www.artstation.com\/artwork\/1KeeK",
      "purity": "sfw",
      "category": "general",
      "dimension_x": 1920,
      "dimension_y": 1080,
      "resolution": "1920x1080",
      "ratio": "1.78",
      "file_size": 351468,
      "file_type": "image\/jpeg",
      "created_at": "2018-11-25 19:02:37",
      "colors": [
        "#000000",
        "#424153",
        "#660000",
        "#663399",
        "#333399"
      ],
      "path": "https:\/\/w.wallhaven.cc\/full\/ox\/wallhaven-ox3pkl.jpg",
      "thumbs": {
        "large": "https:\/\/th.wallhaven.cc\/lg\/ox\/ox3pkl.jpg",
        "original": "https:\/\/th.wallhaven.cc\/orig\/ox\/ox3pkl.jpg",
        "small": "https:\/\/th.wallhaven.cc\/small\/ox\/ox3pkl.jpg"
      }
    },
    {
      "id": "4gjg2e",
      "url": "https:\/\/wallhaven.cc\/w\/4gjg2e",
      "short_url": "https:\/\/whvn.cc\/4gjg2e",
      "views": 1971,
      "favorites": 4,
      "source": "",
      "purity": "sfw",
      "category": "general",
      "dimension_x": 2286,
      "dimension_y": 1521,
      "resolution": "2286x1521",
      "ratio": "1.5",
      "file_size": 244537,
      "file_type": "image\/jpeg",
      "created_at": "2014-09-16 18:20:51",
      "colors": [
        "#999999",
        "#000000",
        "#424153",
        "#cccccc",
        "#ffffff"
      ],
      "path": "https:\/\/w.wallhaven.cc\/full\/4g\/wallhaven-4gjg2e.jpg",
      "thumbs": {
        "large": "https:\/\/th.wallhaven.cc\/lg\/4g\/4gjg2e.jpg",
        "original": "https:\/\/th.wallhaven.cc\/orig\/4g\/4gjg2e.jpg",
        "small": "https:\/\/th.wallhaven.cc\/small\/4g\/4gjg2e.jpg"
      }
    },
    {
      "id": "ymzpyd",
      "url": "https:\/\/wallhaven.cc\/w\/ymzpyd",
      "short_url": "https:\/\/whvn.cc\/ymzpyd",
      "views": 6395,
      "favorites": 83,
      "source": "",
      "purity": "sfw",
      "category": "general",
      "dimension_x": 2560,
      "dimension_y": 1440,
      "resolution": "2560x1440",
      "ratio": "1.78",
      "file_size": 3048761,
      "file_type": "image\/jpeg",
      "created_at": "2020-10-18 17:05:30",
      "colors": [
        "#000000",
        "#424153",
        "#999999",
        "#e7d8b1",
        "#336600"
      ],
      "path": "https:\/\/w.wallhaven.cc\/full\/ym\/wallhaven-ymzpyd.jpg",
      "thumbs": {
        "large": "https:\/\/th.wallhaven.cc\/lg\/ym\/ymzpyd.jpg",
        "original": "https:\/\/th.wallhaven.cc\/orig\/ym\/ymzpyd.jpg",
        "small": "https:\/\/th.wallhaven.cc\/small\/ym\/ymzpyd.jpg"
      }
    },
    {
      "id": "95w1zw",
      "url": "https:\/\/wallhaven.cc\/w\/95w1zw",
      "short_url": "https:\/\/whvn.cc\/95w1zw",
      "views": 4326,
      "favorites": 51,
      "source": "",
      "purity": "sfw",
      "category": "general",
      "dimension_x": 1920,
      "dimension_y": 1080,
      "resolution": "1920x1080",
      "ratio": "1.78",
      "file_size": 286187,
      "file_type": "image\/jpeg",
      "created_at": "2017-09-23 18:48:25",
      "colors": [
        "#000000",
        "#660000",
        "#424153",
        "#663300",
        "#990000"
      ],
      "path": "https:\/\/w.wallhaven.cc\/full\/95\/wallhaven-95w1zw.jpg",
      "thumbs": {
        "large": "https:\/\/th.wallhaven.cc\/lg\/95\/95w1zw.jpg",
        "original": "https:\/\/th.wallhaven.cc\/orig\/95\/95w1zw.jpg",
        "small": "https:\/\/th.wallhaven.cc\/small\/95\/95w1zw.jpg"
      }
    },
    {
      "id": "nrkvd1",
      "url": "https:\/\/wallhaven.cc\/w\/nrkvd1",
      "short_url": "https:\/\/whvn.cc\/nrkvd1",
      "views": 1982,
      "favorites": 8,
      "source": "",
      "purity": "sfw",
      "category": "general",
      "dimension_x": 2560,
      "dimension_y": 1600,
      "resolution": "2560x1600",
      "ratio": "1.6",
      "file_size": 746294,
      "file_type": "image\/jpeg",
      "created_at": "2016-01-10 14:32:49",
      "colors": [
        "#cc6633",
        "#ffcc33",
        "#663300",
        "#e7d8b1",
        "#999999"
      ],
      "path": "https:\/\/w.wallhaven.cc\/full\/nr\/wallhaven-nrkvd1.jpg",
      "thumbs": {
        "large": "https:\/\/th.wallhaven.cc\/lg\/nr\/nrkvd1.jpg",
        "original": "https:\/\/th.wallhaven.cc\/orig\/nr\/nrkvd1.jpg",
        "small": "https:\/\/th.wallhaven.cc\/small\/nr\/nrkvd1.jpg"
      }
    },
    {
      "id": "4lky8y",
      "url": "https:\/\/wallhaven.cc\/w\/4lky8y",
      "short_url": "https:\/\/whvn.cc\/4lky8y",
      "views": 1319,
      "favorites": 1,
      "source": "",
      "purity": "sfw",
      "category": "general",
      "dimension_x": 1920,
      "dimension_y": 2584,
      "resolution": "1920x2584",
      "ratio": "0.74",
      "file_size": 1209562,
      "file_type": "image\/jpeg",
      "created_at": "2014-12-01 21:14:57",
      "colors": [
        "#424153",
        "#996633",
        "#cc6633",
        "#999999",
        "#66cccc"
      ],
      "path": "https:\/\/w.wallhaven.cc\/full\/4l\/wallhaven-4lky8y.jpg",
      "thumbs": {
        "large": "https:\/\/th.wallhaven.cc\/lg\/4l\/4lky8y.jpg",
        "original": "https:\/\/th.wallhaven.cc\/orig\/4l\/4lky8y.jpg",
        "small": "https:\/\/th.wallhaven.cc\/small\/4l\/4lky8y.jpg"
      }
    },
    {
      "id": "gjxz8l",
      "url": "https:\/\/wallhaven.cc\/w\/gjxz8l",
      "short_url": "https:\/\/whvn.cc\/gjxz8l",
      "views": 1013,
      "favorites": 5,
      "source": "",
      "purity": "sfw",
      "category": "general",
      "dimension_x": 2000,
      "dimension_y": 1250,
      "resolution": "2000x1250",
      "ratio": "1.6",
      "file_size": 648566,
      "file_type": "image\/jpeg",
      "created_at": "2017-06-10 23:19:31",
      "colors": [
        "#ffffff",
        "#abbcda",
        "#999999",
        "#424153",
        "#cccccc"
      ],
      "path": "https:\/\/w.wallhaven.cc\/full\/gj\/wallhaven-gjxz8l.jpg",
      "thumbs": {
        "large": "https:\/\/th.wallhaven.cc\/lg\/gj\/gjxz8l.jpg",
        "original": "https:\/\/th.wallhaven.cc\/orig\/gj\/gjxz8l.jpg",
        "small": "https:\/\/th.wallhaven.cc\/small\/gj\/gjxz8l.jpg"
      }
    },
    {
      "id": "4xqml3",
      "url": "https:\/\/wallhaven.cc\/w\/4xqml3",
      "short_url": "https:\/\/whvn.cc\/4xqml3",
      "views": 1610,
      "favorites": 4,
      "source": "",
      "purity": "sfw",
      "category": "general",
      "dimension_x": 1090,
      "dimension_y": 1200,
      "resolution": "1090x1200",
      "ratio": "0.91",
      "file_size": 487988,
      "file_type": "image\/jpeg",
      "created_at": "2015-12-16 18:46:26",
      "colors": [
        "#424153",
        "#000000",
        "#663300",
        "#996633",
        "#999999"
      ],
      "path": "https:\/\/w.wallhaven.cc\/full\/4x\/wallhaven-4xqml3.jpg",
      "thumbs": {
        "large": "https:\/\/th.wallhaven.cc\/lg\/4x\/4xqml3.jpg",
        "original": "https:\/\/th.wallhaven.cc\/orig\/4x\/4xqml3.jpg",
        "small": "https:\/\/th.wallhaven.cc\/small\/4x\/4xqml3.jpg"
      }
    },
    {
      "id": "nzm9ww",
      "url": "https:\/\/wallhaven.cc\/w\/nzm9ww",
      "short_url": "https:\/\/whvn.cc\/nzm9ww",
      "views": 2570,
      "favorites": 7,
      "source": "",
      "purity": "sfw",
      "category": "general",
      "dimension_x": 2560,
      "dimension_y": 1600,
      "resolution": "2560x1600",
      "ratio": "1.6",
      "file_size": 7511560,
      "file_type": "image\/png",
      "created_at": "2014-09-23 17:55:04",
      "colors": [
        "#993399",
        "#424153",
        "#663399",
        "#000000",
        "#663300"
      ],
      "path": "https:\/\/w.wallhaven.cc\/full\/nz\/wallhaven-nzm9ww.png",
      "thumbs": {
        "large": "https:\/\/th.wallhaven.cc\/lg\/nz\/nzm9ww.jpg",
        "original": "https:\/\/th.wallhaven.cc\/orig\/nz\/nzm9ww.jpg",
        "small": "https:\/\/th.wallhaven.cc\/small\/nz\/nzm9ww.jpg"
      }
    },
    {
      "id": "vm5je8",
      "url": "https:\/\/wallhaven.cc\/w\/vm5je8",
      "short_url": "https:\/\/whvn.cc\/vm5je8",
      "views": 2566,
      "favorites": 15,
      "source": "",
      "purity": "sfw",
      "category": "general",
      "dimension_x": 2560,
      "dimension_y": 1440,
      "resolution": "2560x1440",
      "ratio": "1.78",
      "file_size": 5765350,
      "file_type": "image\/png",
      "created_at": "2016-12-18 14:13:52",
      "colors": [
        "#000000",
        "#ffffff",
        "#424153",
        "#999999",
        "#cccccc"
      ],
      "path": "https:\/\/w.wallhaven.cc\/full\/vm\/wallhaven-vm5je8.png",
      "thumbs": {
        "large": "https:\/\/th.wallhaven.cc\/lg\/vm\/vm5je8.jpg",
        "original": "https:\/\/th.wallhaven.cc\/orig\/vm\/vm5je8.jpg",
        "small": "https:\/\/th.wallhaven.cc\/small\/vm\/vm5je8.jpg"
      }
    },
    {
      "id": "4x3vrv",
      "url": "https:\/\/wallhaven.cc\/w\/4x3vrv",
      "short_url": "https:\/\/whvn.cc\/4x3vrv",
      "views": 2702,
      "favorites": 13,
      "source": "",
      "purity": "sfw",
      "category": "general",
      "dimension_x": 7000,
      "dimension_y": 3777,
      "resolution": "7000x3777",
      "ratio": "1.85",
      "file_size": 4012355,
      "file_type": "image\/jpeg",
      "created_at": "2015-05-17 21:56:02",
      "colors": [
        "#000000",
        "#424153",
        "#999999",
        "#996633",
        "#663300"
      ],
      "path": "https:\/\/w.wallhaven.cc\/full\/4x\/wallhaven-4x3vrv.jpg",
      "thumbs": {
        "large": "https:\/\/th.wallhaven.cc\/lg\/4x\/4x3vrv.jpg",
        "original": "https:\/\/th.wallhaven.cc\/orig\/4x\/4x3vrv.jpg",
        "small": "https:\/\/th.wallhaven.cc\/small\/4x\/4x3vrv.jpg"
      }
    },
    {
      "id": "n6m82x",
      "url": "https:\/\/wallhaven.cc\/w\/n6m82x",
      "short_url": "https:\/\/whvn.cc\/n6m82x",
      "views": 1242,
      "favorites": 3,
      "source": "",
      "purity": "sfw",
      "category": "general",
      "dimension_x": 1600,
      "dimension_y": 1200,
      "resolution": "1600x1200",
      "ratio": "1.33",
      "file_size": 346935,
      "file_type": "image\/jpeg",
      "created_at": "2014-11-09 19:15:53",
      "colors": [
        "#424153",
        "#000000",
        "#999999",
        "#66cccc",
        "#ffffff"
      ],
      "path": "https:\/\/w.wallhaven.cc\/full\/n6\/wallhaven-n6m82x.jpg",
      "thumbs": {
        "large": "https:\/\/th.wallhaven.cc\/lg\/n6\/n6m82x.jpg",
        "original": "https:\/\/th.wallhaven.cc\/orig\/n6\/n6m82x.jpg",
        "small": "https:\/\/th.wallhaven.cc\/small\/n6\/n6m82x.jpg"
      }
    },
    {
      "id": "ymk8gk",
      "url": "https:\/\/wallhaven.cc\/w\/ymk8gk",
      "short_url": "https:\/\/whvn.cc\/ymk8gk",
      "views": 972,
      "favorites": 2,
      "source": "",
      "purity": "sfw",
      "category": "general",
      "dimension_x": 3840,
      "dimension_y": 2160,
      "resolution": "3840x2160",
      "ratio": "1.78",
      "file_size": 7020683,
      "file_type": "image\/jpeg",
      "created_at": "2019-10-14 11:03:28",
      "colors": [
        "#424153",
        "#000000",
        "#663399",
        "#996633",
        "#663300"
      ],
      "path": "https:\/\/w.wallhaven.cc\/full\/ym\/wallhaven-ymk8gk.jpg",
      "thumbs": {
        "large": "https:\/\/th.wallhaven.cc\/lg\/ym\/ymk8gk.jpg",
        "original": "https:\/\/th.wallhaven.cc\/orig\/ym\/ymk8gk.jpg",
        "small": "https:\/\/th.wallhaven.cc\/small\/ym\/ymk8gk.jpg"
      }
    },
    {
      "id": "p8m6j9",
      "url": "https:\/\/wallhaven.cc\/w\/p8m6j9",
      "short_url": "https:\/\/whvn.cc\/p8m6j9",
      "views": 1751,
      "favorites": 35,
      "source": "https:\/\/www.deviantart.com\/anatofinnstark",
      "purity": "sfw",
      "category": "general",
      "dimension_x": 1920,
      "dimension_y": 1005,
      "resolution": "1920x1005",
      "ratio": "1.91",
      "file_size": 570492,
      "file_type": "image\/jpeg",
      "created_at": "2019-11-04 16:34:21",
      "colors": [
        "#424153",
        "#000000",
        "#999999",
        "#fdadc7",
        "#e7d8b1"
      ],
      "path": "https:\/\/w.wallhaven.cc\/full\/p8\/wallhaven-p8m6j9.jpg",
      "thumbs": {
        "large": "https:\/\/th.wallhaven.cc\/lg\/p8\/p8m6j9.jpg",
        "original": "https:\/\/th.wallhaven.cc\/orig\/p8\/p8m6j9.jpg",
        "small": "https:\/\/th.wallhaven.cc\/small\/p8\/p8m6j9.jpg"
      }
    },
    {
      "id": "133lx1",
      "url": "https:\/\/wallhaven.cc\/w\/133lx1",
      "short_url": "https:\/\/whvn.cc\/133lx1",
      "views": 3716,
      "favorites": 29,
      "source": "",
      "purity": "sfw",
      "category": "general",
      "dimension_x": 1080,
      "dimension_y": 1920,
      "resolution": "1080x1920",
      "ratio": "0.56",
      "file_size": 938882,
      "file_type": "image\/png",
      "created_at": "2018-09-26 13:09:28",
      "colors": [
        "#000000",
        "#424153",
        "#999999",
        "#cccccc",
        "#abbcda"
      ],
      "path": "https:\/\/w.wallhaven.cc\/full\/13\/wallhaven-133lx1.png",
      "thumbs": {
        "large": "https:\/\/th.wallhaven.cc\/lg\/13\/133lx1.jpg",
        "original": "https:\/\/th.wallhaven.cc\/orig\/13\/133lx1.jpg",
        "small": "https:\/\/th.wallhaven.cc\/small\/13\/133lx1.jpg"
      }
    },
    {
      "id": "eol1k8",
      "url": "https:\/\/wallhaven.cc\/w\/eol1k8",
      "short_url": "https:\/\/whvn.cc\/eol1k8",
      "views": 3820,
      "favorites": 5,
      "source": "",
      "purity": "sfw",
      "category": "general",
      "dimension_x": 1920,
      "dimension_y": 1080,
      "resolution": "1920x1080",
      "ratio": "1.78",
      "file_size": 384438,
      "file_type": "image\/jpeg",
      "created_at": "2017-10-18 19:46:05",
      "colors": [
        "#999999",
        "#424153",
        "#000000",
        "#cccccc",
        "#abbcda"
      ],
      "path": "https:\/\/w.wallhaven.cc\/full\/eo\/wallhaven-eol1k8.jpg",
      "thumbs": {
        "large": "https:\/\/th.wallhaven.cc\/lg\/eo\/eol1k8.jpg",
        "original": "https:\/\/th.wallhaven.cc\/orig\/eo\/eol1k8.jpg",
        "small": "https:\/\/th.wallhaven.cc\/small\/eo\/eol1k8.jpg"
      }
    },
    {
      "id": "0wjr2r",
      "url": "https:\/\/wallhaven.cc\/w\/0wjr2r",
      "short_url": "https:\/\/whvn.cc\/0wjr2r",
      "views": 2096,
      "favorites": 9,
      "source": "",
      "purity": "sfw",
      "category": "general",
      "dimension_x": 1920,
      "dimension_y": 1200,
      "resolution": "1920x1200",
      "ratio": "1.6",
      "file_size": 516939,
      "file_type": "image\/jpeg",
      "created_at": "2015-08-04 05:06:15",
      "colors": [
        "#424153",
        "#000000",
        "#999999",
        "#663300",
        "#996633"
      ],
      "path": "https:\/\/w.wallhaven.cc\/full\/0w\/wallhaven-0wjr2r.jpg",
      "thumbs": {
        "large": "https:\/\/th.wallhaven.cc\/lg\/0w\/0wjr2r.jpg",
        "original": "https:\/\/th.wallhaven.cc\/orig\/0w\/0wjr2r.jpg",
        "small": "https:\/\/th.wallhaven.cc\/small\/0w\/0wjr2r.jpg"
      }
    }
  ],
  "meta": {
    "current_page": 2,
    "last_page": 3,
    "per_page": 24,
    "total": 72,
    "query": null,
    "seed": "abc123"
  }
}
